timestamp; stationID; lat; lon; speed; heading; rxPower; distanceToEgo
1543237331.600; 2952677462; 51.03467570; 13.73965750; 0.00; 193.50; -45; -1.000; 
1543237331.651; 1717974026; 51.03476390; 13.73942930; 0.00; 198.00; 0; -1.000; 
1543237331.701; 2952677462; 51.03467570; 13.73965750; 0.00; 193.50; -45; -1.000; 
1543237331.733; 0; 51.03472470; 13.73963500; 0.01; 0.00; 0; 0.000; 
1543237331.761; 3405770240; 51.03476390; 13.73942930; 0.00; 198.00; -65; 15.809; 
1543237331.810; 2952677462; 51.03467570; 13.73965750; 0.00; 193.50; -45; 6.032; 
1543237331.894; 0; 51.03472480; 13.73963510; 0.01; 0.00; 0; 0.000; 
1543237331.911; 2952677462; 51.03467560; 13.73965750; 0.00; 193.50; -46; 6.040; 
1543237331.961; 3405770240; 51.03476390; 13.73942930; 0.00; 198.00; -65; 15.811; 
1543237332.001; 2952677462; 51.03467550; 13.73965730; 0.02; 193.50; -45; 6.051; 
1543237332.094; 0; 51.03472490; 13.73963530; 0.01; 0.00; 0; 0.000; 
1543237332.110; 2952677462; 51.03467540; 13.73965730; 0.02; 193.50; -45; 6.061; 
1543237332.181; 3405770240; 51.03476390; 13.73942930; 0.00; 198.00; -65; 15.819; 
1543237332.200; 2952677462; 51.03467540; 13.73965710; 0.04; 193.50; -45; 6.072; 
1543237332.278; 0; 51.03472490; 13.73963540; 0.00; 0.00; 0; 0.000; 
1543237332.300; 2952677462; 51.03467540; 13.73965710; 0.06; 193.50; -46; 6.063; 
1543237332.361; 3405770240; 51.03476390; 13.73942930; 0.00; 198.00; -65; 15.826; 
1543237332.410; 2952677462; 51.03467530; 13.73965710; 0.08; 193.50; -45; 6.063; 
1543237332.493; 0; 51.03472500; 13.73963560; 0.01; 0.00; 0; 0.000; 
1543237332.510; 2952677462; 51.03467550; 13.73965700; 0.00; 193.50; -45; 6.080; 
1543237332.561; 3405770240; 51.03476400; 13.73942920; 0.00; 198.00; -65; 15.834; 
1543237332.601; 2952677462; 51.03467550; 13.73965680; 0.00; 193.50; -45; 6.055; 
1543237332.650; 1717974026; 51.03476400; 13.73942920; 0.00; 198.00; 0; 15.834; 
1543237332.700; 2952677462; 51.03467550; 13.73965680; 0.00; 193.50; -45; 6.049; 
1543237332.725; 0; 51.03472500; 13.73963570; 0.01; 0.00; 0; 0.000; 
1543237332.761; 3405770240; 51.03476400; 13.73942920; 0.00; 198.00; -65; 15.853; 
1543237332.801; 2952677462; 51.03467540; 13.73965680; 0.00; 193.50; -45; 6.046; 
1543237332.896; 0; 51.03472510; 13.73963580; 0.01; 0.00; 0; 0.000; 
1543237332.911; 2952677462; 51.03467550; 13.73965670; 0.00; 193.50; -45; 6.065; 
1543237332.961; 3405770240; 51.03476400; 13.73942920; 0.00; 198.00; -65; 15.854; 
1543237333.000; 2952677462; 51.03467550; 13.73965630; 0.02; 193.50; -45; 6.051; 
1543237333.095; 0; 51.03472510; 13.73963600; 0.01; 0.00; 0; 0.000; 
1543237333.110; 2952677462; 51.03467540; 13.73965630; 0.02; 193.50; -45; 6.034; 
1543237333.181; 3405770240; 51.03476400; 13.73942920; 0.00; 198.00; -65; 15.868; 
1543237333.200; 2952677462; 51.03467540; 13.73965630; 0.02; 193.50; -45; 6.045; 
1543237333.292; 0; 51.03472510; 13.73963610; 0.01; 0.00; 0; 0.000; 
1543237333.300; 2952677462; 51.03467530; 13.73965600; 0.00; 193.50; -45; 6.042; 
1543237333.361; 3405770240; 51.03476400; 13.73942920; 0.00; 198.00; -65; 15.875; 
1543237333.410; 2952677462; 51.03467530; 13.73965570; 0.00; 193.50; -45; 6.045; 
1543237333.493; 0; 51.03472510; 13.73963630; 0.01; 0.00; 0; 0.000; 
1543237333.510; 2952677462; 51.03467530; 13.73965570; 0.00; 193.50; -45; 6.031; 
1543237333.560; 3405770240; 51.03476400; 13.73942910; 0.00; 198.00; -66; 15.888; 
1543237333.600; 2952677462; 51.03467530; 13.73965530; 0.00; 193.50; -45; 6.031; 
1543237333.650; 1717974026; 51.03476400; 13.73942910; 0.00; 198.00; 0; 15.888; 
1543237333.700; 2952677462; 51.03467530; 13.73965530; 0.00; 193.50; -45; 6.020; 
1543237333.719; 0; 51.03472520; 13.73963640; 0.01; 0.00; 0; 0.000; 
1543237333.761; 3405770240; 51.03476400; 13.73942910; 0.00; 198.00; -65; 15.896; 
1543237333.800; 2952677462; 51.03467530; 13.73965530; 0.00; 193.50; -45; 6.028; 
1543237333.895; 0; 51.03472520; 13.73963650; 0.00; 0.00; 0; 0.000; 
1543237333.910; 2952677462; 51.03467530; 13.73965510; 0.02; 193.50; -45; 6.025; 
1543237333.960; 3405770240; 51.03476400; 13.73942910; 0.00; 198.00; -66; 15.903; 
1543237334.001; 2952677462; 51.03467550; 13.73965500; 0.00; 193.50; -45; 6.020; 
1543237334.097; 0; 51.03472520; 13.73963670; 0.01; 0.00; 0; 0.000; 
1543237334.110; 2952677462; 51.03467550; 13.73965500; 0.00; 193.50; -45; 5.990; 
1543237334.180; 3405770240; 51.03476400; 13.73942910; 0.00; 198.00; -65; 15.917; 
1543237334.200; 2952677462; 51.03467530; 13.73965500; 0.04; 193.50; -46; 5.990; 
1543237334.296; 0; 51.03472530; 13.73963680; 0.01; 0.00; 0; 0.000; 
1543237334.310; 2952677462; 51.03467520; 13.73965500; 0.04; 193.50; -45; 6.020; 
1543237334.361; 3405770240; 51.03476400; 13.73942910; 0.00; 198.00; -65; 15.918; 
1543237334.410; 2952677462; 51.03467520; 13.73965490; 0.06; 193.50; -46; 6.031; 
1543237334.493; 0; 51.03472530; 13.73963690; 0.00; 0.00; 0; 0.000; 
1543237334.500; 2952677462; 51.03467540; 13.73965480; 0.02; 193.50; -45; 6.026; 
1543237334.561; 3405770240; 51.03476400; 13.73942900; 0.00; 198.00; -66; 15.925; 
1543237334.601; 2952677462; 51.03467530; 13.73965470; 0.00; 193.50; -45; 6.001; 
1543237334.661; 1717974026; 51.03476400; 13.73942900; 0.00; 198.00; 0; 15.925; 
1543237334.700; 2952677462; 51.03467530; 13.73965470; 0.00; 193.50; -45; 6.010; 
1543237334.725; 0; 51.03472530; 13.73963710; 0.01; 0.00; 0; 0.000; 
1543237334.761; 3405770240; 51.03476400; 13.73942900; 0.00; 198.00; -66; 15.945; 
1543237334.801; 2952677462; 51.03467530; 13.73965470; 0.00; 193.50; -45; 6.004; 
1543237334.893; 0; 51.03472530; 13.73963730; 0.01; 0.00; 0; 0.000; 
1543237334.910; 2952677462; 51.03467530; 13.73965450; 0.00; 193.50; -45; 5.999; 
1543237334.961; 3405770240; 51.03476400; 13.73942900; 0.00; 198.00; -66; 15.959; 
1543237335.000; 2952677462; 51.03467530; 13.73965450; 0.04; 193.50; -45; 5.994; 
1543237335.083; 0; 51.03472530; 13.73963740; 0.01; 0.00; 0; 0.000; 
1543237335.111; 2952677462; 51.03467520; 13.73965450; 0.06; 193.50; -45; 5.991; 
1543237335.180; 3405770240; 51.03476400; 13.73942900; 0.00; 198.00; -65; 15.966; 
1543237335.200; 2952677462; 51.03467530; 13.73965450; 0.00; 193.50; -45; 6.002; 
1543237335.293; 0; 51.03472530; 13.73963760; 0.01; 0.00; 0; 0.000; 
1543237335.300; 2952677462; 51.03467530; 13.73965450; 0.00; 193.50; -45; 5.986; 
1543237335.361; 3405770240; 51.03476400; 13.73942900; 0.00; 198.00; -65; 15.979; 
1543237335.411; 2952677462; 51.03467530; 13.73965430; 0.00; 193.50; -45; 5.986; 
1543237335.491; 0; 51.03472530; 13.73963770; 0.01; 0.00; 0; 0.000; 
1543237335.511; 2952677462; 51.03467530; 13.73965430; 0.00; 193.50; -45; 5.978; 
1543237335.561; 3405770240; 51.03476380; 13.73942900; 0.00; 198.00; -65; 15.986; 
1543237335.600; 2952677462; 51.03467530; 13.73965410; 0.02; 193.50; -45; 5.978; 
1543237335.650; 1717974026; 51.03476380; 13.73942900; 0.00; 198.00; 0; 15.986; 
1543237335.710; 2952677462; 51.03467520; 13.73965410; 0.04; 193.50; -45; 5.973; 
1543237335.735; 0; 51.03472530; 13.73963780; 0.00; 0.00; 0; 0.000; 
1543237335.761; 3405770240; 51.03476380; 13.73942900; 0.00; 198.00; -65; 15.983; 
1543237335.800; 2952677462; 51.03467530; 13.73965420; 0.00; 193.50; -46; 5.982; 
1543237335.893; 0; 51.03472530; 13.73963800; 0.01; 0.00; 0; 0.000; 
1543237335.911; 2952677462; 51.03467530; 13.73965420; 0.00; 193.50; -45; 5.968; 
1543237335.961; 3405770240; 51.03476380; 13.73942900; 0.00; 198.00; -66; 15.996; 
1543237336.001; 2952677462; 51.03467530; 13.73965400; 0.00; 193.50; -45; 5.968; 
1543237336.102; 0; 51.03472530; 13.73963810; 0.01; 0.00; 0; 0.000; 
1543237336.110; 2952677462; 51.03467530; 13.73965400; 0.00; 193.50; -45; 5.960; 
1543237336.180; 3405770240; 51.03476380; 13.73942900; 0.00; 198.00; -65; 16.003; 
1543237336.200; 2952677462; 51.03467530; 13.73965380; 0.02; 193.50; -45; 5.960; 
1543237336.294; 0; 51.03472530; 13.73963820; 0.01; 0.00; 0; 0.000; 
1543237336.300; 2952677462; 51.03467530; 13.73965380; 0.02; 193.50; -45; 5.953; 
1543237336.370; 3405770240; 51.03476380; 13.73942900; 0.00; 198.00; -64; 16.009; 
1543237336.410; 2952677462; 51.03467520; 13.73965380; 0.04; 193.50; -45; 5.953; 
1543237336.483; 0; 51.03472530; 13.73963830; 0.01; 0.00; 0; 0.000; 
1543237336.501; 2952677462; 51.03467520; 13.73965360; 0.04; 193.50; -45; 5.962; 
1543237336.560; 3405770240; 51.03476360; 13.73942890; 0.00; 198.00; -65; 16.016; 
1543237336.601; 2952677462; 51.03467530; 13.73965370; 0.00; 193.50; -45; 5.957; 
1543237336.651; 1717974026; 51.03476360; 13.73942890; 0.00; 198.00; 0; 16.016; 
1543237336.701; 2952677462; 51.03467530; 13.73965370; 0.00; 193.50; -45; 5.948; 
1543237336.724; 0; 51.03472530; 13.73963840; 0.01; 0.00; 0; 0.000; 
1543237336.761; 3405770240; 51.03476360; 13.73942890; 0.00; 198.00; -67; 16.020; 
1543237336.801; 2952677462; 51.03467530; 13.73965370; 0.02; 193.50; -46; 5.945; 
1543237336.896; 0; 51.03472530; 13.73963860; 0.01; 0.00; 0; 0.000; 
1543237336.910; 2952677462; 51.03467530; 13.73965360; 0.02; 193.50; -45; 5.940; 
1543237336.961; 3405770240; 51.03476360; 13.73942890; 0.00; 198.00; -66; 16.033; 
1543237337.000; 2952677462; 51.03467530; 13.73965330; 0.04; 193.50; -45; 5.938; 
1543237337.093; 0; 51.03472530; 13.73963870; 0.01; 0.00; 0; 0.000; 
1543237337.110; 2952677462; 51.03467520; 13.73965330; 0.06; 193.50; -46; 5.928; 
1543237337.181; 3405770240; 51.03476360; 13.73942890; 0.00; 198.00; -65; 16.040; 
1543237337.210; 2952677462; 51.03467530; 13.73965330; 0.00; 193.50; -45; 5.939; 
1543237337.294; 0; 51.03472530; 13.73963890; 0.01; 0.00; 0; 0.000; 
1543237337.300; 2952677462; 51.03467530; 13.73965330; 0.00; 193.50; -45; 5.923; 
1543237337.360; 3405770240; 51.03476360; 13.73942890; 0.00; 198.00; -64; 16.053; 
1543237337.411; 2952677462; 51.03467540; 13.73965310; 0.04; 193.50; -45; 5.923; 
1543237337.498; 0; 51.03472530; 13.73963900; 0.01; 0.00; 0; 0.000; 
1543237337.510; 2952677462; 51.03467540; 13.73965310; 0.06; 193.50; -45; 5.905; 
1543237337.561; 3405770240; 51.03476350; 13.73942870; 0.00; 198.00; -65; 16.060; 
1543237337.600; 2952677462; 51.03467530; 13.73965310; 0.08; 193.50; -46; 5.905; 
1543237337.650; 1717974026; 51.03476350; 13.73942870; 0.00; 198.00; 0; 16.060; 
1543237337.701; 2952677462; 51.03467560; 13.73965320; 0.00; 193.50; -45; 5.916; 
1543237337.727; 0; 51.03472530; 13.73963920; 0.01; 0.00; 0; 0.000; 
1543237337.761; 3405770240; 51.03476350; 13.73942870; 0.00; 198.00; -64; 16.082; 
1543237337.800; 2952677462; 51.03467530; 13.73965300; 0.02; 193.50; -45; 5.880; 
1543237337.881; 0; 51.03472530; 13.73963930; 0.01; 0.00; 0; 0.000; 
1543237337.911; 2952677462; 51.03467530; 13.73965300; 0.02; 193.50; -45; 5.907; 
1543237337.960; 3405770240; 51.03476350; 13.73942870; 0.00; 198.00; -65; 16.089; 
1543237338.001; 2952677462; 51.03467530; 13.73965300; 0.02; 193.50; -46; 5.907; 
1543237338.092; 0; 51.03472530; 13.73963950; 0.01; 0.00; 0; 0.000; 
1543237338.110; 2952677462; 51.03467490; 13.73965270; 0.16; 193.50; -48; 5.902; 
1543237338.181; 3405770240; 51.03476350; 13.73942870; 0.00; 198.00; -67; 16.102; 
1543237338.200; 2952677462; 51.03467470; 13.73965260; 0.24; 193.50; -46; 5.940; 
1543237338.298; 0; 51.03472520; 13.73963960; 0.00; 0.00; 0; 0.000; 
1543237338.310; 2952677462; 51.03467450; 13.73965250; 0.28; 193.50; -42; 5.946; 
1543237338.361; 3405770240; 51.03476350; 13.73942870; 0.00; 198.00; -67; 16.114; 
1543237338.410; 2952677462; 51.03467420; 13.73965240; 0.34; 193.50; -47; 5.966; 
1543237338.493; 0; 51.03472520; 13.73963970; 0.01; 0.00; 0; 0.000; 
1543237338.500; 2952677462; 51.03467300; 13.73965170; 0.64; 193.50; -43; 5.995; 
1543237338.561; 3405770240; 51.03476330; 13.73942850; 0.00; 198.00; -68; 16.121; 
1543237338.601; 2952677462; 51.03467240; 13.73965110; 0.72; 193.50; -44; 6.114; 
1543237338.651; 1717974026; 51.03476330; 13.73942850; 0.00; 198.00; 0; 16.121; 
1543237338.700; 2952677462; 51.03467170; 13.73965090; 0.82; 193.50; -45; 6.168; 
1543237338.723; 0; 51.03472530; 13.73963980; 0.01; 0.00; 0; 0.000; 
1543237338.761; 3405770240; 51.03476330; 13.73942850; 0.00; 198.00; -67; 16.126; 
1543237338.801; 2952677462; 51.03467100; 13.73965060; 0.92; 193.50; -50; 6.252; 
1543237338.895; 0; 51.03472530; 13.73964000; 0.01; 0.00; 0; 0.000; 
1543237338.911; 2952677462; 51.03466910; 13.73964880; 1.42; 204.30; -48; 6.320; 
1543237338.961; 3405770240; 51.03476330; 13.73942850; 0.00; 198.00; -66; 16.140; 
1543237339.001; 2952677462; 51.03466790; 13.73964800; 1.60; 204.30; -47; 6.498; 
1543237339.092; 0; 51.03472520; 13.73964010; 0.02; 0.00; 0; 0.000; 
1543237339.100; 2952677462; 51.03466620; 13.73964750; 1.72; 200.30; -49; 6.605; 
1543237339.180; 3405770240; 51.03476330; 13.73942850; 0.00; 198.00; -67; 16.152; 
1543237339.200; 2952677462; 51.03466470; 13.73964660; 1.90; 200.30; -53; 6.787; 
1543237339.296; 0; 51.03472520; 13.73964020; 0.01; 0.00; 0; 0.000; 
1543237339.301; 2952677462; 51.03466250; 13.73964600; 2.06; 198.10; -47; 6.939; 
1543237339.361; 3405770240; 51.03476330; 13.73942850; 0.00; 198.00; -67; 16.158; 
1543237339.410; 2952677462; 51.03466070; 13.73964500; 2.26; 198.10; -47; 7.177; 
1543237339.496; 0; 51.03472520; 13.73964030; 0.01; 0.00; 0; 0.000; 
1543237339.500; 2952677462; 51.03465790; 13.73964440; 2.48; 195.60; -57; 7.363; 
1543237339.560; 3405770240; 51.03476320; 13.73942820; 0.00; 198.00; -69; 16.165; 
1543237339.600; 2952677462; 51.03465570; 13.73964340; 2.68; 195.60; -64; 7.670; 
1543237339.650; 1717974026; 51.03476320; 13.73942820; 0.00; 198.00; 0; 16.165; 
1543237339.701; 2952677462; 51.03465270; 13.73964250; 2.96; 194.50; -48; 7.904; 
1543237339.734; 0; 51.03472520; 13.73964040; 0.01; 0.00; 0; 0.000; 
1543237339.761; 3405770240; 51.03476320; 13.73942820; 0.00; 198.00; -66; 16.187; 
1543237339.800; 2952677462; 51.03465020; 13.73964160; 2.84; 193.60; -48; 8.229; 
1543237339.896; 0; 51.03472520; 13.73964050; 0.01; 0.00; 0; 0.000; 
1543237339.911; 2952677462; 51.03464770; 13.73964070; 2.98; 193.60; -49; 8.498; 
1543237339.961; 3405770240; 51.03476320; 13.73942820; 0.00; 198.00; -67; 16.194; 
1543237340.001; 2952677462; 51.03464500; 13.73963960; 3.12; 193.60; -48; 8.769; 
1543237340.094; 0; 51.03472520; 13.73964050; 0.00; 0.00; 0; 0.000; 
1543237340.100; 2952677462; 51.03464140; 13.73963950; 3.40; 191.10; -53; 9.060; 
1543237340.181; 3405770240; 51.03476320; 13.73942820; 0.00; 198.00; -67; 16.194; 
1543237340.200; 2952677462; 51.03463830; 13.73963850; 3.58; 191.10; -48; 9.466; 
1543237340.301; 0; 51.03472520; 13.73964060; 0.01; 0.00; 0; 0.000; 
1543237340.311; 2952677462; 51.03463510; 13.73963910; 3.60; 187.70; -50; 9.804; 
1543237340.361; 3405770240; 51.03476320; 13.73942820; 0.00; 198.00; -67; 16.201; 
1543237340.411; 2952677462; 51.03463180; 13.73963840; 3.74; 187.70; -53; 10.173; 
1543237340.488; 0; 51.03472530; 13.73964060; 0.00; 0.00; 0; 0.000; 
1543237340.501; 2952677462; 51.03462870; 13.73964040; 3.70; 181.70; -55; 10.549; 
1543237340.561; 3405770240; 51.03476310; 13.73942790; 0.00; 198.00; -67; 16.196; 
1543237340.570; 1717974027; 51.03476310; 13.73942790; 0.00; 198.00; 0; -1.000; 
1543237340.600; 2952677462; 51.03462530; 13.73964030; 3.82; 181.70; -52; 10.924; 
1543237340.701; 2952677462; 51.03462180; 13.73964300; 4.04; 176.60; -52; 11.307; 
1543237340.724; 0; 51.03472530; 13.73964060; 0.01; 0.00; 0; 0.000; 
1543237340.761; 3405770240; 51.03476310; 13.73942790; 0.00; 198.00; -66; 16.211; 
1543237340.801; 2952677462; 51.03461810; 13.73964340; 4.18; 176.60; -53; 11.739; 
1543237340.895; 0; 51.03472530; 13.73964060; 0.00; 0.00; 0; 0.000; 
1543237340.911; 2952677462; 51.03461480; 13.73964600; 4.16; 172.30; -54; 12.163; 
1543237340.961; 3405770240; 51.03476310; 13.73942790; 0.00; 198.00; -68; 16.211; 
1543237341.000; 2952677462; 51.03461110; 13.73964680; 4.28; 172.30; -53; 12.573; 
1543237341.096; 0; 51.03472530; 13.73964060; 0.00; 0.00; 0; 0.000; 
1543237341.110; 2952677462; 51.03460780; 13.73965080; 4.28; 166.70; -58; 13.004; 
1543237341.175; 1717974027; 51.03476310; 13.73942790; 0.00; 198.00; 0; 16.211; 
1543237341.180; 3405770240; 51.03476310; 13.73942790; 0.00; 198.00; -67; 16.211; 
1543237341.200; 2952677462; 51.03460520; 13.73965510; 4.12; 160.30; -74; 13.440; 
1543237341.301; 2952677462; 51.03460170; 13.73965710; 4.16; 160.30; -57; 13.807; 
1543237341.304; 0; 51.03472530; 13.73964070; 0.00; 0.00; 0; 0.000; 
1543237341.361; 3405770240; 51.03476310; 13.73942790; 0.00; 198.00; -66; 16.218; 
1543237341.411; 2952677462; 51.03459810; 13.73966210; 4.58; 155.30; -56; 14.235; 
1543237341.493; 0; 51.03472530; 13.73964070; 0.01; 0.00; 0; 0.000; 
1543237341.501; 2952677462; 51.03459430; 13.73966490; 4.74; 155.30; -55; 14.736; 
1543237341.561; 3405770240; 51.03476290; 13.73942750; 0.00; 198.00; -67; 16.218; 
1543237341.600; 2952677462; 51.03459040; 13.73966780; 4.88; 155.30; -53; 15.219; 
1543237341.651; 1717974027; 51.03476290; 13.73942750; 0.00; 198.00; 0; 16.218; 
1543237341.701; 2952677462; 51.03458840; 13.73967360; 4.62; 149.00; -52; 15.717; 
1543237341.740; 0; 51.03472530; 13.73964070; 0.01; 0.00; 0; 0.000; 
1543237341.761; 3405770240; 51.03476290; 13.73942750; 0.00; 198.00; -66; 16.235; 
1543237341.800; 2952677462; 51.03458480; 13.73967700; 4.70; 149.00; -56; 16.067; 
1543237341.888; 0; 51.03472530; 13.73964070; 0.01; 0.00; 0; 0.000; 
1543237341.911; 2952677462; 51.03458300; 13.73968330; 4.50; 142.80; -52; 16.547; 
1543237341.961; 3405770240; 51.03476290; 13.73942750; 0.00; 198.00; -65; 16.235; 
1543237342.000; 2952677462; 51.03457970; 13.73968720; 4.52; 142.80; -66; 16.897; 
1543237342.095; 0; 51.03472530; 13.73964080; 0.00; 0.00; 0; 0.000; 
1543237342.110; 2952677462; 51.03457750; 13.73969480; 4.86; 137.20; -51; 17.359; 
1543237342.181; 3405770240; 51.03476290; 13.73942750; 0.00; 198.00; -65; 16.242; 
1543237342.200; 2952677462; 51.03457430; 13.73969960; 4.96; 137.20; -53; 17.801; 
1543237342.295; 0; 51.03472530; 13.73964080; 0.02; 0.00; 0; 0.000; 
1543237342.300; 2952677462; 51.03457320; 13.73970710; 4.90; 130.30; -63; 18.286; 
1543237342.361; 3405770240; 51.03476290; 13.73942750; 0.00; 198.00; -66; 16.242; 
1543237342.422; 2952677462; 51.03457030; 13.73971250; 4.96; 130.30; -57; 18.620; 
1543237342.493; 0; 51.03472520; 13.73964080; 0.01; 0.00; 0; 0.000; 
1543237342.501; 2952677462; 51.03456880; 13.73971980; 5.02; 126.30; -58; 19.087; 
1543237342.561; 3405770240; 51.03476280; 13.73942710; 0.00; 198.00; -67; 16.247; 
1543237342.601; 2952677462; 51.03456730; 13.73972740; 5.18; 121.90; -63; 19.476; 
1543237342.650; 1717974027; 51.03476280; 13.73942710; 0.00; 198.00; 0; 16.247; 
1543237342.700; 2952677462; 51.03456480; 13.73973380; 5.28; 121.90; -56; 19.882; 
1543237342.727; 0; 51.03472520; 13.73964090; 0.01; 0.00; 0; 0.000; 
1543237342.761; 3405770240; 51.03476280; 13.73942710; 0.00; 198.00; -66; 16.276; 
1543237342.801; 2952677462; 51.03456230; 13.73974030; 5.38; 121.90; -50; 20.361; 
1543237342.896; 0; 51.03472520; 13.73964100; 0.00; 0.00; 0; 0.000; 
1543237342.911; 2952677462; 51.03456100; 13.73974950; 5.70; 117.90; -50; 20.848; 
1543237342.961; 3405770240; 51.03476280; 13.73942710; 0.00; 198.00; -67; 16.282; 
1543237343.000; 2952677462; 51.03455860; 13.73975680; 5.86; 117.90; -54; 21.311; 
1543237343.096; 0; 51.03472520; 13.73964100; 0.01; 0.00; 0; 0.000; 
1543237343.100; 2952677462; 51.03455780; 13.73976580; 5.94; 113.70; -50; 21.831; 
1543237343.180; 3405770240; 51.03476280; 13.73942710; 0.00; 198.00; -67; 16.282; 
1543237343.200; 2952677462; 51.03455560; 13.73977370; 6.08; 113.70; -59; 22.254; 
1543237343.285; 0; 51.03472520; 13.73964100; 0.01; 0.00; 0; 0.000; 
1543237343.301; 2952677462; 51.03455410; 13.73978320; 6.28; 111.70; -50; 22.790; 
1543237343.361; 3405770240; 51.03476280; 13.73942710; 0.00; 198.00; -67; 16.282; 
1543237343.411; 2952677462; 51.03455200; 13.73979170; 6.44; 111.70; -57; 23.323; 
1543237343.498; 0; 51.03472520; 13.73964110; 0.01; 0.00; 0; 0.000; 
1543237343.510; 2952677462; 51.03455080; 13.73980090; 6.50; 110.00; -54; 23.882; 
1543237343.561; 3405770240; 51.03476270; 13.73942690; 0.00; 198.00; -66; 16.289; 
1543237343.601; 2952677462; 51.03454880; 13.73980980; 6.64; 110.00; -62; 24.389; 
1543237343.650; 1717974027; 51.03476270; 13.73942690; 0.00; 198.00; 0; 16.289; 
1543237343.700; 2952677462; 51.03454690; 13.73981950; 6.88; 109.50; -55; 24.971; 
1543237343.729; 0; 51.03472520; 13.73964110; 0.00; 0.00; 0; 0.000; 
1543237343.761; 3405770240; 51.03476270; 13.73942690; 0.00; 198.00; -67; 16.298; 
1543237343.800; 2952677462; 51.03454480; 13.73982890; 7.06; 109.50; -60; 25.585; 
1543237343.894; 0; 51.03472520; 13.73964120; 0.00; 0.00; 0; 0.000; 
1543237343.911; 2952677462; 51.03454310; 13.73983870; 7.12; 108.90; -61; 26.207; 
1543237343.960; 3405770240; 51.03476270; 13.73942690; 0.00; 198.00; -67; 16.305; 
1543237344.001; 2952677462; 51.03454130; 13.73984900; 7.26; 108.40; -62; 26.819; 
1543237344.095; 0; 51.03472510; 13.73964120; 0.01; 0.00; 0; 0.000; 
1543237344.111; 2952677462; 51.03453920; 13.73985900; 7.42; 108.40; -59; 27.461; 
1543237344.181; 3405770240; 51.03476270; 13.73942690; 0.00; 198.00; -67; 16.309; 
1543237344.200; 2952677462; 51.03453710; 13.73986920; 7.58; 108.40; -67; 28.133; 
1543237344.296; 0; 51.03472510; 13.73964130; 0.01; 0.00; 0; 0.000; 
1543237344.301; 2952677462; 51.03453510; 13.73987930; 7.54; 108.30; -62; 28.816; 
1543237344.361; 3405770240; 51.03476270; 13.73942690; 0.00; 198.00; -67; 16.316; 
1543237344.411; 2952677462; 51.03453300; 13.73988960; 7.66; 108.30; -60; 29.495; 
1543237344.497; 0; 51.03472510; 13.73964130; 0.00; 0.00; 0; 0.000; 
1543237344.511; 2952677462; 51.03453070; 13.73989970; 7.62; 108.70; -68; 30.197; 
1543237344.560; 3405770240; 51.03476260; 13.73942670; 0.00; 198.00; -68; 16.316; 
1543237344.601; 2952677462; 51.03452850; 13.73991010; 7.72; 108.70; -62; 30.913; 
1543237344.700; 2952677462; 51.03452630; 13.73991980; 7.58; 109.10; -59; 31.639; 
1543237344.712; 0; 51.03472510; 13.73964140; 0.00; 0.00; 0; 0.000; 
1543237344.761; 3405770240; 51.03476260; 13.73942670; 0.00; 198.00; -67; 16.332; 
1543237344.801; 2952677462; 51.03452400; 13.73993020; 7.62; 109.10; -61; 32.328; 
1543237344.894; 0; 51.03472500; 13.73964150; 0.00; 0.00; 0; 0.000; 
1543237344.911; 2952677462; 51.03452190; 13.73994020; 7.56; 109.20; -63; 33.056; 
1543237344.961; 3405770240; 51.03476260; 13.73942670; 0.00; 198.00; -66; 16.343; 
1543237345.000; 2952677462; 51.03451970; 13.73995040; 7.58; 109.20; -70; 33.762; 
1543237345.094; 0; 51.03472500; 13.73964160; 0.01; 0.00; 0; 0.000; 
1543237345.100; 2952677462; 51.03451710; 13.73996070; 7.58; 109.80; -65; 34.486; 
1543237345.180; 3405770240; 51.03476260; 13.73942670; 0.00; 198.00; -67; 16.350; 
1543237345.200; 2952677462; 51.03451470; 13.73997090; 7.60; 109.80; -64; 35.259; 
1543237345.296; 0; 51.03472490; 13.73964170; 0.00; 0.00; 0; 0.000; 
1543237345.301; 2952677462; 51.03451230; 13.73998090; 7.54; 110.00; -65; 35.998; 
1543237345.360; 3405770240; 51.03476260; 13.73942670; 0.00; 198.00; -67; 16.362; 
1543237345.421; 2952677462; 51.03451000; 13.73999130; 7.54; 110.20; -67; 36.742; 
1543237345.497; 0; 51.03472490; 13.73964170; 0.01; 0.00; 0; 0.000; 
1543237345.511; 2952677462; 51.03450760; 13.74000140; 7.54; 110.20; -69; 37.501; 
1543237345.560; 3405770240; 51.03476250; 13.73942650; 0.00; 198.00; -66; 16.362; 
1543237345.600; 2952677462; 51.03450530; 13.74001150; 7.54; 110.20; -66; 38.254; 
1543237345.650; 1717974027; 51.03476250; 13.73942650; 0.00; 198.00; 0; 16.353; 
1543237345.701; 2952677462; 51.03450330; 13.74002140; 7.44; 109.90; -65; 39.001; 
1543237345.734; 0; 51.03472480; 13.73964190; 0.01; 0.00; 0; 0.000; 
1543237345.761; 3405770240; 51.03476250; 13.73942650; 0.00; 198.00; -67; 16.389; 
1543237345.801; 2952677462; 51.03450100; 13.74003140; 7.42; 109.90; -65; 39.694; 
1543237345.896; 0; 51.03472470; 13.73964200; 0.01; 0.00; 0; 0.000; 
1543237345.911; 2952677462; 51.03449960; 13.74004120; 7.28; 108.30; -65; 40.425; 
1543237345.961; 3405770240; 51.03476250; 13.73942650; 0.00; 198.00; -67; 16.400; 
1543237346.001; 2952677462; 51.03449760; 13.74005110; 7.24; 108.30; -64; 41.086; 
1543237346.080; 0; 51.03472470; 13.73964210; 0.01; 0.00; 0; 0.000; 
1543237346.111; 2952677462; 51.03449660; 13.74006200; 7.34; 106.30; -62; 41.798; 
1543237346.181; 3405770240; 51.03476250; 13.73942650; 0.00; 198.00; -68; 16.407; 
1543237346.200; 2952677462; 51.03449470; 13.74007210; 7.32; 106.30; -63; 42.491; 
1543237346.297; 0; 51.03472460; 13.73964220; 0.01; 0.00; 0; 0.000; 
1543237346.300; 2952677462; 51.03449490; 13.74008200; 7.04; 103.10; -67; 43.202; 
1543237346.361; 3405770240; 51.03476250; 13.73942650; 0.00; 198.00; -67; 16.419; 
1543237346.411; 2952677462; 51.03449350; 13.74009170; 6.96; 103.10; -71; 43.746; 
1543237346.493; 0; 51.03472450; 13.73964240; 0.01; 0.00; 0; 0.000; 
1543237346.501; 2952677462; 51.03449430; 13.74010200; 6.84; 99.20; -69; 44.392; 
1543237346.561; 3405770240; 51.03476240; 13.73942650; 0.00; 198.00; -68; 16.437; 
1543237346.610; 2952677462; 51.03449330; 13.74011160; 6.76; 99.20; -67; 44.917; 
1543237346.700; 2952677462; 51.03449440; 13.74012210; 6.80; 95.50; -63; 45.550; 
1543237346.724; 0; 51.03472440; 13.73964250; 0.01; 0.00; 0; 0.000; 
1543237346.761; 3405770240; 51.03476240; 13.73942650; 0.00; 198.00; -67; 16.444; 
1543237346.800; 2952677462; 51.03449610; 13.74013170; 6.72; 90.30; -61; 46.058; 
1543237346.893; 0; 51.03472440; 13.73964270; 0.00; 0.00; 0; 0.000; 
1543237346.910; 2952677462; 51.03449610; 13.74014130; 6.64; 90.30; -64; 46.473; 
1543237346.960; 3405770240; 51.03476240; 13.73942650; 0.00; 198.00; -67; 16.457; 
1543237347.000; 2952677462; 51.03449600; 13.74015080; 6.56; 90.30; -65; 47.037; 
1543237347.093; 0; 51.03472430; 13.73964280; 0.00; 0.00; 0; 0.000; 
1543237347.110; 2952677462; 51.03449890; 13.74015950; 6.42; 85.00; -64; 47.591; 
1543237347.180; 3405770240; 51.03476240; 13.73942650; 0.00; 198.00; -67; 16.469; 
1543237347.200; 2952677462; 51.03449940; 13.74016860; 6.32; 85.00; -66; 47.886; 
1543237347.295; 0; 51.03472420; 13.73964300; 0.00; 0.00; 0; 0.000; 
1543237347.300; 2952677462; 51.03450340; 13.74017670; 6.30; 78.50; -69; 48.372; 
1543237347.360; 3405770240; 51.03476240; 13.73942650; 0.00; 198.00; -67; 16.487; 
1543237347.410; 2952677462; 51.03450450; 13.74018550; 6.22; 78.50; -63; 48.561; 
1543237347.480; 0; 51.03472410; 13.73964310; 0.00; 0.00; 0; 0.000; 
1543237347.500; 2952677462; 51.03450860; 13.74019310; 6.28; 72.10; -66; 48.998; 
1543237347.561; 3405770240; 51.03476230; 13.73942650; 0.00; 198.00; -67; 16.499; 
1543237347.600; 2952677462; 51.03451040; 13.74020170; 6.22; 72.10; -66; 49.162; 
1543237347.651; 1717974027; 51.03476230; 13.73942650; 0.00; 198.00; 0; 16.504; 
1543237347.701; 2952677462; 51.03451450; 13.74020770; 5.94; 66.20; -69; 49.559; 
1543237347.740; 0; 51.03472400; 13.73964320; 0.01; 0.00; 0; 0.000; 
1543237347.761; 3405770240; 51.03476230; 13.73942650; 0.00; 198.00; -66; 16.506; 
1543237347.800; 2952677462; 51.03451670; 13.74021540; 5.84; 66.20; -66; 49.624; 
1543237347.896; 0; 51.03472400; 13.73964340; 0.00; 0.00; 0; 0.000; 
1543237347.911; 2952677462; 51.03452160; 13.74022170; 6.02; 60.60; -63; 49.934; 
1543237347.960; 3405770240; 51.03476230; 13.73942650; 0.00; 198.00; -68; 16.519; 
1543237348.001; 2952677462; 51.03452430; 13.74022920; 5.96; 60.60; -65; 49.987; 
1543237348.094; 0; 51.03472390; 13.73964350; 0.01; 0.00; 0; 0.000; 
1543237348.110; 2952677462; 51.03452980; 13.74023470; 6.18; 54.20; -69; 50.259; 
1543237348.180; 3405770240; 51.03476230; 13.73942650; 0.00; 198.00; -66; 16.531; 
1543237348.200; 2952677462; 51.03453480; 13.74023990; 6.16; 49.20; -70; 50.237; 
1543237348.297; 0; 51.03472380; 13.73964370; 0.01; 0.00; 0; 0.000; 
1543237348.310; 2952677462; 51.03453840; 13.74024660; 6.16; 49.20; -65; 50.217; 
1543237348.361; 3405770240; 51.03476230; 13.73942650; 0.00; 198.00; -67; 16.549; 
1543237348.411; 2952677462; 51.03454210; 13.74025320; 6.16; 49.20; -64; 50.410; 
1543237348.494; 0; 51.03472370; 13.73964390; 0.00; 0.00; 0; 0.000; 
1543237348.500; 2952677462; 51.03454740; 13.74025590; 5.88; 43.80; -62; 50.576; 
1543237348.561; 3405770240; 51.03476230; 13.73942650; 0.00; 198.00; -67; 16.568; 
1543237348.601; 2952677462; 51.03455280; 13.74026050; 6.22; 40.40; -66; 50.417; 
1543237348.701; 2952677462; 51.03455710; 13.74026630; 6.26; 40.40; -66; 50.380; 
1543237348.733; 0; 51.03472360; 13.73964410; 0.01; 0.00; 0; 0.000; 
1543237348.761; 3405770240; 51.03476230; 13.73942650; 0.00; 198.00; -67; 16.586; 
1543237348.801; 2952677462; 51.03456140; 13.74027210; 6.30; 40.40; -67; 50.477; 
1543237348.883; 0; 51.03472350; 13.73964430; 0.01; 0.00; 0; 0.000; 
1543237348.911; 2952677462; 51.03456610; 13.74027430; 5.86; 37.20; -65; 50.580; 
1543237348.961; 3405770240; 51.03476230; 13.73942650; 0.00; 198.00; -67; 16.604; 
1543237349.001; 2952677462; 51.03457030; 13.74027940; 5.80; 37.20; -67; 50.449; 
1543237349.095; 0; 51.03472330; 13.73964450; 0.00; 0.00; 0; 0.000; 
1543237349.100; 2952677462; 51.03457730; 13.74028340; 6.52; 33.90; -60; 50.518; 
1543237349.180; 3405770240; 51.03476230; 13.73942650; 0.00; 198.00; -67; 16.628; 
1543237349.200; 2952677462; 51.03458220; 13.74028860; 6.64; 33.90; -59; 50.389; 
1543237349.296; 0; 51.03472320; 13.73964460; 0.01; 0.00; 0; 0.000; 
1543237349.301; 2952677462; 51.03458860; 13.74029060; 6.66; 30.40; -57; 50.453; 
1543237349.361; 3405770240; 51.03476230; 13.73942650; 0.00; 198.00; -67; 16.639; 
1543237349.411; 2952677462; 51.03459380; 13.74029540; 6.76; 30.40; -58; 50.243; 
1543237349.494; 0; 51.03472310; 13.73964480; 0.01; 0.00; 0; 0.000; 
1543237349.500; 2952677462; 51.03460240; 13.74029700; 7.40; 25.90; -58; 50.274; 
1543237349.561; 3405770240; 51.03476220; 13.73942660; 0.00; 198.00; -66; 16.658; 
1543237349.600; 2952677462; 51.03460850; 13.74030170; 7.62; 25.90; -58; 49.945; 
1543237349.651; 1717974027; 51.03476220; 13.73942660; 0.00; 198.00; 0; 16.658; 
1543237349.701; 2952677462; 51.03461510; 13.74030250; 7.32; 22.60; -60; 49.962; 
1543237349.734; 0; 51.03472300; 13.73964510; 0.02; 0.00; 0; 0.000; 
1543237349.761; 3405770240; 51.03476220; 13.73942660; 0.00; 198.00; -66; 16.671; 
1543237349.801; 2952677462; 51.03462120; 13.74030660; 7.44; 22.60; -62; 49.676; 
1543237349.893; 0; 51.03472290; 13.73964520; 0.02; 0.00; 0; 0.000; 
1543237349.911; 2952677462; 51.03462960; 13.74030810; 7.94; 19.50; -58; 49.662; 
1543237349.961; 3405770240; 51.03476220; 13.73942660; 0.00; 198.00; -66; 16.683; 
1543237350.001; 2952677462; 51.03463640; 13.74031200; 8.16; 19.50; -56; 49.390; 
1543237350.096; 0; 51.03472280; 13.73964550; 0.01; 0.00; 0; 0.000; 
1543237350.110; 2952677462; 51.03464320; 13.74031470; 8.04; 18.60; -57; 49.341; 
1543237350.181; 3405770240; 51.03476220; 13.73942660; 0.00; 198.00; -66; 16.708; 
1543237350.200; 2952677462; 51.03465020; 13.74031840; 8.18; 18.60; -58; 49.246; 
1543237350.281; 0; 51.03472270; 13.73964560; 0.00; 0.00; 0; 0.000; 
1543237350.311; 2952677462; 51.03465710; 13.74032180; 8.14; 18.50; -61; 49.213; 
1543237350.361; 3405770240; 51.03476220; 13.73942660; 0.00; 198.00; -66; 16.720; 
1543237350.411; 2952677462; 51.03466410; 13.74032550; 8.26; 18.50; -61; 49.187; 
1543237350.492; 0; 51.03472250; 13.73964590; 0.01; 0.00; 0; 0.000; 
1543237350.500; 2952677462; 51.03467270; 13.74032940; 8.80; 17.80; -59; 49.163; 
1543237350.561; 1717974028; 51.03476220; 13.73942680; 0.00; 198.00; 0; -1.000; 
1543237350.600; 2952677462; 51.03468030; 13.74033330; 9.02; 17.80; -65; 49.139; 
1543237350.701; 2952677462; 51.03468760; 13.74033680; 8.80; 17.70; -63; 49.166; 
1543237350.730; 0; 51.03472240; 13.73964610; 0.00; 0.00; 0; 0.000; 
1543237350.761; 3405770240; 51.03476220; 13.73942680; 0.00; 198.00; -66; 16.768; 
1543237350.811; 2952677462; 51.03469520; 13.74034070; 8.92; 17.70; -66; 49.171; 
1543237350.896; 0; 51.03472230; 13.73964630; 0.01; 0.00; 0; 0.000; 
1543237350.911; 2952677462; 51.03470310; 13.74034480; 9.02; 17.70; -66; 49.210; 
1543237350.961; 3405770240; 51.03476220; 13.73942680; 0.00; 198.00; -67; 16.773; 
1543237351.000; 2952677462; 51.03471090; 13.74034870; 9.16; 17.70; -66; 49.287; 
1543237351.095; 0; 51.03472220; 13.73964650; 0.00; 0.00; 0; 0.000; 
1543237351.100; 2952677462; 51.03471810; 13.74035270; 8.92; 17.90; -65; 49.352; 
1543237351.180; 3405770240; 51.03476220; 13.73942680; 0.00; 198.00; -67; 16.792; 
1543237351.200; 2952677462; 51.03472580; 13.74035660; 8.96; 17.90; -66; 49.468; 
1543237351.296; 0; 51.03472210; 13.73964670; 0.00; 0.00; 0; 0.000; 
1543237351.310; 2952677462; 51.03473330; 13.74036040; 8.92; 17.80; -66; 49.565; 
1543237351.361; 3405770240; 51.03476220; 13.73942680; 0.00; 198.00; -67; 16.810; 
1543237351.410; 2952677462; 51.03474090; 13.74036430; 8.94; 17.80; -65; 49.689; 
1543237351.491; 0; 51.03472200; 13.73964680; 0.01; 0.00; 0; 0.000; 
1543237351.500; 2952677462; 51.03474900; 13.74036800; 9.08; 17.50; -66; 49.824; 
1543237351.560; 3405770240; 51.03476220; 13.73942700; 0.00; 198.00; -67; 16.822; 
1543237351.600; 2952677462; 51.03475680; 13.74037190; 9.14; 17.50; -66; 49.960; 
1543237351.650; 1717974028; 51.03476220; 13.73942700; 0.00; 198.00; 0; 16.822; 
1543237351.700; 2952677462; 51.03476430; 13.74037640; 9.06; 17.90; -66; 50.131; 
1543237351.722; 0; 51.03472190; 13.73964690; 0.00; 0.00; 0; 0.000; 
1543237351.760; 3405770240; 51.03476220; 13.73942700; 0.00; 198.00; -67; 16.820; 
1543237351.800; 2952677462; 51.03477210; 13.74038040; 9.10; 17.90; -66; 50.352; 
1543237351.894; 0; 51.03472180; 13.73964700; 0.01; 0.00; 0; 0.000; 
1543237351.911; 2952677462; 51.03477950; 13.74038450; 8.96; 18.10; -66; 50.550; 
1543237351.961; 3405770240; 51.03476220; 13.73942700; 0.00; 198.00; -67; 16.832; 
1543237352.001; 2952677462; 51.03478720; 13.74038850; 8.96; 18.10; -69; 50.780; 
1543237352.096; 0; 51.03472180; 13.73964710; 0.01; 0.00; 0; 0.000; 
1543237352.111; 2952677462; 51.03479520; 13.74039280; 9.10; 18.20; -66; 51.007; 
1543237352.180; 3405770240; 51.03476220; 13.73942700; 0.00; 198.00; -67; 16.838; 
1543237352.200; 2952677462; 51.03480300; 13.74039690; 9.14; 18.20; -62; 51.275; 
1543237352.296; 0; 51.03472170; 13.73964710; 0.01; 0.00; 0; 0.000; 
1543237352.301; 2952677462; 51.03481070; 13.74040090; 9.10; 18.40; -67; 51.543; 
1543237352.361; 3405770240; 51.03476220; 13.73942700; 0.00; 198.00; -67; 16.843; 
1543237352.411; 2952677462; 51.03481850; 13.74040510; 9.12; 18.40; -65; 51.818; 
1543237352.494; 0; 51.03472160; 13.73964730; 0.01; 0.00; 0; 0.000; 
1543237352.500; 2952677462; 51.03482640; 13.74040850; 9.06; 17.90; -62; 52.106; 
1543237352.560; 3405770240; 51.03476210; 13.73942740; 0.00; 198.00; -67; 16.862; 
1543237352.601; 2952677462; 51.03483410; 13.74041250; 9.06; 17.90; -64; 52.367; 
1543237352.651; 1717974028; 51.03476210; 13.73942740; 0.00; 198.00; 0; 16.862; 
1543237352.701; 2952677462; 51.03484200; 13.74041670; 9.16; 18.30; -70; 52.681; 
1543237352.724; 0; 51.03472150; 13.73964740; 0.00; 0.00; 0; 0.000; 
1543237352.761; 3405770240; 51.03476210; 13.73942740; 0.00; 198.00; -67; 16.842; 
1543237352.800; 2952677462; 51.03484990; 13.74042090; 9.18; 18.30; -62; 53.016; 
1543237352.895; 0; 51.03472140; 13.73964740; 0.01; 0.00; 0; 0.000; 
1543237352.910; 2952677462; 51.03485730; 13.74042490; 9.04; 18.40; -67; 53.371; 
1543237352.961; 3405770240; 51.03476210; 13.73942740; 0.00; 198.00; -66; 16.847; 
1543237353.000; 2952677462; 51.03486510; 13.74042900; 9.02; 18.40; -69; 53.718; 
1543237353.093; 0; 51.03472140; 13.73964750; 0.01; 0.00; 0; 0.000; 
1543237353.100; 2952677462; 51.03487270; 13.74043300; 8.96; 18.50; -74; 54.081; 
1543237353.181; 3405770240; 51.03476210; 13.73942740; 0.00; 198.00; -67; 16.853; 
1543237353.200; 2952677462; 51.03488030; 13.74043710; 8.92; 18.50; -73; 54.453; 
1543237353.295; 0; 51.03472130; 13.73964760; 0.00; 0.00; 0; 0.000; 
1543237353.300; 2952677462; 51.03488760; 13.74044080; 8.82; 18.40; -71; 54.837; 
1543237353.361; 3405770240; 51.03476210; 13.73942740; 0.00; 198.00; -67; 16.865; 
1543237353.410; 2952677462; 51.03489510; 13.74044480; 8.78; 18.40; -73; 55.205; 
1543237353.493; 0; 51.03472120; 13.73964760; 0.00; 0.00; 0; 0.000; 
1543237353.500; 2952677462; 51.03490280; 13.74044780; 8.70; 17.60; -71; 55.609; 
1543237353.561; 3405770240; 51.03476190; 13.73942760; 0.00; 198.00; -67; 16.870; 
1543237353.601; 2952677462; 51.03491030; 13.74045160; 8.66; 17.60; -68; 55.959; 
1543237353.651; 1717974028; 51.03476190; 13.73942760; 0.00; 198.00; 0; 16.870; 
1543237353.701; 2952677462; 51.03491740; 13.74045370; 8.44; 16.30; -72; 56.368; 
1543237353.735; 0; 51.03472110; 13.73964770; 0.01; 0.00; 0; 0.000; 
1543237353.761; 3405770240; 51.03476190; 13.73942760; 0.00; 198.00; -67; 16.858; 
1543237353.801; 2952677462; 51.03492470; 13.74045710; 8.34; 16.30; -70; 56.662; 
1543237353.901; 0; 51.03472110; 13.73964770; 0.01; 0.00; 0; 0.000; 
1543237353.911; 2952677462; 51.03493180; 13.74045800; 8.06; 14.10; -70; 57.059; 
1543237353.960; 3405770240; 51.03476190; 13.73942760; 0.00; 198.00; -67; 16.858; 
1543237354.000; 2952677462; 51.03493870; 13.74046080; 7.92; 14.10; -67; 57.300; 
1543237354.096; 0; 51.03472100; 13.73964770; 0.01; 0.00; 0; 0.000; 
1543237354.111; 2952677462; 51.03494610; 13.74046150; 8.00; 11.80; -71; 57.669; 
1543237354.181; 3405770240; 51.03476190; 13.73942760; 0.00; 198.00; -66; 16.863; 
1543237354.200; 2952677462; 51.03495310; 13.74046390; 7.90; 11.80; -75; 57.925; 
1543237354.290; 0; 51.03472090; 13.73964780; 0.01; 0.00; 0; 0.000; 
1543237354.301; 2952677462; 51.03495960; 13.74046300; 7.54; 8.70; -74; 58.282; 
1543237354.361; 3405770240; 51.03476190; 13.73942760; 0.00; 198.00; -67; 16.875; 
1543237354.411; 2952677462; 51.03496630; 13.74046460; 7.38; 8.70; -78; 58.430; 
1543237354.502; 2952677462; 51.03497370; 13.74046250; 7.50; 4.50; -69; 58.748; 
1543237354.503; 0; 51.03472080; 13.73964780; 0.01; 0.00; 0; 0.000; 
1543237354.561; 3405770240; 51.03476170; 13.73942780; 0.00; 198.00; -67; 16.880; 
1543237354.601; 2952677462; 51.03498040; 13.74046330; 7.40; 4.50; -70; 58.874; 
1543237354.651; 1717974028; 51.03476170; 13.73942780; 0.00; 198.00; 0; 16.880; 
1543237354.701; 2952677462; 51.03498660; 13.74046010; 7.08; 0.10; -72; 59.161; 
1543237354.726; 0; 51.03472070; 13.73964780; 0.00; 0.00; 0; 0.000; 
1543237354.761; 3405770240; 51.03476170; 13.73942780; 0.00; 198.00; -67; 16.862; 
1543237354.801; 2952677462; 51.03499290; 13.74046010; 6.92; 0.10; -68; 59.199; 
1543237354.896; 0; 51.03472070; 13.73964780; 0.01; 0.00; 0; 0.000; 
1543237354.910; 2952677462; 51.03499940; 13.74045630; 7.06; 355.80; -68; 59.440; 
1543237354.961; 3405770240; 51.03476170; 13.73942780; 0.00; 198.00; -66; 16.862; 
1543237355.010; 2952677462; 51.03500570; 13.74045560; 6.96; 355.80; -68; 59.469; 
1543237355.096; 0; 51.03472060; 13.73964780; 0.01; 0.00; 0; 0.000; 
1543237355.111; 2952677462; 51.03501100; 13.74045120; 6.66; 351.30; -74; 59.689; 
1543237355.180; 3405770240; 51.03476170; 13.73942780; 0.00; 198.00; -67; 16.867; 
1543237355.200; 2952677462; 51.03501690; 13.74044980; 6.52; 351.30; -69; 59.652; 
1543237355.296; 0; 51.03472050; 13.73964780; 0.01; 0.00; 0; 0.000; 
1543237355.301; 2952677462; 51.03502260; 13.74044510; 6.68; 347.10; -66; 59.830; 
1543237355.361; 3405770240; 51.03476170; 13.73942780; 0.00; 198.00; -67; 16.872; 
1543237355.411; 2952677462; 51.03502850; 13.74044300; 6.60; 347.10; -68; 59.812; 
1543237355.495; 0; 51.03472040; 13.73964780; 0.01; 0.00; 0; 0.000; 
1543237355.500; 2952677462; 51.03503320; 13.74043710; 6.40; 342.30; -66; 59.966; 
1543237355.561; 3405770240; 51.03476140; 13.73942790; 0.00; 198.00; -66; 16.877; 
1543237355.601; 2952677462; 51.03503870; 13.74043430; 6.30; 342.30; -67; 59.850; 
1543237355.650; 1717974028; 51.03476140; 13.73942790; 0.00; 198.00; 0; 16.877; 
1543237355.701; 2952677462; 51.03504360; 13.74042740; 6.48; 337.20; -66; 59.957; 
1543237355.722; 0; 51.03472030; 13.73964780; 0.00; 0.00; 0; 0.000; 
1543237355.761; 3405770240; 51.03476140; 13.73942790; 0.00; 198.00; -67; 16.860; 
1543237355.801; 2952677462; 51.03504900; 13.74042380; 6.44; 337.20; -60; 59.818; 
1543237355.893; 0; 51.03472030; 13.73964770; 0.01; 0.00; 0; 0.000; 
1543237355.910; 2952677462; 51.03505290; 13.74041650; 6.30; 332.20; -65; 59.898; 
1543237355.961; 3405770240; 51.03476140; 13.73942790; 0.00; 198.00; -67; 16.853; 
1543237356.001; 2952677462; 51.03505790; 13.74041230; 6.24; 332.20; -65; 59.698; 
1543237356.093; 0; 51.03472020; 13.73964770; 0.01; 0.00; 0; 0.000; 
1543237356.110; 2952677462; 51.03506110; 13.74040490; 6.06; 327.00; -69; 59.740; 
1543237356.181; 3405770240; 51.03476140; 13.73942790; 0.00; 198.00; -67; 16.858; 
1543237356.200; 2952677462; 51.03506560; 13.74040020; 5.96; 327.00; -73; 59.513; 
1543237356.291; 0; 51.03472010; 13.73964760; 0.01; 0.00; 0; 0.000; 
1543237356.300; 2952677462; 51.03506870; 13.74039160; 6.02; 321.30; -65; 59.521; 
1543237356.361; 3405770240; 51.03476140; 13.73942790; 0.00; 198.00; -67; 16.856; 
1543237356.411; 2952677462; 51.03507290; 13.74038630; 5.96; 321.30; -66; 59.239; 
1543237356.493; 0; 51.03472010; 13.73964750; 0.01; 0.00; 0; 0.000; 
1543237356.500; 2952677462; 51.03507560; 13.74037780; 5.96; 316.20; -67; 59.207; 
1543237356.560; 3405770240; 51.03476120; 13.73942790; 0.00; 198.00; -66; 16.850; 
1543237356.601; 2952677462; 51.03507940; 13.74037190; 5.92; 316.20; -66; 58.923; 
1543237356.650; 1717974028; 51.03476120; 13.73942790; 0.00; 198.00; 0; 16.850; 
1543237356.701; 2952677462; 51.03508190; 13.74036290; 6.10; 311.20; -67; 58.845; 
1543237356.725; 0; 51.03472000; 13.73964750; 0.01; 0.00; 0; 0.000; 
1543237356.761; 3405770240; 51.03476120; 13.73942790; 0.00; 198.00; -67; 16.845; 
1543237356.801; 2952677462; 51.03508560; 13.74035620; 6.10; 311.20; -68; 58.544; 
1543237356.893; 0; 51.03471990; 13.73964740; 0.01; 0.00; 0; 0.000; 
1543237356.910; 2952677462; 51.03508730; 13.74034770; 5.92; 306.20; -70; 58.446; 
1543237356.961; 3405770240; 51.03476120; 13.73942790; 0.00; 198.00; -67; 16.843; 
1543237357.001; 2952677462; 51.03509040; 13.74034090; 5.88; 306.20; -67; 58.128; 
1543237357.083; 0; 51.03471980; 13.73964730; 0.00; 0.00; 0; 0.000; 
1543237357.111; 2952677462; 51.03509200; 13.74033160; 6.06; 301.80; -65; 58.001; 
1543237357.180; 3405770240; 51.03476120; 13.73942790; 0.00; 198.00; -67; 16.841; 
1543237357.200; 2952677462; 51.03509480; 13.74032420; 6.06; 301.80; -69; 57.650; 
1543237357.296; 0; 51.03471970; 13.73964730; 0.00; 0.00; 0; 0.000; 
1543237357.311; 2952677462; 51.03509580; 13.74031590; 5.90; 297.90; -66; 57.483; 
1543237357.361; 3405770240; 51.03476120; 13.73942790; 0.00; 198.00; -67; 16.846; 
1543237357.421; 2952677462; 51.03509830; 13.74030840; 5.86; 297.90; -69; 57.152; 
1543237357.493; 0; 51.03471970; 13.73964720; 0.00; 0.00; 0; 0.000; 
1543237357.500; 2952677462; 51.03509940; 13.74029970; 5.90; 294.60; -70; 56.971; 
1543237357.560; 3405770240; 51.03476110; 13.73942800; 0.00; 198.00; -67; 16.840; 
1543237357.600; 2952677462; 51.03510090; 13.74029160; 5.88; 292.60; -70; 56.638; 
1543237357.651; 1717974028; 51.03476110; 13.73942800; 0.00; 198.00; 0; 16.840; 
1543237357.701; 2952677462; 51.03510290; 13.74028380; 5.86; 292.60; -74; 56.367; 
1543237357.732; 0; 51.03471960; 13.73964710; 0.01; 0.00; 0; 0.000; 
1543237357.761; 3405770240; 51.03476110; 13.73942800; 0.00; 198.00; -67; 16.826; 
1543237357.802; 2952677462; 51.03510450; 13.74027540; 5.94; 291.00; -68; 56.162; 
1543237357.892; 0; 51.03471950; 13.73964700; 0.00; 0.00; 0; 0.000; 
1543237357.910; 2952677462; 51.03510640; 13.74026740; 5.94; 291.00; -71; 55.908; 
1543237357.961; 3405770240; 51.03476110; 13.73942800; 0.00; 198.00; -67; 16.824; 
1543237358.001; 2952677462; 51.03510780; 13.74025940; 5.94; 289.50; -66; 55.688; 
1543237358.097; 0; 51.03471940; 13.73964690; 0.00; 0.00; 0; 0.000; 
1543237358.111; 2952677462; 51.03510960; 13.74025140; 5.94; 289.50; -70; 55.449; 
1543237358.181; 3405770240; 51.03476110; 13.73942800; 0.00; 198.00; -67; 16.823; 
1543237358.200; 2952677462; 51.03511140; 13.74024340; 5.94; 289.50; -72; 55.234; 
1543237358.293; 0; 51.03471930; 13.73964680; 0.01; 0.00; 0; 0.000; 
1543237358.300; 2952677462; 51.03511270; 13.74023530; 5.92; 288.50; -67; 55.037; 
1543237358.361; 3405770240; 51.03476110; 13.73942800; 0.00; 198.00; -67; 16.821; 
1543237358.411; 2952677462; 51.03511440; 13.74022730; 5.92; 288.50; -70; 54.792; 
1543237358.480; 0; 51.03471920; 13.73964680; 0.01; 0.00; 0; 0.000; 
1543237358.501; 2952677462; 51.03511540; 13.74021910; 5.96; 287.20; -67; 54.596; 
1543237358.571; 3405770240; 51.03476100; 13.73942810; 0.00; 198.00; -67; 16.826; 
1543237358.601; 2952677462; 51.03511700; 13.74021090; 5.96; 287.20; -65; 54.335; 
1543237358.650; 1717974028; 51.03476100; 13.73942810; 0.00; 198.00; 0; 16.826; 
1543237358.710; 2952677462; 51.03511820; 13.74020260; 5.96; 286.50; -71; 54.128; 
1543237358.724; 0; 51.03471910; 13.73964660; 0.01; 0.00; 0; 0.000; 
1543237358.761; 3405770240; 51.03476100; 13.73942810; 0.00; 198.00; -67; 16.806; 
1543237358.800; 2952677462; 51.03511980; 13.74019440; 5.98; 286.50; -68; 53.907; 
1543237358.894; 0; 51.03471900; 13.73964650; 0.00; 0.00; 0; 0.000; 
1543237358.910; 2952677462; 51.03512120; 13.74018660; 5.94; 286.40; -65; 53.725; 
1543237358.961; 3405770240; 51.03476100; 13.73942810; 0.00; 198.00; -67; 16.804; 
1543237359.001; 2952677462; 51.03512270; 13.74017840; 5.94; 286.40; -63; 53.536; 
1543237359.098; 0; 51.03471890; 13.73964650; 0.01; 0.00; 0; 0.000; 
1543237359.111; 2952677462; 51.03512450; 13.74017000; 6.08; 286.60; -66; 53.354; 
1543237359.180; 3405770240; 51.03476100; 13.73942810; 0.00; 198.00; -66; 16.809; 
1543237359.200; 2952677462; 51.03512610; 13.74016190; 6.08; 287.00; -64; 53.189; 
1543237359.293; 0; 51.03471870; 13.73964640; 0.01; 0.00; 0; 0.000; 
1543237359.300; 2952677462; 51.03512770; 13.74015360; 6.10; 287.00; -68; 53.046; 
1543237359.361; 3405770240; 51.03476100; 13.73942810; 0.00; 198.00; -66; 16.813; 
1543237359.411; 2952677462; 51.03512930; 13.74014520; 6.12; 287.00; -68; 52.882; 
1543237359.493; 0; 51.03471860; 13.73964630; 0.01; 0.00; 0; 0.000; 
1543237359.500; 2952677462; 51.03513120; 13.74013620; 6.30; 286.90; -69; 52.735; 
1543237359.561; 3405770240; 51.03476090; 13.73942820; 0.00; 198.00; -67; 16.811; 
1543237359.601; 2952677462; 51.03513280; 13.74012750; 6.36; 286.90; -68; 52.588; 
1543237359.650; 1717974028; 51.03476090; 13.73942820; 0.00; 198.00; 0; 16.811; 
1543237359.701; 2952677462; 51.03513430; 13.74011910; 6.28; 286.70; -62; 52.433; 
1543237359.743; 0; 51.03471850; 13.73964620; 0.01; 0.00; 0; 0.000; 
1543237359.761; 3405770240; 51.03476090; 13.73942820; 0.00; 198.00; -68; 16.798; 
1543237359.801; 2952677462; 51.03513590; 13.74011050; 6.32; 286.70; -62; 52.300; 
1543237359.883; 0; 51.03471840; 13.73964620; 0.01; 0.00; 0; 0.000; 
1543237359.911; 2952677462; 51.03513760; 13.74010240; 6.24; 287.40; -57; 52.174; 
1543237359.960; 3405770240; 51.03476090; 13.73942820; 0.00; 198.00; -67; 16.803; 
1543237360.001; 2952677462; 51.03513950; 13.74009380; 6.30; 287.40; -61; 52.071; 
1543237360.103; 0; 51.03471820; 13.73964610; 0.01; 0.00; 0; 0.000; 
1543237360.110; 2952677462; 51.03514120; 13.74008510; 6.32; 287.40; -63; 52.000; 
1543237360.181; 3405770240; 51.03476090; 13.73942820; 0.00; 198.00; -67; 16.807; 
1543237360.200; 2952677462; 51.03514290; 13.74007650; 6.36; 287.40; -60; 51.895; 
1543237360.295; 0; 51.03471810; 13.73964600; 0.00; 0.00; 0; 0.000; 
1543237360.300; 2952677462; 51.03514450; 13.74006760; 6.40; 287.10; -64; 51.814; 
1543237360.361; 3405770240; 51.03476090; 13.73942820; 0.00; 198.00; -67; 16.805; 
1543237360.411; 2952677462; 51.03514620; 13.74005880; 6.42; 287.10; -65; 51.711; 
1543237360.494; 0; 51.03471790; 13.73964600; 0.00; 0.00; 0; 0.000; 
1543237360.500; 2952677462; 51.03514770; 13.74005050; 6.32; 287.30; -65; 51.648; 
1543237360.561; 3405770240; 51.03476070; 13.73942820; 0.00; 198.00; -66; 16.815; 
1543237360.571; 1717974029; 51.03476070; 13.73942820; 0.00; 198.00; 0; -1.000; 
1543237360.601; 2952677462; 51.03514900; 13.74004200; 6.32; 286.10; -65; 51.569; 
1543237360.701; 2952677462; 51.03515050; 13.74003330; 6.32; 286.10; -58; 51.473; 
1543237360.725; 0; 51.03471780; 13.73964590; 0.01; 0.00; 0; 0.000; 
1543237360.761; 3405770240; 51.03476070; 13.73942820; 0.00; 198.00; -66; 16.803; 
1543237360.801; 2952677462; 51.03515210; 13.74002460; 6.32; 286.10; -65; 51.412; 
1543237360.894; 0; 51.03471760; 13.73964590; 0.01; 0.00; 0; 0.000; 
1543237360.910; 2952677462; 51.03515300; 13.74001580; 6.26; 284.80; -67; 51.376; 
1543237360.960; 3405770240; 51.03476070; 13.73942820; 0.00; 198.00; -66; 16.814; 
1543237361.000; 2952677462; 51.03515370; 13.74000700; 6.26; 282.40; -61; 51.259; 
1543237361.093; 0; 51.03471750; 13.73964580; 0.00; 0.00; 0; 0.000; 
1543237361.110; 2952677462; 51.03515490; 13.73999820; 6.24; 282.40; -66; 51.141; 
1543237361.180; 3405770240; 51.03476070; 13.73942820; 0.00; 198.00; -66; 16.812; 
1543237361.200; 2952677462; 51.03515520; 13.73998970; 6.16; 280.50; -60; 51.069; 
1543237361.279; 0; 51.03471730; 13.73964570; 0.00; 0.00; 0; 0.000; 
1543237361.300; 2952677462; 51.03515620; 13.73998100; 6.14; 280.50; -69; 50.943; 
1543237361.361; 3405770240; 51.03476070; 13.73942820; 0.00; 198.00; -67; 16.816; 
1543237361.411; 2952677462; 51.03515720; 13.73997240; 6.10; 280.50; -59; 50.868; 
1543237361.493; 0; 51.03471720; 13.73964560; 0.00; 0.00; 0; 0.000; 
1543237361.500; 2952677462; 51.03515680; 13.73996380; 5.98; 277.60; -71; 50.815; 
1543237361.561; 3405770240; 51.03476060; 13.73942810; 0.00; 198.00; -67; 16.814; 
1543237361.601; 2952677462; 51.03515600; 13.73995500; 6.08; 274.10; -58; 50.616; 
1543237361.651; 1717974029; 51.03476060; 13.73942810; 0.00; 198.00; 0; 16.814; 
1543237361.701; 2952677462; 51.03515640; 13.73994630; 6.06; 274.10; -61; 50.377; 
1543237361.729; 0; 51.03471700; 13.73964550; 0.01; 0.00; 0; 0.000; 
1543237361.761; 3405770240; 51.03476060; 13.73942810; 0.00; 198.00; -67; 16.819; 
1543237361.800; 2952677462; 51.03515680; 13.73993760; 6.04; 274.10; -71; 50.293; 
1543237361.893; 0; 51.03471690; 13.73964540; 0.01; 0.00; 0; 0.000; 
1543237361.911; 2952677462; 51.03515610; 13.73992840; 6.24; 272.30; -64; 50.206; 
1543237361.961; 3405770240; 51.03476060; 13.73942810; 0.00; 198.00; -67; 16.818; 
1543237362.001; 2952677462; 51.03515510; 13.73992040; 6.06; 269.30; -71; 49.992; 
1543237362.093; 0; 51.03471680; 13.73964530; 0.01; 0.00; 0; 0.000; 
1543237362.110; 2952677462; 51.03515500; 13.73991180; 6.04; 269.30; -67; 49.782; 
1543237362.181; 3405770240; 51.03476060; 13.73942810; 0.00; 198.00; -66; 16.816; 
1543237362.200; 2952677462; 51.03515350; 13.73990360; 5.92; 265.90; -66; 49.653; 
1543237362.293; 0; 51.03471660; 13.73964520; 0.00; 0.00; 0; 0.000; 
1543237362.300; 2952677462; 51.03515320; 13.73989520; 5.86; 265.90; -72; 49.410; 
1543237362.361; 3405770240; 51.03476060; 13.73942810; 0.00; 198.00; -67; 16.820; 
1543237362.410; 2952677462; 51.03515280; 13.73988680; 5.80; 265.90; -68; 49.274; 
1543237362.494; 0; 51.03471650; 13.73964510; 0.01; 0.00; 0; 0.000; 
1543237362.500; 2952677462; 51.03514940; 13.73987900; 5.82; 260.10; -64; 49.146; 
1543237362.561; 3405770240; 51.03476050; 13.73942800; 0.00; 198.00; -67; 16.819; 
1543237362.601; 2952677462; 51.03514660; 13.73987140; 5.86; 255.20; -60; 48.699; 
1543237362.650; 1717974029; 51.03476050; 13.73942800; 0.00; 198.00; 0; 16.819; 
1543237362.700; 2952677462; 51.03514530; 13.73986330; 5.84; 255.20; -63; 48.321; 
1543237362.711; 0; 51.03471630; 13.73964490; 0.00; 0.00; 0; 0.000; 
1543237362.761; 3405770240; 51.03476050; 13.73942800; 0.00; 198.00; -67; 16.817; 
1543237362.801; 2952677462; 51.03514240; 13.73985600; 5.94; 251.50; -74; 48.127; 
1543237362.893; 0; 51.03471620; 13.73964480; 0.01; 0.00; 0; 0.000; 
1543237362.911; 2952677462; 51.03514070; 13.73984790; 5.94; 251.50; -73; 47.761; 
1543237362.961; 3405770240; 51.03476050; 13.73942800; 0.00; 198.00; -68; 16.816; 
1543237363.001; 2952677462; 51.03513670; 13.73984310; 5.48; 243.90; -67; 47.510; 
1543237363.093; 0; 51.03471600; 13.73964470; 0.01; 0.00; 0; 0.000; 
1543237363.111; 2952677462; 51.03513450; 13.73983610; 5.34; 243.90; -65; 47.062; 
1543237363.180; 3405770240; 51.03476050; 13.73942800; 0.00; 198.00; -66; 16.820; 
1543237363.200; 2952677462; 51.03513040; 13.73983030; 5.56; 237.90; -68; 46.773; 
1543237363.303; 2952677462; 51.03512780; 13.73982350; 5.52; 237.90; -66; 46.287; 
1543237363.304; 0; 51.03471590; 13.73964460; 0.00; 0.00; 0; 0.000; 
1543237363.361; 3405770240; 51.03476050; 13.73942800; 0.00; 198.00; -67; 16.818; 
1543237363.421; 2952677462; 51.03512340; 13.73981840; 5.62; 232.40; -68; 45.973; 
1543237363.493; 0; 51.03471580; 13.73964440; 0.01; 0.00; 0; 0.000; 
1543237363.500; 2952677462; 51.03512030; 13.73981210; 5.62; 232.40; -69; 45.475; 
1543237363.561; 3405770240; 51.03476030; 13.73942790; 0.00; 198.00; -67; 16.810; 
1543237363.600; 2952677462; 51.03511720; 13.73980560; 5.62; 232.40; -63; 45.102; 
1543237363.651; 1717974029; 51.03476030; 13.73942790; 0.00; 198.00; 0; 16.810; 
1543237363.701; 2952677462; 51.03511270; 13.73980320; 5.24; 226.70; -64; 44.731; 
1543237363.729; 0; 51.03471570; 13.73964430; 0.01; 0.00; 0; 0.000; 
1543237363.761; 3405770240; 51.03476030; 13.73942790; 0.00; 198.00; -67; 16.805; 
1543237363.800; 2952677462; 51.03510950; 13.73979770; 5.16; 226.70; -61; 44.238; 
1543237363.897; 0; 51.03471560; 13.73964410; 0.01; 0.00; 0; 0.000; 
1543237363.911; 2952677462; 51.03510420; 13.73979440; 5.44; 221.00; -64; 43.875; 
1543237363.960; 3405770240; 51.03476030; 13.73942790; 0.00; 198.00; -67; 16.797; 
1543237364.001; 2952677462; 51.03510050; 13.73978930; 5.44; 221.00; -66; 43.280; 
1543237364.083; 0; 51.03471540; 13.73964400; 0.01; 0.00; 0; 0.000; 
1543237364.111; 2952677462; 51.03509550; 13.73978700; 5.42; 216.10; -65; 42.876; 
1543237364.180; 3405770240; 51.03476030; 13.73942790; 0.00; 198.00; -67; 16.801; 
1543237364.200; 2952677462; 51.03509090; 13.73978440; 5.36; 212.00; -64; 42.318; 
1543237364.301; 2952677462; 51.03508680; 13.73978030; 5.34; 212.00; -68; 41.803; 
1543237364.305; 0; 51.03471530; 13.73964390; 0.01; 0.00; 0; 0.000; 
1543237364.361; 3405770240; 51.03476030; 13.73942790; 0.00; 198.00; -67; 16.799; 
1543237364.411; 2952677462; 51.03508270; 13.73977630; 5.32; 212.00; -63; 41.350; 
1543237364.493; 0; 51.03471520; 13.73964370; 0.01; 0.00; 0; 0.000; 
1543237364.500; 2952677462; 51.03507780; 13.73977470; 5.38; 207.90; -68; 40.898; 
1543237364.561; 3405770240; 51.03476020; 13.73942760; 0.00; 198.00; -67; 16.791; 
1543237364.601; 2952677462; 51.03507350; 13.73977110; 5.38; 207.90; -61; 40.353; 
1543237364.700; 2952677462; 51.03506920; 13.73976920; 5.22; 205.80; -62; 39.869; 
1543237364.724; 0; 51.03471510; 13.73964360; 0.00; 0.00; 0; 0.000; 
1543237364.761; 3405770240; 51.03476020; 13.73942760; 0.00; 198.00; -67; 16.805; 
1543237364.800; 2952677462; 51.03506380; 13.73976760; 5.50; 202.20; -63; 39.400; 
1543237364.894; 0; 51.03471490; 13.73964350; 0.00; 0.00; 0; 0.000; 
1543237364.911; 2952677462; 51.03505920; 13.73976460; 5.56; 202.20; -63; 38.823; 
1543237364.961; 3405770240; 51.03476020; 13.73942760; 0.00; 198.00; -67; 16.808; 
1543237365.001; 2952677462; 51.03505450; 13.73976160; 5.60; 202.20; -65; 38.307; 
1543237365.094; 0; 51.03471480; 13.73964340; 0.01; 0.00; 0; 0.000; 
1543237365.111; 2952677462; 51.03505040; 13.73976000; 5.30; 201.00; -64; 37.793; 
1543237365.180; 3405770240; 51.03476020; 13.73942760; 0.00; 198.00; -66; 16.807; 
1543237365.200; 2952677462; 51.03504600; 13.73975730; 5.28; 201.00; -66; 37.336; 
1543237365.293; 0; 51.03471470; 13.73964320; 0.00; 0.00; 0; 0.000; 
1543237365.300; 2952677462; 51.03504130; 13.73975450; 5.42; 201.00; -66; 36.856; 
1543237365.361; 3405770240; 51.03476020; 13.73942760; 0.00; 198.00; -67; 16.799; 
1543237365.411; 2952677462; 51.03503670; 13.73975170; 5.44; 201.00; -69; 36.330; 
1543237365.485; 0; 51.03471460; 13.73964310; 0.01; 0.00; 0; 0.000; 
1543237365.500; 2952677462; 51.03503230; 13.73974990; 5.32; 200.00; -64; 35.828; 
1543237365.560; 3405770240; 51.03476010; 13.73942750; 0.00; 198.00; -66; 16.798; 
1543237365.601; 2952677462; 51.03502780; 13.73974730; 5.30; 200.00; -61; 35.338; 
1543237365.650; 1717974029; 51.03476010; 13.73942750; 0.00; 198.00; 0; 16.783; 
1543237365.701; 2952677462; 51.03502230; 13.73974540; 5.60; 198.60; -66; 34.835; 
1543237365.744; 0; 51.03471450; 13.73964300; 0.01; 0.00; 0; 0.000; 
1543237365.761; 3405770240; 51.03476010; 13.73942750; 0.00; 198.00; -66; 16.798; 
1543237365.800; 2952677462; 51.03501750; 13.73974290; 5.66; 198.60; -67; 34.235; 
1543237365.898; 0; 51.03471440; 13.73964290; 0.01; 0.00; 0; 0.000; 
1543237365.910; 2952677462; 51.03501300; 13.73974090; 5.50; 198.00; -64; 33.711; 
1543237365.961; 3405770240; 51.03476010; 13.73942750; 0.00; 198.00; -67; 16.796; 
1543237366.001; 2952677462; 51.03500790; 13.73973870; 5.64; 197.40; -71; 33.209; 
1543237366.098; 0; 51.03471430; 13.73964280; 0.01; 0.00; 0; 0.000; 
1543237366.111; 2952677462; 51.03500300; 13.73973620; 5.70; 197.40; -63; 32.653; 
1543237366.180; 3405770240; 51.03476010; 13.73942750; 0.00; 198.00; -67; 16.795; 
1543237366.200; 2952677462; 51.03499800; 13.73973420; 5.58; 196.80; -62; 32.107; 
1543237366.302; 0; 51.03471420; 13.73964270; 0.01; 0.00; 0; 0.000; 
1543237366.310; 2952677462; 51.03499320; 13.73973190; 5.58; 196.80; -64; 31.561; 
1543237366.361; 3405770240; 51.03476010; 13.73942750; 0.00; 198.00; -67; 16.794; 
1543237366.411; 2952677462; 51.03498840; 13.73972950; 5.60; 196.80; -60; 31.027; 
1543237366.497; 0; 51.03471410; 13.73964260; 0.01; 0.00; 0; 0.000; 
1543237366.510; 2952677462; 51.03498320; 13.73972630; 5.72; 196.80; -64; 30.503; 
1543237366.560; 3405770240; 51.03476010; 13.73942730; 0.00; 198.00; -67; 16.792; 
1543237366.601; 2952677462; 51.03497820; 13.73972390; 5.76; 196.80; -58; 29.924; 
1543237366.651; 1717974029; 51.03476010; 13.73942730; 0.00; 198.00; 0; 16.792; 
1543237366.700; 2952677462; 51.03497400; 13.73972000; 5.60; 198.20; -60; 29.367; 
1543237366.725; 0; 51.03471400; 13.73964250; 0.00; 0.00; 0; 0.000; 
1543237366.761; 3405770240; 51.03476010; 13.73942730; 0.00; 198.00; -67; 16.805; 
1543237366.800; 2952677462; 51.03496920; 13.73971750; 5.58; 198.20; -59; 28.911; 
1543237366.892; 0; 51.03471390; 13.73964240; 0.01; 0.00; 0; 0.000; 
1543237366.910; 2952677462; 51.03496390; 13.73971440; 5.78; 198.40; -59; 28.388; 
1543237366.961; 3405770240; 51.03476010; 13.73942730; 0.00; 198.00; -67; 16.803; 
1543237367.001; 2952677462; 51.03495890; 13.73971180; 5.82; 198.40; -59; 27.799; 
1543237367.096; 0; 51.03471380; 13.73964240; 0.01; 0.00; 0; 0.000; 
1543237367.110; 2952677462; 51.03495420; 13.73970890; 5.66; 198.70; -69; 27.255; 
1543237367.181; 3405770240; 51.03476010; 13.73942730; 0.00; 198.00; -67; 16.809; 
1543237367.200; 2952677462; 51.03494930; 13.73970610; 5.70; 198.90; -65; 26.733; 
1543237367.296; 0; 51.03471370; 13.73964230; 0.01; 0.00; 0; 0.000; 
1543237367.300; 2952677462; 51.03494450; 13.73970350; 5.70; 198.90; -60; 26.201; 
1543237367.361; 3405770240; 51.03476010; 13.73942730; 0.00; 198.00; -67; 16.807; 
1543237367.411; 2952677462; 51.03493970; 13.73970130; 5.60; 198.50; -62; 25.669; 
1543237367.502; 0; 51.03471360; 13.73964220; 0.01; 0.00; 0; 0.000; 
1543237367.510; 2952677462; 51.03493500; 13.73969870; 5.58; 198.50; -62; 25.147; 
1543237367.561; 3405770240; 51.03476000; 13.73942720; 0.00; 198.00; -67; 16.806; 
1543237367.601; 2952677462; 51.03493000; 13.73969510; 5.70; 199.50; -68; 24.627; 
1543237367.650; 1717974029; 51.03476000; 13.73942720; 0.00; 198.00; 0; 16.806; 
1543237367.700; 2952677462; 51.03492520; 13.73969240; 5.72; 199.50; -62; 24.075; 
1543237367.743; 0; 51.03471350; 13.73964210; 0.01; 0.00; 0; 0.000; 
1543237367.761; 3405770240; 51.03476000; 13.73942720; 0.00; 198.00; -67; 16.806; 
1543237367.801; 2952677462; 51.03492020; 13.73968980; 5.78; 199.10; -64; 23.556; 
1543237367.896; 0; 51.03471340; 13.73964190; 0.01; 0.00; 0; 0.000; 
1543237367.911; 2952677462; 51.03491530; 13.73968710; 5.82; 199.10; -66; 23.014; 
1543237367.961; 3405770240; 51.03476000; 13.73942720; 0.00; 198.00; -67; 16.798; 
1543237368.000; 2952677462; 51.03491070; 13.73968430; 5.68; 199.60; -63; 22.474; 
1543237368.089; 0; 51.03471340; 13.73964180; 0.01; 0.00; 0; 0.000; 
1543237368.111; 2952677462; 51.03490590; 13.73968150; 5.68; 199.60; -62; 21.967; 
1543237368.180; 3405770240; 51.03476000; 13.73942720; 0.00; 198.00; -67; 16.792; 
1543237368.200; 2952677462; 51.03490120; 13.73967940; 5.50; 199.00; -62; 21.439; 
1543237368.294; 0; 51.03471330; 13.73964170; 0.00; 0.00; 0; 0.000; 
1543237368.300; 2952677462; 51.03489650; 13.73967680; 5.44; 199.00; -58; 20.931; 
1543237368.361; 3405770240; 51.03476000; 13.73942720; 0.00; 198.00; -66; 16.790; 
1543237368.411; 2952677462; 51.03489190; 13.73967430; 5.38; 199.00; -58; 20.415; 
1543237368.501; 2952677462; 51.03488640; 13.73967070; 5.78; 199.50; -59; 19.910; 
1543237368.504; 0; 51.03471320; 13.73964170; 0.01; 0.00; 0; 0.000; 
1543237368.560; 3405770240; 51.03476000; 13.73942720; 0.00; 198.00; -67; 16.796; 
1543237368.601; 2952677462; 51.03488180; 13.73966810; 5.60; 199.30; -55; 19.322; 
1543237368.651; 1717974029; 51.03476000; 13.73942720; 0.00; 198.00; 0; 16.796; 
1543237368.701; 2952677462; 51.03487700; 13.73966540; 5.58; 199.30; -60; 18.820; 
1543237368.722; 0; 51.03471320; 13.73964160; 0.01; 0.00; 0; 0.000; 
1543237368.761; 3405770240; 51.03476000; 13.73942720; 0.00; 198.00; -68; 16.789; 
1543237368.801; 2952677462; 51.03487190; 13.73966300; 5.66; 198.60; -57; 18.296; 
1543237368.896; 0; 51.03471310; 13.73964150; 0.01; 0.00; 0; 0.000; 
1543237368.911; 2952677462; 51.03486700; 13.73966040; 5.66; 198.60; -60; 17.748; 
1543237368.961; 3405770240; 51.03476000; 13.73942720; 0.00; 198.00; -66; 16.788; 
1543237369.001; 2952677462; 51.03486210; 13.73965850; 5.56; 197.70; -60; 17.215; 
1543237369.096; 0; 51.03471300; 13.73964140; 0.01; 0.00; 0; 0.000; 
1543237369.100; 2952677462; 51.03485740; 13.73965600; 5.52; 197.70; -57; 16.687; 
1543237369.180; 3405770240; 51.03476000; 13.73942720; 0.00; 198.00; -66; 16.787; 
1543237369.200; 2952677462; 51.03485260; 13.73965360; 5.50; 197.70; -59; 16.177; 
1543237369.296; 0; 51.03471300; 13.73964130; 0.01; 0.00; 0; 0.000; 
1543237369.300; 2952677462; 51.03484760; 13.73965510; 5.34; 193.30; -60; 15.656; 
1543237369.361; 3405770240; 51.03476000; 13.73942720; 0.00; 198.00; -65; 16.780; 
1543237369.410; 2952677462; 51.03484290; 13.73965330; 5.30; 193.30; -55; 15.078; 
1543237369.484; 0; 51.03471290; 13.73964120; 0.00; 0.00; 0; 0.000; 
1543237369.501; 2952677462; 51.03483740; 13.73965350; 5.44; 190.60; -60; 14.573; 
1543237369.561; 3405770240; 51.03476000; 13.73942710; 0.00; 198.00; -65; 16.779; 
1543237369.601; 2952677462; 51.03483250; 13.73965210; 5.42; 190.60; -57; 13.950; 
1543237369.650; 1717974029; 51.03476000; 13.73942710; 0.00; 198.00; 0; 16.779; 
1543237369.701; 2952677462; 51.03482760; 13.73965340; 5.34; 187.10; -61; 13.409; 
1543237369.734; 0; 51.03471280; 13.73964110; 0.00; 0.00; 0; 0.000; 
1543237369.761; 3405770240; 51.03476000; 13.73942710; 0.00; 198.00; -66; 16.784; 
1543237369.801; 2952677462; 51.03482280; 13.73965250; 5.30; 187.10; -60; 12.855; 
1543237369.896; 0; 51.03471280; 13.73964100; 0.01; 0.00; 0; 0.000; 
1543237369.911; 2952677462; 51.03481790; 13.73965330; 5.16; 184.80; -61; 12.320; 
1543237369.961; 3405770240; 51.03476000; 13.73942710; 0.00; 198.00; -67; 16.778; 
1543237370.001; 2952677462; 51.03481320; 13.73965270; 5.10; 184.80; -55; 11.761; 
1543237370.093; 0; 51.03471270; 13.73964080; 0.01; 0.00; 0; 0.000; 
1543237370.110; 2952677462; 51.03480820; 13.73965380; 5.18; 182.00; -52; 11.245; 
1543237370.180; 3405770240; 51.03476000; 13.73942710; 0.00; 198.00; -65; 16.770; 
1543237370.200; 2952677462; 51.03480450; 13.73965620; 4.84; 177.40; -53; 10.673; 
1543237370.293; 0; 51.03471270; 13.73964070; 0.01; 0.00; 0; 0.000; 
1543237370.300; 2952677462; 51.03480020; 13.73965650; 4.72; 177.40; -54; 10.241; 
1543237370.360; 3405770240; 51.03476000; 13.73942710; 0.00; 198.00; -66; 16.763; 
1543237370.411; 2952677462; 51.03479600; 13.73965680; 4.60; 177.40; -56; 9.755; 
1543237370.494; 0; 51.03471270; 13.73964050; 0.00; 0.00; 0; 0.000; 
1543237370.500; 2952677462; 51.03479120; 13.73965840; 4.90; 175.50; -56; 9.281; 
1543237370.571; 1717974030; 51.03476000; 13.73942700; 0.00; 198.00; 0; -1.000; 
1543237370.601; 2952677462; 51.03478690; 13.73965900; 4.86; 175.50; -53; 8.737; 
1543237370.701; 2952677462; 51.03478370; 13.73966140; 4.50; 172.70; -50; 8.254; 
1543237370.725; 0; 51.03471260; 13.73964040; 0.01; 0.00; 0; 0.000; 
1543237370.761; 3405770240; 51.03476000; 13.73942700; 0.00; 198.00; -65; 16.749; 
1543237370.800; 2952677462; 51.03477970; 13.73966220; 4.40; 172.70; -50; 7.906; 
1543237370.884; 0; 51.03471260; 13.73964030; 0.00; 0.00; 0; 0.000; 
1543237370.910; 2952677462; 51.03477570; 13.73966300; 4.44; 172.30; -52; 7.462; 
1543237370.961; 3405770240; 51.03476000; 13.73942700; 0.00; 198.00; -66; 16.749; 
1543237371.001; 2952677462; 51.03477180; 13.73966380; 4.36; 172.30; -55; 7.022; 
1543237371.095; 0; 51.03471250; 13.73964010; 0.01; 0.00; 0; 0.000; 
1543237371.100; 2952677462; 51.03476780; 13.73966510; 4.38; 171.70; -52; 6.608; 
1543237371.181; 3405770240; 51.03476000; 13.73942700; 0.00; 198.00; -67; 16.741; 
1543237371.200; 2952677462; 51.03476390; 13.73966600; 4.32; 171.70; -52; 6.178; 
1543237371.295; 0; 51.03471250; 13.73964000; 0.01; 0.00; 0; 0.000; 
1543237371.300; 2952677462; 51.03476100; 13.73966770; 4.04; 170.30; -53; 5.765; 
1543237371.361; 3405770240; 51.03476000; 13.73942700; 0.00; 198.00; -67; 16.734; 
1543237371.411; 2952677462; 51.03475740; 13.73966860; 3.92; 170.30; -56; 5.473; 
1543237371.491; 0; 51.03471250; 13.73963980; 0.00; 0.00; 0; 0.000; 
1543237371.500; 2952677462; 51.03475410; 13.73966900; 3.82; 171.10; -51; 5.109; 
1543237371.560; 3405770240; 51.03476000; 13.73942690; 0.00; 198.00; -65; 16.721; 
1543237371.601; 2952677462; 51.03475100; 13.73966910; 3.74; 172.10; -52; 4.774; 
1543237371.651; 1717974030; 51.03476000; 13.73942690; 0.00; 198.00; 0; 16.721; 
1543237371.701; 2952677462; 51.03474770; 13.73966980; 3.62; 172.10; -52; 4.460; 
1543237371.744; 0; 51.03471250; 13.73963970; 0.01; 0.00; 0; 0.000; 
1543237371.761; 3405770240; 51.03476000; 13.73942690; 0.00; 198.00; -65; 16.721; 
1543237371.800; 2952677462; 51.03474460; 13.73967050; 3.50; 172.10; -53; 4.149; 
1543237371.896; 0; 51.03471240; 13.73963950; 0.01; 0.00; 0; 0.000; 
1543237371.911; 2952677462; 51.03474230; 13.73967020; 3.14; 173.90; -53; 3.882; 
1543237371.961; 3405770240; 51.03476000; 13.73942690; 0.00; 198.00; -66; 16.713; 
1543237372.001; 2952677462; 51.03473960; 13.73967070; 2.96; 173.90; -54; 3.659; 
1543237372.096; 0; 51.03471240; 13.73963930; 0.01; 0.00; 0; 0.000; 
1543237372.111; 2952677462; 51.03473650; 13.73967010; 3.16; 176.30; -53; 3.437; 
1543237372.180; 3405770240; 51.03476000; 13.73942690; 0.00; 198.00; -67; 16.700; 
1543237372.200; 2952677462; 51.03473370; 13.73967040; 3.06; 176.30; -53; 3.149; 
1543237372.278; 0; 51.03471240; 13.73963910; 0.02; 0.00; 0; 0.000; 
1543237372.301; 2952677462; 51.03473160; 13.73966960; 2.74; 178.70; -54; 2.943; 
1543237372.361; 3405770240; 51.03476000; 13.73942690; 0.00; 198.00; -65; 16.687; 
1543237372.421; 2952677462; 51.03472920; 13.73966970; 2.58; 178.70; -49; 2.751; 
1543237372.496; 0; 51.03471220; 13.73963910; 0.03; 0.00; 0; 0.000; 
1543237372.501; 2952677462; 51.03472690; 13.73966910; 2.62; 181.30; -47; 2.601; 
1543237372.561; 3405770240; 51.03476000; 13.73942690; 0.00; 198.00; -68; 16.698; 
1543237372.601; 2952677462; 51.03472450; 13.73966900; 2.50; 181.30; -49; 2.426; 
1543237372.651; 1717974030; 51.03476000; 13.73942690; 0.00; 198.00; 0; 16.698; 
1543237372.701; 2952677462; 51.03472230; 13.73966820; 2.48; 183.40; -52; 2.289; 
1543237372.734; 0; 51.03471220; 13.73963880; 0.04; 0.00; 0; 0.000; 
1543237372.761; 3405770240; 51.03476000; 13.73942690; 0.00; 198.00; -67; 16.678; 
1543237372.800; 2952677462; 51.03472010; 13.73966800; 2.36; 183.40; -54; 2.161; 
1543237372.892; 0; 51.03471230; 13.73963870; 0.04; 0.00; 0; 0.000; 
1543237372.911; 2952677462; 51.03471880; 13.73966720; 2.16; 186.00; -52; 2.077; 
1543237372.961; 3405770240; 51.03476000; 13.73942690; 0.00; 198.00; -66; 16.666; 
1543237373.001; 2952677462; 51.03471710; 13.73966640; 2.10; 187.90; -48; 1.994; 
1543237373.093; 0; 51.03471220; 13.73963850; 0.02; 0.00; 0; 0.000; 
1543237373.100; 2952677462; 51.03471530; 13.73966600; 1.98; 187.90; -46; 1.928; 
1543237373.181; 3405770240; 51.03476000; 13.73942690; 0.00; 198.00; -67; 16.658; 
1543237373.200; 2952677462; 51.03471350; 13.73966570; 1.86; 187.90; -47; 1.890; 
1543237373.296; 0; 51.03471220; 13.73963830; 0.03; 0.00; 0; 0.000; 
1543237373.301; 2952677462; 51.03471190; 13.73966500; 1.88; 188.60; -47; 1.895; 
1543237373.361; 3405770240; 51.03476000; 13.73942690; 0.00; 198.00; -65; 16.645; 
1543237373.411; 2952677462; 51.03471030; 13.73966460; 1.80; 188.60; -49; 1.874; 
1543237373.493; 0; 51.03471220; 13.73963820; 0.02; 0.00; 0; 0.000; 
1543237373.500; 2952677462; 51.03470830; 13.73966360; 1.94; 190.50; -50; 1.897; 
1543237373.571; 3405770240; 51.03476010; 13.73942700; 0.00; 198.00; -67; 16.638; 
1543237373.601; 2952677462; 51.03470660; 13.73966310; 1.90; 190.50; -56; 1.907; 
1543237373.651; 1717974030; 51.03476010; 13.73942700; 0.00; 198.00; 0; 16.638; 
1543237373.701; 2952677462; 51.03470570; 13.73966270; 1.62; 191.20; -52; 1.959; 
1543237373.715; 0; 51.03471210; 13.73963800; 0.04; 0.00; 0; 0.000; 
1543237373.761; 3405770240; 51.03476010; 13.73942700; 0.00; 198.00; -66; 16.629; 
1543237373.801; 2952677462; 51.03470430; 13.73966220; 1.52; 191.20; -50; 1.991; 
1543237373.892; 0; 51.03471210; 13.73963790; 0.02; 0.00; 0; 0.000; 
1543237373.911; 2952677462; 51.03470350; 13.73966150; 1.36; 193.10; -43; 2.053; 
1543237373.961; 3405770240; 51.03476010; 13.73942700; 0.00; 198.00; -65; 16.623; 
1543237374.001; 2952677462; 51.03470230; 13.73966110; 1.24; 193.10; -40; 2.063; 
1543237374.092; 0; 51.03471220; 13.73963770; 0.02; 0.00; 0; 0.000; 
1543237374.111; 2952677462; 51.03470080; 13.73966020; 1.46; 194.60; -44; 2.145; 
1543237374.181; 3405770240; 51.03476010; 13.73942700; 0.00; 198.00; -66; 16.604; 
1543237374.200; 2952677462; 51.03469960; 13.73965970; 1.40; 194.60; -46; 2.209; 
1543237374.292; 0; 51.03471210; 13.73963750; 0.05; 0.00; 0; 0.000; 
1543237374.300; 2952677462; 51.03469900; 13.73965920; 1.18; 195.00; -46; 2.283; 
1543237374.361; 3405770240; 51.03476010; 13.73942700; 0.00; 198.00; -63; 16.596; 
1543237374.411; 2952677462; 51.03469800; 13.73965880; 1.08; 195.00; -43; 2.307; 
1543237374.489; 0; 51.03471220; 13.73963730; 0.07; 0.00; 0; 0.000; 
1543237374.500; 2952677462; 51.03469660; 13.73965780; 1.20; 196.30; -42; 2.393; 
1543237374.561; 3405770240; 51.03476020; 13.73942690; 0.00; 198.00; -68; 16.577; 
1543237374.601; 2952677462; 51.03469590; 13.73965720; 1.08; 196.60; -42; 2.469; 
1543237374.651; 1717974030; 51.03476020; 13.73942690; 0.00; 198.00; 0; 16.577; 
1543237374.701; 2952677462; 51.03469490; 13.73965680; 1.02; 196.60; -42; 2.505; 
1543237374.721; 0; 51.03471220; 13.73963710; 0.01; 0.00; 0; 0.000; 
1543237374.761; 3405770240; 51.03476020; 13.73942690; 0.00; 198.00; -66; 16.576; 
1543237374.800; 2952677462; 51.03469410; 13.73965640; 0.94; 196.60; -41; 2.591; 
1543237374.907; 0; 51.03471220; 13.73963690; 0.02; 0.00; 0; 0.000; 
1543237374.910; 2952677462; 51.03469300; 13.73965510; 1.08; 198.90; -50; 2.660; 
1543237374.960; 3405770240; 51.03476020; 13.73942690; 0.00; 198.00; -63; 16.563; 
1543237375.000; 2952677462; 51.03469210; 13.73965460; 1.04; 198.90; -42; 2.711; 
1543237375.079; 0; 51.03471220; 13.73963680; 0.01; 0.00; 0; 0.000; 
1543237375.101; 2952677462; 51.03469140; 13.73965380; 0.94; 200.20; -43; 2.785; 
1543237375.180; 3405770240; 51.03476020; 13.73942690; 0.00; 198.00; -63; 16.556; 
1543237375.200; 2952677462; 51.03469060; 13.73965340; 0.90; 200.20; -43; 2.824; 
1543237375.293; 0; 51.03471210; 13.73963670; 0.01; 0.00; 0; 0.000; 
1543237375.301; 2952677462; 51.03469080; 13.73965360; 0.46; 198.20; -42; 2.884; 
1543237375.361; 3405770240; 51.03476020; 13.73942690; 0.00; 198.00; -69; 16.555; 
1543237375.410; 2952677462; 51.03469050; 13.73965340; 0.34; 198.20; -44; 2.871; 
1543237375.489; 0; 51.03471220; 13.73963660; 0.03; 0.00; 0; 0.000; 
1543237375.500; 2952677462; 51.03468850; 13.73965200; 0.98; 198.90; -43; 2.909; 
1543237375.560; 3405770240; 51.03476030; 13.73942690; 0.00; 198.00; -61; 16.543; 
1543237375.601; 2952677462; 51.03468770; 13.73965150; 1.02; 198.90; -48; 3.067; 
1543237375.650; 1717974030; 51.03476030; 13.73942690; 0.00; 198.00; 0; 16.543; 
1543237375.701; 2952677462; 51.03468820; 13.73965160; 0.42; 198.50; -45; 3.134; 
1543237375.725; 0; 51.03471220; 13.73963640; 0.03; 0.00; 0; 0.000; 
1543237375.761; 3405770240; 51.03476030; 13.73942690; 0.00; 198.00; -68; 16.535; 
1543237375.801; 2952677462; 51.03468740; 13.73965120; 0.60; 197.80; -43; 3.091; 
1543237375.895; 0; 51.03471220; 13.73963630; 0.01; 0.00; 0; 0.000; 
1543237375.911; 2952677462; 51.03468690; 13.73965090; 0.56; 197.80; -42; 3.166; 
1543237375.961; 3405770240; 51.03476030; 13.73942690; 0.00; 198.00; -69; 16.529; 
1543237376.001; 2952677462; 51.03468650; 13.73965040; 0.52; 199.00; -42; 3.210; 
1543237376.089; 0; 51.03471220; 13.73963620; 0.01; 0.00; 0; 0.000; 
1543237376.111; 2952677462; 51.03468610; 13.73965020; 0.48; 199.00; -46; 3.240; 
1543237376.181; 3405770240; 51.03476030; 13.73942690; 0.00; 198.00; -62; 16.522; 
1543237376.200; 2952677462; 51.03468570; 13.73964990; 0.44; 199.00; -44; 3.276; 
1543237376.290; 0; 51.03471230; 13.73963600; 0.02; 0.00; 0; 0.000; 
1543237376.300; 2952677462; 51.03468500; 13.73964970; 0.56; 197.90; -45; 3.327; 
1543237376.361; 3405770240; 51.03476030; 13.73942690; 0.00; 198.00; -64; 16.503; 
1543237376.411; 2952677462; 51.03468460; 13.73964940; 0.54; 197.90; -47; 3.397; 
1543237376.482; 0; 51.03471230; 13.73963590; 0.01; 0.00; 0; 0.000; 
1543237376.501; 2952677462; 51.03468430; 13.73964920; 0.50; 197.90; -44; 3.434; 
1543237376.561; 3405770240; 51.03476050; 13.73942680; 0.00; 198.00; -67; 16.497; 
1543237376.601; 2952677462; 51.03468390; 13.73964900; 0.48; 197.90; -42; 3.461; 
1543237376.650; 1717974030; 51.03476050; 13.73942680; 0.00; 198.00; 0; 16.497; 
1543237376.701; 2952677462; 51.03468330; 13.73964890; 0.52; 197.90; -43; 3.498; 
1543237376.723; 0; 51.03471230; 13.73963580; 0.02; 0.00; 0; 0.000; 
1543237376.761; 3405770240; 51.03476050; 13.73942680; 0.00; 198.00; -65; 16.508; 
1543237376.801; 2952677462; 51.03468290; 13.73964860; 0.50; 197.90; -48; 3.564; 
1543237376.897; 0; 51.03471230; 13.73963560; 0.01; 0.00; 0; 0.000; 
1543237376.911; 2952677462; 51.03468260; 13.73964880; 0.46; 197.90; -44; 3.605; 
1543237376.961; 3405770240; 51.03476050; 13.73942680; 0.00; 198.00; -66; 16.495; 
1543237377.001; 2952677462; 51.03468220; 13.73964860; 0.44; 197.90; -42; 3.643; 
1543237377.099; 0; 51.03471240; 13.73963540; 0.01; 0.00; 0; 0.000; 
1543237377.100; 2952677462; 51.03468200; 13.73964850; 0.42; 197.90; -43; 3.698; 
1543237377.181; 3405770240; 51.03476050; 13.73942680; 0.00; 198.00; -67; 16.476; 
1543237377.200; 2952677462; 51.03468160; 13.73964830; 0.40; 197.90; -44; 3.717; 
1543237377.295; 0; 51.03471240; 13.73963530; 0.02; 0.00; 0; 0.000; 
1543237377.300; 2952677462; 51.03468190; 13.73964780; 0.20; 197.90; -44; 3.758; 
1543237377.361; 3405770240; 51.03476050; 13.73942680; 0.00; 198.00; -66; 16.469; 
1543237377.411; 2952677462; 51.03468170; 13.73964780; 0.14; 197.90; -42; 3.711; 
1543237377.494; 0; 51.03471240; 13.73963510; 0.01; 0.00; 0; 0.000; 
1543237377.500; 2952677462; 51.03468120; 13.73964760; 0.30; 197.90; -41; 3.739; 
1543237377.561; 3405770240; 51.03476060; 13.73942660; 0.00; 198.00; -64; 16.456; 
1543237377.601; 2952677462; 51.03468100; 13.73964750; 0.30; 197.90; -42; 3.788; 
1543237377.651; 1717974030; 51.03476060; 13.73942660; 0.00; 198.00; 0; 16.456; 
1543237377.700; 2952677462; 51.03468110; 13.73964760; 0.10; 197.90; -42; 3.807; 
1543237377.735; 0; 51.03471240; 13.73963490; 0.00; 0.00; 0; 0.000; 
1543237377.761; 3405770240; 51.03476060; 13.73942660; 0.00; 198.00; -66; 16.462; 
1543237377.800; 2952677462; 51.03468100; 13.73964760; 0.06; 197.90; -43; 3.805; 
1543237377.893; 0; 51.03471250; 13.73963460; 0.01; 0.00; 0; 0.000; 
1543237377.910; 2952677462; 51.03468100; 13.73964770; 0.06; 197.90; -45; 3.835; 
1543237377.961; 3405770240; 51.03476060; 13.73942660; 0.00; 198.00; -66; 16.436; 
