timestamp; stationID; lat; lon; speed; heading; rxPower; distanceToEgo
1543241672.655; 3405770240; 51.03473630; 13.73943540; 0.00; 198.00; -66; -1.000; 
1543241672.684; 2952677462; 51.03467430; 13.73966250; 0.02; 192.40; -43; -1.000; 
1543241672.763; 0; 51.03471470; 13.73962530; 0.01; 0.23; 0; 0.000; 
1543241672.785; 2952677462; 51.03467430; 13.73966250; 0.04; 192.40; -43; 5.657; 
1543241672.845; 3405770240; 51.03473630; 13.73943540; 0.00; 198.00; -66; 13.935; 
1543241672.895; 2952677462; 51.03467420; 13.73966230; 0.00; 192.40; -44; 5.657; 
1543241672.962; 0; 51.03471470; 13.73962530; 0.00; 0.23; 0; 0.000; 
1543241672.985; 2952677462; 51.03467420; 13.73966230; 0.00; 192.40; -44; 5.659; 
1543241673.045; 3405770240; 51.03473620; 13.73943560; 0.00; 198.00; -66; 13.935; 
1543241673.085; 2952677462; 51.03467400; 13.73966250; 0.00; 192.40; -43; 5.659; 
1543241673.145; 1717974460; 51.03473620; 13.73943560; 0.00; 198.00; 0; -1.000; 
1543241673.197; 2952677462; 51.03467400; 13.73966250; 0.00; 192.40; -44; 5.688; 
1543241673.198; 0; 51.03471470; 13.73962520; 0.01; 0.23; 0; 0.000; 
1543241673.245; 3405770240; 51.03473620; 13.73943560; 0.00; 198.00; -67; 13.910; 
1543241673.295; 2952677462; 51.03467370; 13.73966260; 0.08; 192.40; -44; 5.692; 
1543241673.363; 0; 51.03471470; 13.73962510; 0.01; 0.23; 0; 0.000; 
1543241673.395; 2952677462; 51.03467370; 13.73966260; 0.10; 192.40; -44; 5.731; 
1543241673.445; 3405770240; 51.03473620; 13.73943560; 0.00; 198.00; -66; 13.904; 
1543241673.485; 2952677462; 51.03467400; 13.73966270; 0.02; 192.40; -44; 5.731; 
1543241673.563; 0; 51.03471460; 13.73962500; 0.01; 0.23; 0; 0.000; 
1543241673.585; 2952677462; 51.03467390; 13.73966260; 0.02; 192.40; -44; 5.699; 
1543241673.655; 3405770240; 51.03473620; 13.73943560; 0.00; 198.00; -66; 13.901; 
1543241673.684; 2952677462; 51.03467380; 13.73966280; 0.00; 192.40; -44; 5.705; 
1543241673.763; 0; 51.03471460; 13.73962490; 0.01; 0.23; 0; 0.000; 
1543241673.785; 2952677462; 51.03467380; 13.73966280; 0.00; 192.40; -44; 5.728; 
1543241673.845; 3405770240; 51.03473620; 13.73943560; 0.00; 198.00; -66; 13.894; 
1543241673.895; 2952677462; 51.03467390; 13.73966280; 0.00; 192.40; -44; 5.728; 
1543241673.959; 0; 51.03471450; 13.73962490; 0.01; 0.23; 0; 0.000; 
1543241673.985; 2952677462; 51.03467380; 13.73966280; 0.00; 192.40; -44; 5.707; 
1543241674.055; 3405770240; 51.03473610; 13.73943580; 0.00; 198.00; -66; 13.898; 
1543241674.085; 2952677462; 51.03467380; 13.73966300; 0.02; 192.40; -43; 5.717; 
1543241674.145; 1717974460; 51.03473610; 13.73943580; 0.00; 198.00; 0; 13.898; 
1543241674.195; 2952677462; 51.03467380; 13.73966300; 0.02; 192.40; -43; 5.726; 
1543241674.199; 0; 51.03471450; 13.73962480; 0.00; 0.23; 0; 0.000; 
1543241674.245; 3405770240; 51.03473610; 13.73943580; 0.00; 198.00; -66; 13.873; 
1543241674.285; 2952677462; 51.03467370; 13.73966280; 0.08; 192.40; -43; 5.730; 
1543241674.363; 0; 51.03471450; 13.73962470; 0.01; 0.23; 0; 0.000; 
1543241674.406; 2952677462; 51.03467360; 13.73966280; 0.10; 192.40; -43; 5.736; 
1543241674.445; 3405770240; 51.03473610; 13.73943580; 0.00; 198.00; -66; 13.866; 
1543241674.485; 2952677462; 51.03467380; 13.73966280; 0.00; 192.40; -43; 5.746; 
1543241674.564; 0; 51.03471450; 13.73962460; 0.01; 0.23; 0; 0.000; 
1543241674.585; 2952677462; 51.03467390; 13.73966280; 0.00; 192.40; -43; 5.730; 
1543241674.655; 3405770240; 51.03473610; 13.73943580; 0.00; 198.00; -66; 13.859; 
1543241674.684; 2952677462; 51.03467360; 13.73966280; 0.04; 192.40; -43; 5.720; 
1543241674.763; 0; 51.03471440; 13.73962460; 0.01; 0.23; 0; 0.000; 
1543241674.785; 2952677462; 51.03467360; 13.73966280; 0.04; 192.40; -44; 5.740; 
1543241674.845; 3405770240; 51.03473610; 13.73943580; 0.00; 198.00; -67; 13.863; 
1543241674.895; 2952677462; 51.03467350; 13.73966300; 0.02; 192.40; -44; 5.740; 
1543241674.963; 0; 51.03471440; 13.73962450; 0.01; 0.23; 0; 0.000; 
1543241674.985; 2952677462; 51.03467340; 13.73966300; 0.00; 192.40; -46; 5.763; 
1543241675.045; 3405770240; 51.03473600; 13.73943600; 0.00; 198.00; -66; 13.856; 
1543241675.085; 2952677462; 51.03467320; 13.73966280; 0.10; 192.40; -51; 5.773; 
1543241675.145; 1717974460; 51.03473600; 13.73943600; 0.00; 198.00; 0; 13.856; 
1543241675.195; 2952677462; 51.03467310; 13.73966270; 0.14; 192.40; -45; 5.785; 
1543241675.203; 0; 51.03471430; 13.73962450; 0.00; 0.23; 0; 0.000; 
1543241675.245; 3405770240; 51.03473600; 13.73943600; 0.00; 198.00; -66; 13.843; 
1543241675.285; 2952677462; 51.03467260; 13.73966250; 0.36; 192.40; -45; 5.781; 
1543241675.360; 0; 51.03471430; 13.73962440; 0.01; 0.23; 0; 0.000; 
1543241675.395; 2952677462; 51.03467220; 13.73966240; 0.44; 192.40; -55; 5.827; 
1543241675.445; 3405770240; 51.03473600; 13.73943600; 0.00; 198.00; -66; 13.836; 
1543241675.484; 2952677462; 51.03467120; 13.73966240; 0.62; 192.40; -48; 5.863; 
1543241675.562; 0; 51.03471430; 13.73962440; 0.03; 0.23; 0; 0.000; 
1543241675.585; 2952677462; 51.03467060; 13.73966220; 0.74; 192.40; -54; 5.965; 
1543241675.655; 3405770240; 51.03473600; 13.73943600; 0.00; 198.00; -66; 13.836; 
1543241675.684; 2952677462; 51.03466920; 13.73966190; 1.06; 192.40; -50; 6.017; 
1543241675.764; 0; 51.03471420; 13.73962430; 0.02; 0.23; 0; 0.000; 
1543241675.785; 2952677462; 51.03466820; 13.73966150; 1.24; 192.40; -48; 6.142; 
1543241675.845; 3405770240; 51.03473600; 13.73943600; 0.00; 198.00; -67; 13.833; 
1543241675.895; 2952677462; 51.03466700; 13.73966140; 1.24; 191.70; -45; 6.229; 
1543241675.965; 0; 51.03471420; 13.73962420; 0.00; 0.23; 0; 0.000; 
1543241675.985; 2952677462; 51.03466580; 13.73966110; 1.40; 191.70; -44; 6.353; 
1543241676.045; 3405770240; 51.03473590; 13.73943610; 0.00; 198.00; -67; 13.826; 
1543241676.085; 2952677462; 51.03466370; 13.73966080; 1.70; 190.40; -43; 6.466; 
1543241676.145; 1717974460; 51.03473590; 13.73943610; 0.00; 198.00; 0; 13.826; 
1543241676.192; 0; 51.03471420; 13.73962420; 0.01; 0.23; 0; 0.000; 
1543241676.196; 2952677462; 51.03466210; 13.73966040; 1.92; 190.40; -46; 6.674; 
1543241676.245; 3405770240; 51.03473590; 13.73943610; 0.00; 198.00; -67; 13.815; 
1543241676.285; 2952677462; 51.03466010; 13.73965970; 2.04; 190.70; -59; 6.827; 
1543241676.373; 0; 51.03471420; 13.73962420; 0.01; 0.23; 0; 0.000; 
1543241676.395; 2952677462; 51.03465820; 13.73965910; 2.22; 190.70; -53; 7.013; 
1543241676.445; 3405770240; 51.03473590; 13.73943610; 0.00; 198.00; -67; 13.815; 
1543241676.485; 2952677462; 51.03465600; 13.73965950; 2.32; 187.80; -46; 7.193; 
1543241676.560; 0; 51.03471410; 13.73962420; 0.01; 0.23; 0; 0.000; 
1543241676.585; 2952677462; 51.03465380; 13.73965900; 2.48; 187.80; -46; 7.432; 
1543241676.655; 3405770240; 51.03473590; 13.73943610; 0.00; 198.00; -66; 13.819; 
1543241676.685; 2952677462; 51.03465090; 13.73965890; 2.72; 186.00; -47; 7.650; 
1543241676.766; 0; 51.03471410; 13.73962420; 0.01; 0.23; 0; 0.000; 
1543241676.785; 2952677462; 51.03464830; 13.73965840; 2.92; 186.00; -52; 7.959; 
1543241676.845; 3405770240; 51.03473590; 13.73943610; 0.00; 198.00; -66; 13.819; 
1543241676.895; 2952677462; 51.03464570; 13.73965920; 2.86; 182.30; -51; 8.224; 
1543241676.964; 0; 51.03471410; 13.73962410; 0.01; 0.23; 0; 0.000; 
1543241676.985; 2952677462; 51.03464310; 13.73965910; 3.00; 182.30; -47; 8.535; 
1543241677.055; 3405770240; 51.03473570; 13.73943620; 0.00; 198.00; -66; 13.812; 
1543241677.085; 2952677462; 51.03464050; 13.73965990; 3.02; 179.20; -46; 8.814; 
1543241677.145; 1717974460; 51.03473570; 13.73943620; 0.00; 198.00; 0; 13.812; 
1543241677.195; 2952677462; 51.03463770; 13.73966000; 3.12; 179.20; -58; 9.122; 
1543241677.202; 0; 51.03471410; 13.73962410; 0.01; 0.23; 0; 0.000; 
1543241677.245; 3405770240; 51.03473570; 13.73943620; 0.00; 198.00; -66; 13.797; 
1543241677.286; 2952677462; 51.03463510; 13.73966110; 3.04; 176.50; -50; 9.430; 
1543241677.375; 0; 51.03471410; 13.73962410; 0.01; 0.23; 0; 0.000; 
1543241677.395; 2952677462; 51.03463230; 13.73966140; 3.10; 176.50; -52; 9.748; 
1543241677.445; 3405770240; 51.03473570; 13.73943620; 0.00; 198.00; -68; 13.797; 
1543241677.485; 2952677462; 51.03462960; 13.73966260; 3.02; 173.80; -58; 10.063; 
1543241677.562; 0; 51.03471400; 13.73962410; 0.01; 0.23; 0; 0.000; 
1543241677.585; 2952677462; 51.03462680; 13.73966310; 3.04; 173.80; -61; 10.383; 
1543241677.665; 3405770240; 51.03473570; 13.73943620; 0.00; 198.00; -67; 13.801; 
1543241677.684; 2952677462; 51.03462430; 13.73966470; 3.00; 170.50; -59; 10.704; 
1543241677.764; 0; 51.03471400; 13.73962410; 0.00; 0.23; 0; 0.000; 
1543241677.785; 2952677462; 51.03462160; 13.73966540; 3.02; 170.50; -59; 11.026; 
1543241677.845; 3405770240; 51.03473570; 13.73943620; 0.00; 198.00; -67; 13.801; 
1543241677.895; 2952677462; 51.03461890; 13.73966610; 3.02; 170.50; -60; 11.342; 
1543241677.956; 0; 51.03471400; 13.73962400; 0.01; 0.23; 0; 0.000; 
1543241677.985; 2952677462; 51.03461640; 13.73966830; 2.98; 167.60; -61; 11.661; 
1543241678.045; 3405770240; 51.03473540; 13.73943620; 0.00; 198.00; -67; 13.794; 
1543241678.085; 2952677462; 51.03461430; 13.73967080; 2.92; 163.50; -58; 12.000; 
1543241678.145; 1717974460; 51.03473540; 13.73943620; 0.00; 198.00; 0; 13.794; 
1543241678.195; 2952677462; 51.03461180; 13.73967200; 2.90; 163.50; -59; 12.305; 
1543241678.199; 0; 51.03471400; 13.73962400; 0.01; 0.23; 0; 0.000; 
1543241678.246; 3405770240; 51.03473540; 13.73943620; 0.00; 198.00; -67; 13.783; 
1543241678.285; 2952677462; 51.03460960; 13.73967450; 2.86; 160.00; -65; 12.614; 
1543241678.365; 0; 51.03471400; 13.73962400; 0.00; 0.23; 0; 0.000; 
1543241678.395; 2952677462; 51.03460720; 13.73967590; 2.84; 160.00; -68; 12.931; 
1543241678.445; 3405770240; 51.03473540; 13.73943620; 0.00; 198.00; -67; 13.783; 
1543241678.496; 2952677462; 51.03460510; 13.73967840; 2.80; 157.10; -60; 13.235; 
1543241678.562; 0; 51.03471390; 13.73962400; 0.01; 0.23; 0; 0.000; 
1543241678.595; 2952677462; 51.03460280; 13.73968000; 2.76; 157.10; -57; 13.531; 
1543241678.655; 3405770240; 51.03473540; 13.73943620; 0.00; 198.00; -66; 13.787; 
1543241678.684; 2952677462; 51.03460070; 13.73968230; 2.76; 154.80; -57; 13.831; 
1543241678.766; 0; 51.03471390; 13.73962400; 0.00; 0.23; 0; 0.000; 
1543241678.785; 2952677462; 51.03459850; 13.73968400; 2.74; 154.80; -59; 14.132; 
1543241678.845; 3405770240; 51.03473540; 13.73943620; 0.00; 198.00; -65; 13.787; 
1543241678.895; 2952677462; 51.03459680; 13.73968670; 2.70; 151.90; -61; 14.424; 
1543241678.962; 0; 51.03471390; 13.73962400; 0.01; 0.23; 0; 0.000; 
1543241678.985; 2952677462; 51.03459460; 13.73968850; 2.66; 151.90; -62; 14.695; 
1543241679.045; 3405770240; 51.03473480; 13.73943610; 0.00; 198.00; -65; 13.787; 
1543241679.085; 2952677462; 51.03459310; 13.73969120; 2.50; 148.60; -56; 14.991; 
1543241679.145; 1717974460; 51.03473480; 13.73943610; 0.00; 198.00; 0; 13.787; 
1543241679.197; 2952677462; 51.03459120; 13.73969300; 2.44; 148.60; -54; 15.242; 
1543241679.198; 0; 51.03471390; 13.73962400; 0.00; 0.23; 0; 0.000; 
1543241679.245; 3405770240; 51.03473480; 13.73943610; 0.00; 198.00; -64; 13.770; 
1543241679.285; 2952677462; 51.03458970; 13.73969610; 2.52; 145.70; -56; 15.506; 
1543241679.354; 0; 51.03471380; 13.73962400; 0.01; 0.23; 0; 0.000; 
1543241679.395; 2952677462; 51.03458780; 13.73969810; 2.50; 145.70; -58; 15.761; 
1543241679.445; 3405770240; 51.03473480; 13.73943610; 0.00; 198.00; -66; 13.774; 
1543241679.485; 2952677462; 51.03458640; 13.73970060; 2.36; 143.40; -55; 16.032; 
1543241679.565; 0; 51.03471380; 13.73962400; 0.01; 0.23; 0; 0.000; 
1543241679.585; 2952677462; 51.03458480; 13.73970260; 2.30; 143.40; -54; 16.268; 
1543241679.655; 3405770240; 51.03473480; 13.73943610; 0.00; 198.00; -67; 13.774; 
1543241679.684; 2952677462; 51.03458360; 13.73970540; 2.32; 140.20; -54; 16.508; 
1543241679.766; 0; 51.03471380; 13.73962400; 0.02; 0.23; 0; 0.000; 
1543241679.785; 2952677462; 51.03458200; 13.73970750; 2.26; 140.20; -58; 16.734; 
1543241679.845; 3405770240; 51.03473480; 13.73943610; 0.00; 198.00; -65; 13.774; 
1543241679.895; 2952677462; 51.03458050; 13.73970960; 2.22; 140.20; -54; 16.978; 
1543241679.964; 0; 51.03471370; 13.73962400; 0.01; 0.23; 0; 0.000; 
1543241679.985; 2952677462; 51.03457970; 13.73971220; 2.10; 137.10; -51; 17.201; 
1543241680.055; 3405770240; 51.03473380; 13.73943590; 0.00; 198.00; -66; 13.778; 
1543241680.085; 2952677462; 51.03457870; 13.73971470; 2.08; 135.10; -51; 17.379; 
1543241680.145; 1717974460; 51.03473380; 13.73943590; 0.00; 198.00; 0; 13.778; 
1543241680.185; 2952677462; 51.03457740; 13.73971680; 2.02; 135.10; -57; 17.576; 
1543241680.189; 0; 51.03471370; 13.73962400; 0.00; 0.23; 0; 0.000; 
1543241680.245; 3405770240; 51.03473380; 13.73943590; 0.00; 198.00; -65; 13.752; 
1543241680.285; 2952677462; 51.03457640; 13.73971900; 2.02; 133.70; -60; 17.790; 
1543241680.362; 0; 51.03471370; 13.73962400; 0.00; 0.23; 0; 0.000; 
1543241680.395; 2952677462; 51.03457510; 13.73972110; 1.98; 133.70; -51; 17.976; 
1543241680.445; 3405770240; 51.03473380; 13.73943590; 0.00; 198.00; -66; 13.752; 
1543241680.485; 2952677462; 51.03457440; 13.73972360; 1.98; 131.20; -51; 18.191; 
1543241680.565; 0; 51.03471360; 13.73962400; 0.01; 0.23; 0; 0.000; 
1543241680.585; 2952677462; 51.03457320; 13.73972570; 1.96; 131.20; -55; 18.347; 
1543241680.655; 3405770240; 51.03473380; 13.73943590; 0.00; 198.00; -66; 13.756; 
1543241680.685; 2952677462; 51.03457250; 13.73972830; 1.90; 128.40; -69; 18.552; 
1543241680.753; 0; 51.03471360; 13.73962400; 0.00; 0.23; 0; 0.000; 
1543241680.785; 2952677462; 51.03457150; 13.73973040; 1.86; 128.40; -56; 18.724; 
1543241680.845; 3405770240; 51.03473380; 13.73943590; 0.00; 198.00; -66; 13.756; 
1543241680.895; 2952677462; 51.03457040; 13.73973290; 1.96; 127.80; -54; 18.909; 
1543241680.960; 0; 51.03471350; 13.73962390; 0.01; 0.23; 0; 0.000; 
1543241680.985; 2952677462; 51.03456930; 13.73973510; 1.96; 127.80; -55; 19.113; 
1543241681.045; 3405770240; 51.03473290; 13.73943570; 0.00; 198.00; -65; 13.753; 
1543241681.085; 2952677462; 51.03456870; 13.73973750; 1.84; 125.10; -60; 19.313; 
1543241681.145; 1717974460; 51.03473290; 13.73943570; 0.00; 198.00; 0; 13.753; 
1543241681.195; 2952677462; 51.03456780; 13.73973960; 1.80; 125.10; -63; 19.469; 
1543241681.206; 0; 51.03471350; 13.73962390; 0.01; 0.23; 0; 0.000; 
1543241681.245; 3405770240; 51.03473290; 13.73943570; 0.00; 198.00; -66; 13.733; 
1543241681.285; 2952677462; 51.03456710; 13.73974220; 1.88; 123.30; -54; 19.645; 
1543241681.363; 0; 51.03471340; 13.73962390; 0.01; 0.23; 0; 0.000; 
1543241681.395; 2952677462; 51.03456620; 13.73974450; 1.86; 123.30; -55; 19.810; 
1543241681.445; 3405770240; 51.03473290; 13.73943570; 0.00; 198.00; -66; 13.736; 
1543241681.496; 2952677462; 51.03456580; 13.73974660; 1.74; 121.40; -59; 19.995; 
1543241681.567; 0; 51.03471340; 13.73962390; 0.01; 0.23; 0; 0.000; 
1543241681.585; 2952677462; 51.03456500; 13.73974870; 1.70; 121.40; -59; 20.121; 
1543241681.655; 3405770240; 51.03473290; 13.73943570; 0.00; 198.00; -65; 13.736; 
1543241681.684; 2952677462; 51.03456380; 13.73975130; 1.92; 121.80; -58; 20.288; 
1543241681.770; 0; 51.03471330; 13.73962380; 0.01; 0.23; 0; 0.000; 
1543241681.785; 2952677462; 51.03456290; 13.73975370; 1.94; 121.80; -56; 20.511; 
1543241681.845; 3405770240; 51.03473290; 13.73943570; 0.00; 198.00; -66; 13.733; 
1543241681.895; 2952677462; 51.03456200; 13.73975610; 1.98; 121.80; -60; 20.702; 
1543241681.965; 0; 51.03471330; 13.73962380; 0.01; 0.23; 0; 0.000; 
1543241681.985; 2952677462; 51.03456100; 13.73975880; 2.08; 120.70; -60; 20.893; 
1543241682.055; 1717974461; 51.03473200; 13.73943560; 0.00; 198.00; 0; -1.000; 
1543241682.085; 2952677462; 51.03456010; 13.73976230; 2.30; 118.50; -55; 21.107; 
1543241682.192; 0; 51.03471320; 13.73962380; 0.00; 0.23; 0; 0.000; 
1543241682.196; 2952677462; 51.03455910; 13.73976530; 2.40; 118.50; -56; 21.335; 
1543241682.246; 3405770240; 51.03473200; 13.73943560; 0.00; 198.00; -66; 13.737; 
1543241682.285; 2952677462; 51.03455800; 13.73976920; 2.68; 118.10; -61; 21.563; 
1543241682.365; 0; 51.03471320; 13.73962380; 0.01; 0.23; 0; 0.000; 
1543241682.395; 2952677462; 51.03455690; 13.73977260; 2.82; 118.10; -52; 21.840; 
1543241682.445; 3405770240; 51.03473200; 13.73943560; 0.00; 198.00; -65; 13.710; 
1543241682.485; 2952677462; 51.03455570; 13.73977690; 3.02; 116.90; -51; 22.096; 
1543241682.564; 0; 51.03471310; 13.73962380; 0.01; 0.23; 0; 0.000; 
1543241682.585; 2952677462; 51.03455450; 13.73978090; 3.20; 116.90; -57; 22.393; 
1543241682.655; 3405770240; 51.03473200; 13.73943560; 0.00; 198.00; -65; 13.714; 
1543241682.684; 2952677462; 51.03455350; 13.73978580; 3.32; 115.10; -50; 22.688; 
1543241682.774; 0; 51.03471310; 13.73962380; 0.00; 0.23; 0; 0.000; 
1543241682.785; 2952677462; 51.03455220; 13.73979030; 3.50; 115.10; -52; 23.004; 
1543241682.845; 3405770240; 51.03473200; 13.73943560; 0.00; 198.00; -65; 13.714; 
1543241682.895; 2952677462; 51.03455070; 13.73979590; 3.84; 114.50; -53; 23.333; 
1543241682.962; 0; 51.03471310; 13.73962380; 0.01; 0.23; 0; 0.000; 
1543241682.985; 2952677462; 51.03454930; 13.73980110; 4.08; 114.50; -48; 23.734; 
1543241683.055; 3405770240; 51.03473090; 13.73943540; 0.00; 198.00; -65; 13.714; 
1543241683.085; 2952677462; 51.03454800; 13.73980670; 4.12; 113.10; -53; 24.108; 
1543241683.145; 1717974461; 51.03473090; 13.73943540; 0.00; 198.00; 0; 13.714; 
1543241683.198; 0; 51.03471300; 13.73962380; 0.01; 0.23; 0; 0.000; 
1543241683.198; 2952677462; 51.03454650; 13.73981220; 4.32; 113.10; -52; 24.482; 
1543241683.245; 3405770240; 51.03473090; 13.73943540; 0.00; 198.00; -67; 13.690; 
1543241683.285; 2952677462; 51.03454500; 13.73981910; 4.68; 112.40; -51; 24.883; 
1543241683.362; 0; 51.03471300; 13.73962380; 0.00; 0.23; 0; 0.000; 
1543241683.395; 2952677462; 51.03454330; 13.73982550; 4.92; 112.40; -56; 25.352; 
1543241683.445; 3405770240; 51.03473090; 13.73943540; 0.00; 198.00; -67; 13.690; 
1543241683.485; 2952677462; 51.03454190; 13.73983200; 4.92; 111.40; -61; 25.819; 
1543241683.556; 0; 51.03471290; 13.73962390; 0.01; 0.23; 0; 0.000; 
1543241683.595; 2952677462; 51.03454030; 13.73983870; 5.12; 111.40; -56; 26.249; 
1543241683.655; 1717974461; 51.03473090; 13.73943540; 0.00; 198.00; 0; 13.701; 
1543241683.665; 3405770240; 51.03473090; 13.73943540; 0.00; 198.00; -65; 13.701; 
1543241683.685; 2952677462; 51.03453860; 13.73984640; 5.38; 110.60; -67; 26.725; 
1543241683.774; 0; 51.03471290; 13.73962390; 0.01; 0.23; 0; 0.000; 
1543241683.785; 2952677462; 51.03453690; 13.73985380; 5.62; 110.60; -59; 27.262; 
1543241683.845; 3405770240; 51.03473090; 13.73943540; 0.00; 198.00; -66; 13.701; 
1543241683.895; 2952677462; 51.03453500; 13.73986150; 5.84; 110.60; -56; 27.786; 
1543241683.965; 0; 51.03471280; 13.73962390; 0.00; 0.23; 0; 0.000; 
1543241683.985; 2952677462; 51.03453370; 13.73986880; 5.72; 109.80; -61; 28.337; 
1543241684.045; 3405770240; 51.03472990; 13.73943520; 0.00; 198.00; -65; 13.705; 
1543241684.085; 2952677462; 51.03453200; 13.73987660; 5.84; 109.30; -58; 28.824; 
1543241684.145; 1717974461; 51.03472990; 13.73943520; 0.00; 198.00; 0; 13.705; 
1543241684.195; 2952677462; 51.03453030; 13.73988460; 6.00; 109.30; -60; 29.376; 
1543241684.199; 0; 51.03471270; 13.73962380; 0.01; 0.23; 0; 0.000; 
1543241684.245; 3405770240; 51.03472990; 13.73943520; 0.00; 198.00; -66; 13.679; 
1543241684.285; 2952677462; 51.03452870; 13.73989220; 5.86; 109.00; -62; 29.936; 
1543241684.375; 0; 51.03471270; 13.73962390; 0.01; 0.23; 0; 0.000; 
1543241684.395; 2952677462; 51.03452690; 13.73990020; 5.94; 109.00; -59; 30.468; 
1543241684.445; 3405770240; 51.03472990; 13.73943520; 0.00; 198.00; -66; 13.686; 
1543241684.495; 2952677462; 51.03452580; 13.73990860; 6.04; 107.70; -65; 31.045; 
1543241684.565; 0; 51.03471260; 13.73962390; 0.01; 0.23; 0; 0.000; 
1543241684.585; 2952677462; 51.03452410; 13.73991700; 6.14; 107.70; -66; 31.575; 
1543241684.655; 3405770240; 51.03472990; 13.73943520; 0.00; 198.00; -67; 13.689; 
1543241684.684; 2952677462; 51.03452290; 13.73992460; 5.94; 107.00; -62; 32.169; 
1543241684.771; 0; 51.03471260; 13.73962390; 0.01; 0.23; 0; 0.000; 
1543241684.785; 2952677462; 51.03452130; 13.73993270; 5.94; 107.00; -65; 32.679; 
1543241684.845; 3405770240; 51.03472990; 13.73943520; 0.00; 198.00; -66; 13.689; 
1543241684.895; 2952677462; 51.03451990; 13.73994120; 6.06; 106.70; -66; 33.253; 
1543241684.959; 0; 51.03471250; 13.73962390; 0.02; 0.23; 0; 0.000; 
1543241684.985; 2952677462; 51.03451830; 13.73994950; 6.10; 106.70; -62; 33.824; 
1543241685.045; 3405770240; 51.03472900; 13.73943500; 0.00; 198.00; -66; 13.693; 
1543241685.085; 2952677462; 51.03451720; 13.73995740; 5.94; 106.40; -60; 34.412; 
1543241685.145; 1717974461; 51.03472900; 13.73943500; 0.00; 198.00; 0; 13.693; 
1543241685.185; 2952677462; 51.03451560; 13.73996560; 5.94; 106.40; -58; 34.938; 
1543241685.202; 0; 51.03471250; 13.73962390; 0.00; 0.23; 0; 0.000; 
1543241685.245; 3405770240; 51.03472900; 13.73943500; 0.00; 198.00; -67; 13.675; 
1543241685.285; 2952677462; 51.03451400; 13.73997360; 6.00; 106.50; -63; 35.525; 
1543241685.366; 0; 51.03471240; 13.73962400; 0.01; 0.23; 0; 0.000; 
1543241685.395; 2952677462; 51.03451240; 13.73998180; 6.00; 106.50; -64; 36.088; 
1543241685.445; 3405770240; 51.03472900; 13.73943500; 0.00; 198.00; -66; 13.685; 
1543241685.485; 2952677462; 51.03451110; 13.73999000; 6.02; 106.50; -61; 36.677; 
1543241685.565; 0; 51.03471240; 13.73962400; 0.00; 0.23; 0; 0.000; 
1543241685.585; 2952677462; 51.03450960; 13.73999830; 6.04; 106.50; -60; 37.243; 
1543241685.655; 3405770240; 51.03472900; 13.73943500; 0.00; 198.00; -67; 13.685; 
1543241685.684; 2952677462; 51.03450810; 13.74000630; 6.00; 106.80; -62; 37.833; 
1543241685.775; 0; 51.03471230; 13.73962400; 0.00; 0.23; 0; 0.000; 
1543241685.785; 2952677462; 51.03450650; 13.74001450; 6.00; 106.80; -62; 38.399; 
1543241685.845; 3405770240; 51.03472900; 13.73943500; 0.00; 198.00; -67; 13.689; 
1543241685.895; 2952677462; 51.03450500; 13.74002280; 6.00; 106.80; -66; 38.994; 
1543241685.963; 0; 51.03471220; 13.73962400; 0.01; 0.23; 0; 0.000; 
1543241685.985; 2952677462; 51.03450360; 13.74003060; 5.90; 106.50; -71; 39.579; 
1543241686.055; 3405770240; 51.03472830; 13.73943490; 0.00; 198.00; -65; 13.692; 
1543241686.085; 2952677462; 51.03450230; 13.74003910; 6.06; 106.30; -70; 40.137; 
1543241686.145; 1717974461; 51.03472830; 13.73943490; 0.00; 198.00; 0; 13.692; 
1543241686.193; 0; 51.03471220; 13.73962410; 0.01; 0.23; 0; 0.000; 
1543241686.196; 2952677462; 51.03450080; 13.74004740; 6.10; 106.30; -67; 40.723; 
1543241686.246; 3405770240; 51.03472830; 13.73943490; 0.00; 198.00; -66; 13.681; 
1543241686.285; 2952677462; 51.03449970; 13.74005540; 5.92; 105.10; -69; 41.320; 
1543241686.360; 0; 51.03471210; 13.73962410; 0.00; 0.23; 0; 0.000; 
1543241686.395; 2952677462; 51.03449830; 13.74006360; 5.88; 105.10; -69; 41.861; 
1543241686.445; 3405770240; 51.03472830; 13.73943490; 0.00; 198.00; -67; 13.685; 
1543241686.485; 2952677462; 51.03449760; 13.74007170; 5.82; 103.90; -66; 42.447; 
1543241686.563; 0; 51.03471210; 13.73962410; 0.01; 0.23; 0; 0.000; 
1543241686.585; 2952677462; 51.03449630; 13.74007970; 5.78; 103.90; -69; 42.973; 
1543241686.655; 3405770240; 51.03472830; 13.73943490; 0.00; 198.00; -67; 13.685; 
1543241686.684; 2952677462; 51.03449620; 13.74008870; 5.98; 100.60; -64; 43.541; 
1543241686.763; 0; 51.03471200; 13.73962410; 0.00; 0.23; 0; 0.000; 
1543241686.785; 2952677462; 51.03449520; 13.74009720; 6.00; 100.60; -64; 44.067; 
1543241686.845; 3405770240; 51.03472830; 13.73943490; 0.00; 198.00; -66; 13.688; 
1543241686.895; 2952677462; 51.03449530; 13.74010470; 5.70; 97.90; -66; 44.645; 
1543241686.968; 0; 51.03471190; 13.73962420; 0.00; 0.23; 0; 0.000; 
1543241686.985; 2952677462; 51.03449460; 13.74011270; 5.62; 97.90; -71; 45.066; 
1543241687.045; 3405770240; 51.03472780; 13.73943490; 0.00; 198.00; -66; 13.699; 
1543241687.085; 2952677462; 51.03449480; 13.74012130; 5.78; 95.60; -72; 45.593; 
1543241687.145; 1717974461; 51.03472780; 13.73943490; 0.00; 198.00; 0; 13.699; 
1543241687.195; 2952677462; 51.03449430; 13.74012960; 5.76; 95.60; -71; 46.089; 
1543241687.204; 0; 51.03471190; 13.73962420; 0.01; 0.23; 0; 0.000; 
1543241687.245; 3405770240; 51.03472780; 13.73943490; 0.00; 198.00; -65; 13.681; 
1543241687.295; 2952677462; 51.03449570; 13.74013760; 5.72; 91.10; -65; 46.622; 
1543241687.362; 0; 51.03471180; 13.73962420; 0.01; 0.23; 0; 0.000; 
1543241687.395; 2952677462; 51.03449560; 13.74014580; 5.70; 91.10; -63; 46.989; 
1543241687.445; 3405770240; 51.03472780; 13.73943490; 0.00; 198.00; -67; 13.685; 
1543241687.485; 2952677462; 51.03449740; 13.74015380; 5.68; 86.30; -64; 47.490; 
1543241687.560; 0; 51.03471170; 13.73962410; 0.01; 0.23; 0; 0.000; 
1543241687.585; 2952677462; 51.03449770; 13.74016190; 5.66; 86.30; -69; 47.839; 
1543241687.655; 3405770240; 51.03472780; 13.73943490; 0.00; 198.00; -67; 13.681; 
1543241687.684; 2952677462; 51.03450000; 13.74016880; 5.48; 80.40; -65; 48.310; 
1543241687.762; 0; 51.03471160; 13.73962410; 0.00; 0.23; 0; 0.000; 
1543241687.785; 2952677462; 51.03450080; 13.74017650; 5.42; 80.40; -62; 48.557; 
1543241687.845; 3405770240; 51.03472780; 13.73943490; 0.00; 198.00; -66; 13.685; 
1543241687.895; 2952677462; 51.03450160; 13.74018420; 5.36; 80.40; -65; 48.971; 
1543241687.972; 0; 51.03471160; 13.73962410; 0.00; 0.23; 0; 0.000; 
1543241687.985; 2952677462; 51.03450520; 13.74019190; 5.66; 74.80; -63; 49.388; 
1543241688.045; 3405770240; 51.03472740; 13.73943480; 0.00; 198.00; -66; 13.685; 
1543241688.085; 2952677462; 51.03450810; 13.74019830; 5.50; 70.10; -62; 49.611; 
1543241688.145; 1717974461; 51.03472740; 13.73943480; 0.00; 198.00; 0; 13.685; 
1543241688.191; 0; 51.03471150; 13.73962410; 0.01; 0.23; 0; 0.000; 
1543241688.195; 2952677462; 51.03450980; 13.74020570; 5.46; 70.10; -65; 49.800; 
1543241688.245; 3405770240; 51.03472740; 13.73943480; 0.00; 198.00; -67; 13.681; 
1543241688.285; 2952677462; 51.03451290; 13.74021170; 5.32; 65.90; -66; 50.145; 
1543241688.363; 0; 51.03471150; 13.73962410; 0.00; 0.23; 0; 0.000; 
1543241688.395; 2952677462; 51.03451490; 13.74021860; 5.26; 65.90; -69; 50.311; 
1543241688.445; 3405770240; 51.03472740; 13.73943480; 0.00; 198.00; -66; 13.681; 
1543241688.485; 2952677462; 51.03451920; 13.74022500; 5.62; 60.60; -65; 50.611; 
1543241688.561; 0; 51.03471140; 13.73962410; 0.01; 0.23; 0; 0.000; 
1543241688.585; 2952677462; 51.03452170; 13.74023210; 5.66; 60.60; -64; 50.725; 
1543241688.655; 3405770240; 51.03472740; 13.73943480; 0.00; 198.00; -67; 13.685; 
1543241688.685; 2952677462; 51.03452640; 13.74023710; 5.72; 54.20; -66; 51.013; 
1543241688.761; 0; 51.03471130; 13.73962410; 0.00; 0.23; 0; 0.000; 
1543241688.785; 2952677462; 51.03452950; 13.74024380; 5.78; 54.20; -67; 51.023; 
1543241688.845; 3405770240; 51.03472740; 13.73943480; 0.00; 198.00; -67; 13.688; 
1543241688.895; 2952677462; 51.03453390; 13.74024760; 5.52; 48.80; -69; 51.257; 
1543241688.957; 0; 51.03471130; 13.73962410; 0.01; 0.23; 0; 0.000; 
1543241688.985; 2952677462; 51.03453720; 13.74025350; 5.48; 48.80; -68; 51.227; 
1543241689.055; 3405770240; 51.03472710; 13.73943490; 0.00; 198.00; -68; 13.688; 
1543241689.085; 2952677462; 51.03454210; 13.74025820; 5.80; 44.30; -66; 51.405; 
1543241689.145; 1717974461; 51.03472710; 13.73943490; 0.00; 198.00; 0; 13.688; 
1543241689.191; 0; 51.03471120; 13.73962410; 0.01; 0.23; 0; 0.000; 
1543241689.195; 2952677462; 51.03454590; 13.74026410; 5.88; 44.30; -63; 51.408; 
1543241689.245; 3405770240; 51.03472710; 13.73943490; 0.00; 198.00; -67; 13.674; 
1543241689.285; 2952677462; 51.03455100; 13.74026720; 5.82; 39.50; -63; 51.566; 
1543241689.360; 0; 51.03471110; 13.73962400; 0.00; 0.23; 0; 0.000; 
1543241689.395; 2952677462; 51.03455500; 13.74027250; 5.84; 39.50; -75; 51.472; 
1543241689.444; 3405770240; 51.03472710; 13.73943490; 0.00; 198.00; -66; 13.671; 
1543241689.484; 2952677462; 51.03456020; 13.74027560; 5.82; 35.10; -70; 51.590; 
1543241689.563; 0; 51.03471100; 13.73962400; 0.00; 0.23; 0; 0.000; 
1543241689.585; 2952677462; 51.03456450; 13.74028040; 5.82; 35.10; -63; 51.496; 
1543241689.665; 3405770240; 51.03472710; 13.73943490; 0.00; 198.00; -66; 13.674; 
1543241689.684; 2952677462; 51.03457010; 13.74028280; 5.92; 30.50; -63; 51.576; 
1543241689.762; 0; 51.03471090; 13.73962400; 0.01; 0.23; 0; 0.000; 
1543241689.785; 2952677462; 51.03457460; 13.74028710; 5.96; 30.50; -66; 51.427; 
1543241689.845; 3405770240; 51.03472710; 13.73943490; 0.00; 198.00; -67; 13.678; 
1543241689.895; 2952677462; 51.03457930; 13.74029150; 6.00; 30.50; -62; 51.475; 
1543241689.962; 0; 51.03471080; 13.73962390; 0.01; 0.23; 0; 0.000; 
1543241689.985; 2952677462; 51.03458440; 13.74029280; 5.80; 26.80; -65; 51.527; 
1543241690.045; 3405770240; 51.03472680; 13.73943500; 0.00; 198.00; -66; 13.674; 
1543241690.085; 2952677462; 51.03459020; 13.74029500; 6.04; 23.60; -62; 51.354; 
1543241690.145; 1717974461; 51.03472680; 13.73943500; 0.00; 198.00; 0; 13.674; 
1543241690.195; 2952677462; 51.03459520; 13.74029850; 6.10; 23.60; -58; 51.214; 
1543241690.199; 0; 51.03471070; 13.73962380; 0.01; 0.23; 0; 0.000; 
1543241690.246; 3405770240; 51.03472680; 13.73943500; 0.00; 198.00; -66; 13.653; 
1543241690.285; 2952677462; 51.03460030; 13.74030080; 6.02; 21.70; -62; 51.210; 
1543241690.357; 0; 51.03471060; 13.73962380; 0.01; 0.23; 0; 0.000; 
1543241690.395; 2952677462; 51.03460530; 13.74030400; 6.04; 21.70; -60; 51.119; 
1543241690.445; 3405770240; 51.03472680; 13.73943500; 0.00; 198.00; -66; 13.657; 
1543241690.484; 2952677462; 51.03461130; 13.74030650; 6.20; 20.10; -58; 51.106; 
1543241690.564; 0; 51.03471050; 13.73962370; 0.01; 0.23; 0; 0.000; 
1543241690.585; 2952677462; 51.03461650; 13.74030960; 6.26; 20.10; -62; 51.008; 
1543241690.655; 3405770240; 51.03472680; 13.73943500; 0.00; 198.00; -66; 13.654; 
1543241690.685; 2952677462; 51.03462170; 13.74031170; 6.08; 18.90; -58; 50.993; 
1543241690.763; 0; 51.03471040; 13.73962370; 0.01; 0.23; 0; 0.000; 
1543241690.785; 2952677462; 51.03462690; 13.74031450; 6.08; 18.90; -64; 50.912; 
1543241690.845; 3405770240; 51.03472680; 13.73943500; 0.00; 198.00; -65; 13.657; 
1543241690.895; 2952677462; 51.03463220; 13.74031710; 6.00; 18.60; -58; 50.890; 
1543241690.960; 0; 51.03471030; 13.73962360; 0.00; 0.23; 0; 0.000; 
1543241690.985; 2952677462; 51.03463730; 13.74031980; 5.98; 18.60; -63; 50.859; 
1543241691.045; 3405770240; 51.03472660; 13.73943500; 0.00; 198.00; -66; 13.654; 
1543241691.085; 2952677462; 51.03464270; 13.74032200; 6.04; 17.70; -60; 50.847; 
1543241691.145; 1717974461; 51.03472660; 13.73943500; 0.00; 198.00; 0; 13.654; 
1543241691.195; 2952677462; 51.03464790; 13.74032470; 6.06; 17.70; -59; 50.796; 
1543241691.199; 0; 51.03471020; 13.73962360; 0.01; 0.23; 0; 0.000; 
1543241691.245; 3405770240; 51.03472660; 13.73943500; 0.00; 198.00; -67; 13.650; 
1543241691.285; 2952677462; 51.03465370; 13.74032750; 6.28; 17.80; -56; 50.791; 
1543241691.360; 0; 51.03471010; 13.73962350; 0.01; 0.23; 0; 0.000; 
1543241691.395; 2952677462; 51.03465910; 13.74033030; 6.34; 17.80; -57; 50.785; 
1543241691.445; 3405770240; 51.03472660; 13.73943500; 0.00; 198.00; -66; 13.647; 
1543241691.485; 2952677462; 51.03466390; 13.74033220; 5.98; 17.20; -59; 50.798; 
1543241691.562; 0; 51.03471000; 13.73962350; 0.00; 0.23; 0; 0.000; 
1543241691.585; 2952677462; 51.03466900; 13.74033480; 5.92; 17.20; -62; 50.771; 
1543241691.655; 3405770240; 51.03472660; 13.73943500; 0.00; 198.00; -66; 13.650; 
1543241691.684; 2952677462; 51.03467470; 13.74033730; 6.10; 16.70; -63; 50.793; 
1543241691.750; 0; 51.03470990; 13.73962340; 0.01; 0.23; 0; 0.000; 
1543241691.785; 2952677462; 51.03468000; 13.74033980; 6.12; 16.70; -62; 50.800; 
1543241691.845; 3405770240; 51.03472660; 13.73943500; 0.00; 198.00; -66; 13.647; 
1543241691.895; 2952677462; 51.03468520; 13.74034240; 6.12; 16.70; -61; 50.823; 
1543241691.963; 0; 51.03470980; 13.73962330; 0.01; 0.23; 0; 0.000; 
1543241691.995; 2952677462; 51.03469060; 13.74034530; 6.12; 17.00; -61; 50.867; 
1543241692.055; 1717974462; 51.03472630; 13.73943510; 0.00; 198.00; 0; -1.000; 
1543241692.085; 2952677462; 51.03469630; 13.74034840; 6.22; 17.30; -62; 50.929; 
1543241692.193; 0; 51.03470970; 13.73962330; 0.00; 0.23; 0; 0.000; 
1543241692.196; 2952677462; 51.03470170; 13.74035110; 6.26; 17.30; -66; 51.002; 
1543241692.245; 3405770240; 51.03472630; 13.73943510; 0.00; 198.00; -66; 13.647; 
1543241692.285; 2952677462; 51.03470690; 13.74035370; 6.16; 17.40; -65; 51.065; 
1543241692.362; 0; 51.03470960; 13.73962330; 0.01; 0.23; 0; 0.000; 
1543241692.395; 2952677462; 51.03471220; 13.74035640; 6.16; 17.40; -62; 51.130; 
1543241692.445; 3405770240; 51.03472630; 13.73943510; 0.00; 198.00; -66; 13.633; 
1543241692.485; 2952677462; 51.03471760; 13.74035930; 6.20; 17.60; -63; 51.209; 
1543241692.562; 0; 51.03470960; 13.73962320; 0.01; 0.23; 0; 0.000; 
1543241692.585; 2952677462; 51.03472290; 13.74036200; 6.20; 17.60; -68; 51.314; 
1543241692.655; 3405770240; 51.03472630; 13.73943510; 0.00; 198.00; -68; 13.626; 
1543241692.684; 2952677462; 51.03472850; 13.74036460; 6.22; 17.60; -68; 51.406; 
1543241692.762; 0; 51.03470950; 13.73962320; 0.01; 0.23; 0; 0.000; 
1543241692.785; 2952677462; 51.03473380; 13.74036730; 6.24; 17.60; -64; 51.492; 
1543241692.845; 3405770240; 51.03472630; 13.73943510; 0.00; 198.00; -67; 13.630; 
1543241692.895; 2952677462; 51.03473960; 13.74037040; 6.34; 17.80; -61; 51.598; 
1543241692.960; 0; 51.03470930; 13.73962320; 0.01; 0.23; 0; 0.000; 
1543241692.995; 2952677462; 51.03474500; 13.74037320; 6.38; 17.80; -67; 51.729; 
1543241693.045; 3405770240; 51.03472610; 13.73943520; 0.00; 198.00; -67; 13.637; 
1543241693.085; 2952677462; 51.03475030; 13.74037590; 6.22; 18.00; -64; 51.856; 
1543241693.145; 1717974462; 51.03472610; 13.73943520; 0.00; 198.00; 0; 13.637; 
1543241693.188; 0; 51.03470930; 13.73962320; 0.01; 0.23; 0; 0.000; 
1543241693.195; 2952677462; 51.03475560; 13.74037870; 6.20; 18.00; -69; 51.983; 
1543241693.245; 3405770240; 51.03472610; 13.73943520; 0.00; 198.00; -67; 13.623; 
1543241693.285; 2952677462; 51.03476090; 13.74038140; 6.18; 18.00; -63; 52.123; 
1543241693.359; 0; 51.03470920; 13.73962320; 0.01; 0.23; 0; 0.000; 
1543241693.395; 2952677462; 51.03476690; 13.74038450; 6.36; 18.20; -67; 52.262; 
1543241693.445; 3405770240; 51.03472610; 13.73943520; 0.00; 198.00; -68; 13.626; 
1543241693.485; 2952677462; 51.03477260; 13.74038730; 6.32; 18.10; -66; 52.432; 
1543241693.562; 0; 51.03470910; 13.73962320; 0.01; 0.23; 0; 0.000; 
1543241693.585; 2952677462; 51.03477800; 13.74039010; 6.32; 18.10; -64; 52.589; 
1543241693.655; 3405770240; 51.03472610; 13.73943520; 0.00; 198.00; -67; 13.630; 
1543241693.684; 2952677462; 51.03478370; 13.74039280; 6.38; 18.00; -68; 52.756; 
1543241693.762; 0; 51.03470900; 13.73962330; 0.00; 0.23; 0; 0.000; 
1543241693.785; 2952677462; 51.03478920; 13.74039570; 6.42; 18.00; -67; 52.914; 
1543241693.845; 3405770240; 51.03472610; 13.73943520; 0.00; 198.00; -66; 13.641; 
1543241693.895; 2952677462; 51.03479470; 13.74039850; 6.44; 18.00; -68; 53.101; 
1543241693.962; 0; 51.03470900; 13.73962330; 0.01; 0.23; 0; 0.000; 
1543241693.985; 2952677462; 51.03480010; 13.74040150; 6.38; 18.00; -63; 53.288; 
1543241694.045; 3405770240; 51.03472600; 13.73943530; 0.00; 198.00; -66; 13.641; 
1543241694.085; 2952677462; 51.03480570; 13.74040390; 6.32; 17.60; -66; 53.495; 
1543241694.145; 1717974462; 51.03472600; 13.73943530; 0.00; 198.00; 0; 13.641; 
1543241694.185; 2952677462; 51.03481110; 13.74040660; 6.32; 17.60; -68; 53.667; 
1543241694.188; 0; 51.03470890; 13.73962340; 0.01; 0.23; 0; 0.000; 
1543241694.244; 3405770240; 51.03472600; 13.73943530; 0.00; 198.00; -66; 13.641; 
1543241694.285; 2952677462; 51.03481670; 13.74040940; 6.40; 17.60; -68; 53.859; 
1543241694.372; 0; 51.03470880; 13.73962340; 0.01; 0.23; 0; 0.000; 
1543241694.395; 2952677462; 51.03482220; 13.74041220; 6.40; 17.60; -64; 54.072; 
1543241694.445; 3405770240; 51.03472600; 13.73943530; 0.00; 198.00; -65; 13.644; 
1543241694.485; 2952677462; 51.03482770; 13.74041510; 6.38; 17.80; -65; 54.290; 
1543241694.551; 0; 51.03470870; 13.73962340; 0.01; 0.23; 0; 0.000; 
1543241694.585; 2952677462; 51.03483320; 13.74041790; 6.38; 17.80; -67; 54.522; 
1543241694.655; 3405770240; 51.03472600; 13.73943530; 0.00; 198.00; -66; 13.648; 
1543241694.685; 2952677462; 51.03483850; 13.74042060; 6.36; 17.80; -63; 54.753; 
1543241694.762; 0; 51.03470860; 13.73962350; 0.01; 0.23; 0; 0.000; 
1543241694.785; 2952677462; 51.03484400; 13.74042340; 6.36; 17.80; -63; 54.975; 
1543241694.845; 3405770240; 51.03472600; 13.73943530; 0.00; 198.00; -67; 13.658; 
1543241694.895; 2952677462; 51.03484930; 13.74042620; 6.26; 17.60; -64; 55.218; 
1543241694.962; 0; 51.03470860; 13.73962350; 0.00; 0.23; 0; 0.000; 
1543241694.985; 2952677462; 51.03485460; 13.74042890; 6.24; 17.60; -62; 55.464; 
1543241695.055; 3405770240; 51.03472590; 13.73943540; 0.00; 198.00; -66; 13.658; 
1543241695.085; 2952677462; 51.03486010; 13.74043170; 6.32; 17.60; -63; 55.708; 
1543241695.145; 1717974462; 51.03472590; 13.73943540; 0.00; 198.00; 0; 13.658; 
1543241695.197; 2952677462; 51.03486560; 13.74043440; 6.34; 17.60; -65; 55.968; 
1543241695.198; 0; 51.03470850; 13.73962350; 0.00; 0.23; 0; 0.000; 
1543241695.245; 3405770240; 51.03472590; 13.73943540; 0.00; 198.00; -65; 13.651; 
1543241695.285; 2952677462; 51.03487100; 13.74043720; 6.34; 17.60; -67; 56.227; 
1543241695.364; 0; 51.03470840; 13.73962350; 0.00; 0.23; 0; 0.000; 
1543241695.395; 2952677462; 51.03487660; 13.74043990; 6.36; 17.50; -65; 56.498; 
1543241695.445; 3405770240; 51.03472590; 13.73943540; 0.00; 198.00; -65; 13.655; 
1543241695.485; 2952677462; 51.03488190; 13.74044240; 6.20; 17.40; -65; 56.769; 
1543241695.563; 0; 51.03470830; 13.73962360; 0.01; 0.23; 0; 0.000; 
1543241695.585; 2952677462; 51.03488720; 13.74044510; 6.16; 17.40; -68; 57.022; 
1543241695.665; 3405770240; 51.03472590; 13.73943540; 0.00; 198.00; -65; 13.666; 
1543241695.684; 2952677462; 51.03489270; 13.74044800; 6.28; 17.60; -70; 57.298; 
1543241695.762; 0; 51.03470820; 13.73962360; 0.01; 0.23; 0; 0.000; 
1543241695.785; 2952677462; 51.03489810; 13.74045070; 6.28; 17.60; -67; 57.598; 
1543241695.845; 3405770240; 51.03472590; 13.73943540; 0.00; 198.00; -66; 13.669; 
1543241695.895; 2952677462; 51.03490350; 13.74045350; 6.28; 17.60; -72; 57.886; 
1543241695.948; 0; 51.03470820; 13.73962370; 0.01; 0.23; 0; 0.000; 
1543241695.985; 2952677462; 51.03490890; 13.74045610; 6.26; 17.70; -67; 58.179; 
1543241696.045; 3405770240; 51.03472580; 13.73943550; 0.00; 198.00; -65; 13.676; 
1543241696.085; 2952677462; 51.03491420; 13.74045860; 6.26; 17.40; -70; 58.471; 
1543241696.145; 1717974462; 51.03472580; 13.73943550; 0.00; 198.00; 0; 13.676; 
1543241696.191; 0; 51.03470810; 13.73962380; 0.01; 0.23; 0; 0.000; 
1543241696.195; 2952677462; 51.03491960; 13.74046130; 6.26; 17.40; -71; 58.754; 
1543241696.245; 3405770240; 51.03472580; 13.73943550; 0.00; 198.00; -66; 13.676; 
1543241696.285; 2952677462; 51.03492530; 13.74046340; 6.28; 16.50; -70; 59.061; 
1543241696.363; 0; 51.03470810; 13.73962390; 0.00; 0.23; 0; 0.000; 
1543241696.395; 2952677462; 51.03493070; 13.74046600; 6.28; 16.50; -70; 59.336; 
1543241696.455; 3405770240; 51.03472580; 13.73943550; 0.00; 198.00; -66; 13.683; 
1543241696.484; 2952677462; 51.03493610; 13.74046720; 6.16; 14.60; -65; 59.647; 
1543241696.560; 0; 51.03470800; 13.73962400; 0.00; 0.23; 0; 0.000; 
1543241696.585; 2952677462; 51.03494140; 13.74046950; 6.14; 14.60; -67; 59.869; 
1543241696.655; 3405770240; 51.03472580; 13.73943550; 0.00; 198.00; -65; 13.694; 
1543241696.694; 2952677462; 51.03494720; 13.74047080; 6.22; 13.00; -68; 60.167; 
1543241696.764; 0; 51.03470800; 13.73962420; 0.00; 0.23; 0; 0.000; 
1543241696.785; 2952677462; 51.03495260; 13.74047280; 6.22; 13.00; -63; 60.409; 
1543241696.845; 3405770240; 51.03472580; 13.73943550; 0.00; 198.00; -66; 13.708; 
1543241696.895; 2952677462; 51.03495840; 13.74047340; 6.20; 10.60; -73; 60.701; 
1543241696.963; 0; 51.03470790; 13.73962440; 0.00; 0.23; 0; 0.000; 
1543241696.985; 2952677462; 51.03496390; 13.74047500; 6.20; 10.60; -71; 60.914; 
1543241697.045; 3405770240; 51.03472580; 13.73943550; 0.00; 198.00; -65; 13.725; 
1543241697.085; 2952677462; 51.03496940; 13.74047480; 6.10; 7.60; -75; 61.194; 
1543241697.145; 1717974462; 51.03472580; 13.73943550; 0.00; 198.00; 0; 13.725; 
1543241697.198; 2952677462; 51.03497480; 13.74047590; 6.06; 7.60; -71; 61.368; 
1543241697.198; 0; 51.03470790; 13.73962450; 0.01; 0.23; 0; 0.000; 
1543241697.245; 3405770240; 51.03472580; 13.73943550; 0.00; 198.00; -66; 13.732; 
1543241697.285; 2952677462; 51.03498020; 13.74047710; 6.04; 7.60; -68; 61.618; 
1543241697.353; 0; 51.03470780; 13.73962470; 0.00; 0.23; 0; 0.000; 
1543241697.395; 2952677462; 51.03498560; 13.74047480; 5.90; 3.20; -61; 61.877; 
1543241697.445; 3405770240; 51.03472580; 13.73943550; 0.00; 198.00; -66; 13.749; 
1543241697.485; 2952677462; 51.03499120; 13.74047280; 6.02; 359.00; -68; 61.936; 
1543241697.576; 0; 51.03470780; 13.73962480; 0.01; 0.23; 0; 0.000; 
1543241697.585; 2952677462; 51.03499660; 13.74047260; 6.02; 359.00; -64; 62.022; 
1543241697.655; 3405770240; 51.03472580; 13.73943550; 0.00; 198.00; -65; 13.756; 
1543241697.694; 2952677462; 51.03500180; 13.74046990; 5.94; 354.90; -64; 62.222; 
1543241697.766; 0; 51.03470770; 13.73962500; 0.01; 0.23; 0; 0.000; 
1543241697.785; 2952677462; 51.03500720; 13.74046920; 5.90; 354.90; -68; 62.262; 
1543241697.845; 3405770240; 51.03472580; 13.73943550; 0.00; 198.00; -66; 13.774; 
1543241697.895; 2952677462; 51.03501240; 13.74046850; 5.88; 354.90; -74; 62.443; 
1543241697.962; 0; 51.03470770; 13.73962510; 0.00; 0.23; 0; 0.000; 
1543241697.985; 2952677462; 51.03501730; 13.74046460; 5.78; 350.70; -66; 62.615; 
1543241698.055; 3405770240; 51.03472580; 13.73943550; 0.00; 198.00; -65; 13.781; 
1543241698.085; 2952677462; 51.03502180; 13.74046010; 5.72; 345.50; -64; 62.599; 
1543241698.145; 1717974462; 51.03472580; 13.73943550; 0.00; 198.00; 0; 13.781; 
1543241698.196; 0; 51.03470770; 13.73962530; 0.01; 0.23; 0; 0.000; 
1543241698.197; 2952677462; 51.03502680; 13.74045810; 5.66; 345.50; -67; 62.525; 
1543241698.246; 3405770240; 51.03472580; 13.73943550; 0.00; 198.00; -65; 13.795; 
1543241698.285; 2952677462; 51.03503120; 13.74045340; 5.64; 340.90; -65; 62.637; 
1543241698.374; 0; 51.03470770; 13.73962540; 0.01; 0.23; 0; 0.000; 
1543241698.395; 2952677462; 51.03503590; 13.74045080; 5.60; 340.90; -65; 62.565; 
1543241698.445; 3405770240; 51.03472580; 13.73943550; 0.00; 198.00; -65; 13.802; 
1543241698.485; 2952677462; 51.03504020; 13.74044560; 5.66; 336.20; -65; 62.640; 
1543241698.573; 0; 51.03470760; 13.73962560; 0.01; 0.23; 0; 0.000; 
1543241698.585; 2952677462; 51.03504490; 13.74044230; 5.64; 336.20; -66; 62.548; 
1543241698.655; 3405770240; 51.03472580; 13.73943550; 0.00; 198.00; -67; 13.819; 
1543241698.685; 2952677462; 51.03504870; 13.74043660; 5.66; 331.30; -64; 62.595; 
1543241698.757; 0; 51.03470760; 13.73962580; 0.01; 0.23; 0; 0.000; 
1543241698.785; 2952677462; 51.03505320; 13.74043270; 5.64; 331.30; -63; 62.458; 
1543241698.845; 3405770240; 51.03472580; 13.73943550; 0.00; 198.00; -65; 13.833; 
1543241698.895; 2952677462; 51.03505640; 13.74042660; 5.48; 326.40; -67; 62.474; 
1543241698.973; 0; 51.03470760; 13.73962600; 0.01; 0.23; 0; 0.000; 
1543241698.985; 2952677462; 51.03506040; 13.74042230; 5.42; 326.40; -65; 62.296; 
1543241699.045; 3405770240; 51.03472580; 13.73943560; 0.00; 198.00; -67; 13.847; 
1543241699.085; 2952677462; 51.03506330; 13.74041540; 5.44; 321.10; -65; 62.276; 
1543241699.145; 1717974462; 51.03472580; 13.73943560; 0.00; 198.00; 0; 13.847; 
1543241699.198; 2952677462; 51.03506720; 13.74041050; 5.40; 321.10; -67; 62.060; 
1543241699.198; 0; 51.03470760; 13.73962610; 0.01; 0.23; 0; 0.000; 
1543241699.245; 3405770240; 51.03472580; 13.73943560; 0.00; 198.00; -66; 13.847; 
1543241699.285; 2952677462; 51.03506990; 13.74040360; 5.44; 316.20; -66; 62.008; 
1543241699.366; 0; 51.03470760; 13.73962630; 0.01; 0.23; 0; 0.000; 
1543241699.395; 2952677462; 51.03507340; 13.74039820; 5.42; 316.20; -64; 61.782; 
1543241699.455; 3405770240; 51.03472580; 13.73943560; 0.00; 198.00; -67; 13.861; 
1543241699.484; 2952677462; 51.03507570; 13.74039120; 5.42; 311.70; -66; 61.697; 
1543241699.564; 0; 51.03470760; 13.73962640; 0.01; 0.23; 0; 0.000; 
1543241699.585; 2952677462; 51.03507900; 13.74038540; 5.40; 311.70; -66; 61.459; 
1543241699.655; 3405770240; 51.03472580; 13.73943560; 0.00; 198.00; -66; 13.867; 
1543241699.684; 2952677462; 51.03508100; 13.74037820; 5.36; 307.10; -67; 61.353; 
1543241699.767; 0; 51.03470760; 13.73962650; 0.00; 0.23; 0; 0.000; 
1543241699.785; 2952677462; 51.03508390; 13.74037210; 5.32; 307.10; -67; 61.097; 
1543241699.845; 3405770240; 51.03472580; 13.73943560; 0.00; 198.00; -66; 13.874; 
1543241699.895; 2952677462; 51.03508680; 13.74036600; 5.30; 307.10; -69; 60.961; 
1543241699.963; 0; 51.03470760; 13.73962670; 0.01; 0.23; 0; 0.000; 
1543241699.985; 2952677462; 51.03508840; 13.74035810; 5.40; 303.10; -71; 60.821; 
1543241700.045; 3405770240; 51.03472590; 13.73943570; 0.00; 198.00; -67; 13.888; 
1543241700.085; 2952677462; 51.03509020; 13.74035100; 5.34; 299.90; -69; 60.525; 
1543241700.145; 1717974462; 51.03472590; 13.73943570; 0.00; 198.00; 0; 13.888; 
1543241700.186; 0; 51.03470760; 13.73962680; 0.00; 0.23; 0; 0.000; 
1543241700.195; 2952677462; 51.03509250; 13.74034440; 5.34; 299.90; -67; 60.281; 
1543241700.245; 3405770240; 51.03472590; 13.73943570; 0.00; 198.00; -67; 13.892; 
1543241700.285; 2952677462; 51.03509390; 13.74033670; 5.34; 296.90; -69; 60.103; 
1543241700.362; 0; 51.03470750; 13.73962690; 0.00; 0.23; 0; 0.000; 
1543241700.395; 2952677462; 51.03509610; 13.74032990; 5.34; 296.90; -69; 59.820; 
1543241700.445; 3405770240; 51.03472590; 13.73943570; 0.00; 198.00; -66; 13.902; 
1543241700.485; 2952677462; 51.03509750; 13.74032250; 5.36; 294.40; -65; 59.635; 
1543241700.562; 0; 51.03470750; 13.73962700; 0.00; 0.23; 0; 0.000; 
1543241700.585; 2952677462; 51.03509950; 13.74031550; 5.36; 294.40; -68; 59.369; 
1543241700.655; 3405770240; 51.03472590; 13.73943570; 0.00; 198.00; -66; 13.909; 
1543241700.685; 2952677462; 51.03510090; 13.74030790; 5.38; 292.70; -71; 59.171; 
1543241700.762; 0; 51.03470750; 13.73962710; 0.00; 0.23; 0; 0.000; 
1543241700.785; 2952677462; 51.03510280; 13.74030080; 5.38; 292.70; -68; 58.904; 
1543241700.845; 3405770240; 51.03472590; 13.73943570; 0.00; 198.00; -66; 13.916; 
1543241700.895; 2952677462; 51.03510420; 13.74029370; 5.30; 291.00; -67; 58.705; 
1543241700.962; 0; 51.03470760; 13.73962730; 0.01; 0.23; 0; 0.000; 
1543241700.985; 2952677462; 51.03510590; 13.74028670; 5.28; 291.00; -71; 58.459; 
1543241701.055; 3405770240; 51.03472600; 13.73943580; 0.00; 198.00; -66; 13.926; 
1543241701.085; 2952677462; 51.03510730; 13.74027910; 5.40; 289.30; -68; 58.259; 
1543241701.145; 1717974462; 51.03472600; 13.73943580; 0.00; 198.00; 0; 13.926; 
1543241701.193; 0; 51.03470760; 13.73962740; 0.01; 0.23; 0; 0.000; 
1543241701.196; 2952677462; 51.03510890; 13.74027180; 5.42; 289.30; -67; 58.011; 
1543241701.245; 3405770240; 51.03472600; 13.73943580; 0.00; 198.00; -66; 13.930; 
1543241701.285; 2952677462; 51.03511040; 13.74026500; 5.34; 288.80; -65; 57.801; 
1543241701.362; 0; 51.03470750; 13.73962750; 0.01; 0.23; 0; 0.000; 
1543241701.395; 2952677462; 51.03511200; 13.74025780; 5.32; 288.80; -67; 57.613; 
1543241701.445; 3405770240; 51.03472600; 13.73943580; 0.00; 198.00; -66; 13.941; 
1543241701.485; 2952677462; 51.03511330; 13.74025030; 5.36; 288.00; -66; 57.416; 
1543241701.559; 0; 51.03470750; 13.73962760; 0.01; 0.23; 0; 0.000; 
1543241701.585; 2952677462; 51.03511480; 13.74024300; 5.36; 288.00; -63; 57.185; 
1543241701.684; 2952677462; 51.03511660; 13.74023550; 5.40; 288.50; -66; 56.986; 
1543241701.763; 0; 51.03470750; 13.73962770; 0.01; 0.23; 0; 0.000; 
1543241701.785; 2952677462; 51.03511810; 13.74022820; 5.42; 288.50; -65; 56.803; 
1543241701.845; 3405770240; 51.03472600; 13.73943580; 0.00; 198.00; -65; 13.955; 
1543241701.895; 2952677462; 51.03511970; 13.74022080; 5.44; 288.50; -66; 56.615; 
1543241701.959; 0; 51.03470750; 13.73962780; 0.01; 0.23; 0; 0.000; 
1543241701.985; 2952677462; 51.03512090; 13.74021370; 5.36; 287.80; -67; 56.431; 
1543241702.055; 1717974463; 51.03472600; 13.73943590; 0.00; 198.00; 0; -1.000; 
1543241702.085; 2952677462; 51.03512240; 13.74020640; 5.38; 287.80; -67; 56.238; 
1543241702.192; 0; 51.03470750; 13.73962790; 0.01; 0.23; 0; 0.000; 
1543241702.196; 2952677462; 51.03512390; 13.74019900; 5.38; 287.80; -64; 56.061; 
1543241702.246; 3405770240; 51.03472600; 13.73943590; 0.00; 198.00; -67; 13.968; 
1543241702.285; 2952677462; 51.03512550; 13.74019190; 5.38; 287.80; -64; 55.889; 
1543241702.362; 0; 51.03470750; 13.73962800; 0.01; 0.23; 0; 0.000; 
1543241702.395; 2952677462; 51.03512690; 13.74018450; 5.38; 287.80; -63; 55.738; 
1543241702.445; 3405770240; 51.03472600; 13.73943590; 0.00; 198.00; -66; 13.968; 
1543241702.484; 2952677462; 51.03512820; 13.74017690; 5.44; 287.20; -67; 55.569; 
1543241702.562; 0; 51.03470750; 13.73962810; 0.01; 0.23; 0; 0.000; 
1543241702.586; 2952677462; 51.03512970; 13.74016940; 5.46; 287.20; -68; 55.386; 
1543241702.655; 3405770240; 51.03472600; 13.73943590; 0.00; 198.00; -66; 13.975; 
1543241702.685; 2952677462; 51.03513100; 13.74016200; 5.46; 287.00; -66; 55.232; 
1543241702.766; 0; 51.03470750; 13.73962820; 0.01; 0.23; 0; 0.000; 
1543241702.785; 2952677462; 51.03513250; 13.74015450; 5.46; 287.00; -66; 55.067; 
1543241702.845; 3405770240; 51.03472600; 13.73943590; 0.00; 198.00; -66; 13.982; 
1543241702.895; 2952677462; 51.03513390; 13.74014710; 5.46; 286.90; -63; 54.925; 
1543241702.960; 0; 51.03470750; 13.73962830; 0.01; 0.23; 0; 0.000; 
1543241702.985; 2952677462; 51.03513530; 13.74013960; 5.48; 286.90; -72; 54.779; 
1543241703.045; 3405770240; 51.03472600; 13.73943590; 0.00; 198.00; -66; 13.989; 
1543241703.085; 2952677462; 51.03513640; 13.74013220; 5.46; 286.20; -64; 54.640; 
1543241703.145; 1717974463; 51.03472600; 13.73943590; 0.00; 198.00; 0; 13.989; 
1543241703.184; 2952677462; 51.03513780; 13.74012470; 5.48; 286.20; -64; 54.483; 
1543241703.193; 0; 51.03470750; 13.73962830; 0.01; 0.23; 0; 0.000; 
1543241703.244; 3405770240; 51.03472600; 13.73943590; 0.00; 198.00; -67; 13.989; 
1543241703.284; 2952677462; 51.03513920; 13.74011710; 5.52; 285.80; -60; 54.355; 
1543241703.362; 0; 51.03470750; 13.73962840; 0.01; 0.23; 0; 0.000; 
1543241703.416; 2952677462; 51.03514060; 13.74010950; 5.54; 285.80; -58; 54.226; 
1543241703.445; 3405770240; 51.03472600; 13.73943590; 0.00; 198.00; -67; 13.996; 
1543241703.485; 2952677462; 51.03514210; 13.74010210; 5.52; 286.20; -60; 54.106; 
1543241703.563; 0; 51.03470760; 13.73962850; 0.01; 0.23; 0; 0.000; 
1543241703.585; 2952677462; 51.03514350; 13.74009450; 5.54; 286.20; -63; 53.995; 
1543241703.655; 3405770240; 51.03472600; 13.73943590; 0.00; 198.00; -66; 13.999; 
1543241703.685; 2952677462; 51.03514450; 13.74008620; 5.68; 284.70; -58; 53.887; 
1543241703.768; 0; 51.03470760; 13.73962860; 0.01; 0.23; 0; 0.000; 
1543241703.785; 2952677462; 51.03514580; 13.74007830; 5.74; 284.70; -61; 53.725; 
1543241703.845; 3405770240; 51.03472600; 13.73943590; 0.00; 198.00; -66; 14.006; 
1543241703.895; 2952677462; 51.03514710; 13.74007030; 5.80; 284.70; -60; 53.611; 
1543241703.962; 0; 51.03470760; 13.73962870; 0.01; 0.23; 0; 0.000; 
1543241703.985; 2952677462; 51.03514840; 13.74006300; 5.64; 284.80; -63; 53.498; 
1543241704.055; 3405770240; 51.03472600; 13.73943600; 0.00; 198.00; -67; 14.013; 
1543241704.085; 2952677462; 51.03514970; 13.74005530; 5.60; 285.10; -63; 53.415; 
1543241704.145; 1717974463; 51.03472600; 13.73943600; 0.00; 198.00; 0; 14.013; 
1543241704.187; 0; 51.03470760; 13.73962870; 0.00; 0.23; 0; 0.000; 
1543241704.195; 2952677462; 51.03515100; 13.74004760; 5.58; 285.10; -64; 53.326; 
1543241704.245; 3405770240; 51.03472600; 13.73943600; 0.00; 198.00; -65; 14.006; 
1543241704.285; 2952677462; 51.03515210; 13.74003910; 5.78; 284.10; -58; 53.243; 
1543241704.362; 0; 51.03470760; 13.73962880; 0.01; 0.23; 0; 0.000; 
1543241704.395; 2952677462; 51.03515340; 13.74003110; 5.82; 284.10; -63; 53.124; 
1543241704.445; 3405770240; 51.03472600; 13.73943600; 0.00; 198.00; -66; 14.013; 
1543241704.485; 2952677462; 51.03515390; 13.74002310; 5.72; 282.60; -62; 53.047; 
1543241704.562; 0; 51.03470760; 13.73962880; 0.01; 0.23; 0; 0.000; 
1543241704.585; 2952677462; 51.03515500; 13.74001510; 5.74; 282.60; -67; 52.899; 
1543241704.685; 2952677462; 51.03515510; 13.74000680; 5.74; 279.80; -66; 52.816; 
1543241704.767; 0; 51.03470770; 13.73962880; 0.00; 0.23; 0; 0.000; 
1543241704.785; 2952677462; 51.03515600; 13.73999870; 5.74; 279.80; -62; 52.624; 
1543241704.845; 3405770240; 51.03472600; 13.73943600; 0.00; 198.00; -65; 14.009; 
1543241704.895; 2952677462; 51.03515570; 13.73999050; 5.76; 276.90; -63; 52.531; 
1543241704.963; 0; 51.03470770; 13.73962880; 0.01; 0.23; 0; 0.000; 
1543241704.985; 2952677462; 51.03515630; 13.73998230; 5.78; 276.90; -66; 52.323; 
1543241705.045; 3405770240; 51.03472600; 13.73943600; 0.00; 198.00; -67; 14.009; 
1543241705.085; 2952677462; 51.03515580; 13.73997390; 5.76; 273.90; -69; 52.210; 
1543241705.145; 1717974463; 51.03472600; 13.73943600; 0.00; 198.00; 0; 14.009; 
1543241705.185; 2952677462; 51.03515610; 13.73996560; 5.78; 273.90; -64; 51.990; 
1543241705.203; 0; 51.03470770; 13.73962880; 0.01; 0.23; 0; 0.000; 
1543241705.255; 3405770240; 51.03472600; 13.73943600; 0.00; 198.00; -65; 14.009; 
1543241705.285; 2952677462; 51.03515480; 13.73995750; 5.76; 269.90; -63; 51.857; 
1543241705.362; 0; 51.03470770; 13.73962880; 0.00; 0.23; 0; 0.000; 
1543241705.395; 2952677462; 51.03515480; 13.73994930; 5.76; 269.90; -65; 51.572; 
1543241705.445; 3405770240; 51.03472600; 13.73943600; 0.00; 198.00; -65; 14.009; 
1543241705.484; 2952677462; 51.03515340; 13.73994130; 5.72; 266.30; -63; 51.423; 
1543241705.552; 0; 51.03470770; 13.73962890; 0.00; 0.23; 0; 0.000; 
1543241705.585; 2952677462; 51.03515310; 13.73993310; 5.72; 266.30; -64; 51.137; 
1543241705.655; 3405770240; 51.03472600; 13.73943600; 0.00; 198.00; -66; 14.016; 
1543241705.685; 2952677462; 51.03515120; 13.73992530; 5.68; 262.20; -73; 50.968; 
1543241705.764; 0; 51.03470770; 13.73962880; 0.01; 0.23; 0; 0.000; 
1543241705.785; 2952677462; 51.03515050; 13.73991720; 5.66; 262.20; -68; 50.647; 
1543241705.845; 3405770240; 51.03472600; 13.73943600; 0.00; 198.00; -66; 14.009; 
1543241705.895; 2952677462; 51.03514980; 13.73990920; 5.66; 262.20; -67; 50.448; 
1543241705.964; 0; 51.03470780; 13.73962890; 0.01; 0.23; 0; 0.000; 
1543241705.985; 2952677462; 51.03514700; 13.73990200; 5.62; 257.70; -65; 50.244; 
1543241706.045; 3405770240; 51.03472590; 13.73943610; 0.00; 198.00; -66; 14.013; 
1543241706.095; 2952677462; 51.03514430; 13.73989490; 5.58; 253.50; -67; 49.848; 
1543241706.145; 1717974463; 51.03472590; 13.73943610; 0.00; 198.00; 0; 14.013; 
1543241706.185; 2952677462; 51.03514290; 13.73988730; 5.54; 253.50; -65; 49.467; 
1543241706.191; 0; 51.03470780; 13.73962890; 0.01; 0.23; 0; 0.000; 
1543241706.246; 3405770240; 51.03472590; 13.73943610; 0.00; 198.00; -65; 14.002; 
1543241706.285; 2952677462; 51.03513990; 13.73988040; 5.62; 249.30; -64; 49.220; 
1543241706.361; 0; 51.03470780; 13.73962890; 0.01; 0.23; 0; 0.000; 
1543241706.395; 2952677462; 51.03513810; 13.73987280; 5.62; 249.30; -72; 48.816; 
1543241706.445; 3405770240; 51.03472590; 13.73943610; 0.00; 198.00; -65; 14.002; 
1543241706.485; 2952677462; 51.03513490; 13.73986660; 5.50; 245.50; -63; 48.534; 
1543241706.560; 0; 51.03470790; 13.73962890; 0.00; 0.23; 0; 0.000; 
1543241706.585; 2952677462; 51.03513290; 13.73985940; 5.46; 245.50; -66; 48.112; 
1543241706.655; 3405770240; 51.03472590; 13.73943610; 0.00; 198.00; -65; 13.999; 
1543241706.684; 2952677462; 51.03512950; 13.73985390; 5.34; 241.70; -67; 47.819; 
1543241706.762; 0; 51.03470790; 13.73962880; 0.01; 0.23; 0; 0.000; 
1543241706.785; 2952677462; 51.03512730; 13.73984720; 5.28; 241.70; -65; 47.399; 
1543241706.845; 3405770240; 51.03472590; 13.73943610; 0.00; 198.00; -66; 13.992; 
1543241706.895; 2952677462; 51.03512350; 13.73984150; 5.38; 237.70; -69; 47.097; 
1543241706.953; 0; 51.03470790; 13.73962890; 0.01; 0.23; 0; 0.000; 
1543241706.985; 2952677462; 51.03512100; 13.73983500; 5.36; 237.70; -61; 46.633; 
1543241707.055; 3405770240; 51.03472580; 13.73943610; 0.00; 198.00; -65; 13.999; 
1543241707.085; 2952677462; 51.03511670; 13.73983070; 5.30; 232.20; -64; 46.305; 
1543241707.145; 1717974463; 51.03472580; 13.73943610; 0.00; 198.00; 0; 13.999; 
1543241707.185; 2952677462; 51.03511370; 13.73982470; 5.26; 232.20; -70; 45.804; 
1543241707.197; 0; 51.03470790; 13.73962880; 0.01; 0.23; 0; 0.000; 
1543241707.245; 3405770240; 51.03472580; 13.73943610; 0.00; 198.00; -65; 13.988; 
1543241707.285; 2952677462; 51.03510950; 13.73982030; 5.34; 227.80; -63; 45.431; 
1543241707.362; 0; 51.03470800; 13.73962880; 0.01; 0.23; 0; 0.000; 
1543241707.395; 2952677462; 51.03510630; 13.73981460; 5.34; 227.80; -60; 44.931; 
1543241707.445; 3405770240; 51.03472580; 13.73943610; 0.00; 198.00; -65; 13.984; 
1543241707.485; 2952677462; 51.03510230; 13.73981090; 5.14; 224.10; -62; 44.541; 
1543241707.564; 0; 51.03470800; 13.73962880; 0.01; 0.23; 0; 0.000; 
1543241707.585; 2952677462; 51.03509900; 13.73980590; 5.06; 224.10; -60; 44.080; 
1543241707.655; 3405770240; 51.03472580; 13.73943610; 0.00; 198.00; -65; 13.984; 
1543241707.684; 2952677462; 51.03509460; 13.73980300; 5.06; 219.40; -59; 43.687; 
1543241707.763; 0; 51.03470800; 13.73962880; 0.01; 0.23; 0; 0.000; 
1543241707.785; 2952677462; 51.03509110; 13.73979840; 5.00; 219.40; -62; 43.189; 
1543241707.845; 3405770240; 51.03472580; 13.73943610; 0.00; 198.00; -66; 13.984; 
1543241707.895; 2952677462; 51.03508770; 13.73979390; 4.94; 219.40; -63; 42.778; 
1543241707.964; 0; 51.03470800; 13.73962870; 0.01; 0.23; 0; 0.000; 
1543241707.985; 2952677462; 51.03508300; 13.73979160; 5.04; 214.70; -66; 42.381; 
1543241708.045; 3405770240; 51.03472570; 13.73943620; 0.00; 198.00; -66; 13.977; 
1543241708.085; 2952677462; 51.03507850; 13.73978920; 5.14; 211.10; -68; 41.855; 
1543241708.145; 1717974463; 51.03472570; 13.73943620; 0.00; 198.00; 0; 13.977; 
1543241708.185; 2952677462; 51.03507450; 13.73978540; 5.14; 211.10; -66; 41.350; 
1543241708.195; 0; 51.03470800; 13.73962870; 0.00; 0.23; 0; 0.000; 
1543241708.255; 3405770240; 51.03472570; 13.73943620; 0.00; 198.00; -66; 13.967; 
1543241708.285; 2952677462; 51.03507030; 13.73978380; 4.94; 207.80; -63; 40.891; 
1543241708.358; 0; 51.03470810; 13.73962860; 0.01; 0.23; 0; 0.000; 
1543241708.395; 2952677462; 51.03506630; 13.73978050; 4.90; 207.80; -61; 40.413; 
1543241708.455; 3405770240; 51.03472570; 13.73943620; 0.00; 198.00; -66; 13.956; 
1543241708.484; 2952677462; 51.03506110; 13.73977870; 5.28; 204.60; -62; 39.958; 
1543241708.565; 0; 51.03470810; 13.73962860; 0.01; 0.23; 0; 0.000; 
1543241708.585; 2952677462; 51.03505680; 13.73977550; 5.34; 204.60; -63; 39.380; 
1543241708.655; 3405770240; 51.03472570; 13.73943620; 0.00; 198.00; -65; 13.956; 
1543241708.685; 2952677462; 51.03505270; 13.73977480; 4.98; 201.30; -65; 38.893; 
1543241708.767; 0; 51.03470810; 13.73962850; 0.00; 0.23; 0; 0.000; 
1543241708.785; 2952677462; 51.03504860; 13.73977230; 4.92; 201.30; -65; 38.442; 
1543241708.845; 3405770240; 51.03472570; 13.73943620; 0.00; 198.00; -65; 13.949; 
1543241708.895; 2952677462; 51.03504360; 13.73977040; 5.16; 199.70; -65; 37.980; 
1543241708.962; 0; 51.03470810; 13.73962850; 0.01; 0.23; 0; 0.000; 
1543241708.985; 2952677462; 51.03503930; 13.73976790; 5.18; 199.70; -67; 37.424; 
1543241709.045; 3405770240; 51.03472570; 13.73943630; 0.00; 198.00; -64; 13.949; 
1543241709.085; 2952677462; 51.03503450; 13.73976570; 5.24; 198.80; -62; 36.940; 
1543241709.145; 1717974463; 51.03472570; 13.73943630; 0.00; 198.00; 0; 13.949; 
1543241709.185; 2952677462; 51.03503000; 13.73976320; 5.28; 198.80; -60; 36.404; 
1543241709.206; 0; 51.03470810; 13.73962850; 0.01; 0.23; 0; 0.000; 
1543241709.245; 3405770240; 51.03472570; 13.73943630; 0.00; 198.00; -65; 13.942; 
1543241709.285; 2952677462; 51.03502580; 13.73976190; 5.08; 197.50; -62; 35.899; 
1543241709.363; 0; 51.03470820; 13.73962840; 0.01; 0.23; 0; 0.000; 
1543241709.395; 2952677462; 51.03502140; 13.73975970; 5.06; 197.50; -69; 35.422; 
1543241709.445; 3405770240; 51.03472570; 13.73943630; 0.00; 198.00; -66; 13.932; 
1543241709.485; 2952677462; 51.03501690; 13.73975800; 5.10; 196.60; -65; 34.930; 
1543241709.565; 0; 51.03470820; 13.73962840; 0.01; 0.23; 0; 0.000; 
1543241709.585; 2952677462; 51.03501250; 13.73975600; 5.10; 196.60; -64; 34.429; 
1543241709.655; 3405770240; 51.03472570; 13.73943630; 0.00; 198.00; -66; 13.932; 
1543241709.685; 2952677462; 51.03500780; 13.73975410; 5.12; 196.00; -70; 33.937; 
1543241709.757; 0; 51.03470820; 13.73962840; 0.01; 0.23; 0; 0.000; 
1543241709.795; 2952677462; 51.03500340; 13.73975210; 5.14; 196.00; -62; 33.414; 
1543241709.845; 3405770240; 51.03472570; 13.73943630; 0.00; 198.00; -66; 13.932; 
1543241709.895; 2952677462; 51.03499890; 13.73975010; 5.14; 196.00; -60; 32.922; 
1543241709.967; 0; 51.03470830; 13.73962830; 0.00; 0.23; 0; 0.000; 
1543241709.985; 2952677462; 51.03499390; 13.73974740; 5.36; 196.50; -63; 32.409; 
1543241710.055; 3405770240; 51.03472570; 13.73943640; 0.00; 198.00; -65; 13.921; 
1543241710.085; 2952677462; 51.03498930; 13.73974520; 5.32; 196.70; -59; 31.848; 
1543241710.145; 1717974463; 51.03472570; 13.73943640; 0.00; 198.00; 0; 13.921; 
1543241710.185; 2952677462; 51.03498470; 13.73974300; 5.34; 196.70; -66; 31.334; 
1543241710.208; 0; 51.03470830; 13.73962830; 0.00; 0.23; 0; 0.000; 
1543241710.245; 3405770240; 51.03472570; 13.73943640; 0.00; 198.00; -66; 13.914; 
1543241710.285; 2952677462; 51.03497980; 13.73974010; 5.44; 197.50; -58; 30.819; 
1543241710.366; 0; 51.03470830; 13.73962830; 0.01; 0.23; 0; 0.000; 
1543241710.406; 2952677462; 51.03497520; 13.73973780; 5.48; 197.50; -60; 30.269; 
1543241710.445; 3405770240; 51.03472570; 13.73943640; 0.00; 198.00; -66; 13.914; 
1543241710.485; 2952677462; 51.03497080; 13.73973550; 5.32; 197.70; -59; 29.754; 
1543241710.565; 0; 51.03470840; 13.73962820; 0.01; 0.23; 0; 0.000; 
1543241710.585; 2952677462; 51.03496620; 13.73973320; 5.32; 197.70; -61; 29.250; 
1543241710.655; 3405770240; 51.03472570; 13.73943640; 0.00; 198.00; -65; 13.904; 
1543241710.685; 2952677462; 51.03496160; 13.73973100; 5.32; 197.70; -65; 28.736; 
1543241710.780; 0; 51.03470840; 13.73962820; 0.01; 0.23; 0; 0.000; 
1543241710.795; 2952677462; 51.03495700; 13.73972860; 5.32; 197.70; -60; 28.221; 
1543241710.845; 3405770240; 51.03472570; 13.73943640; 0.00; 198.00; -66; 13.904; 
1543241710.895; 2952677462; 51.03495250; 13.73972610; 5.34; 198.10; -63; 27.706; 
1543241710.965; 0; 51.03470840; 13.73962810; 0.01; 0.23; 0; 0.000; 
1543241710.985; 2952677462; 51.03494790; 13.73972370; 5.34; 198.10; -65; 27.202; 
1543241711.045; 3405770240; 51.03472570; 13.73943660; 0.00; 198.00; -66; 13.897; 
1543241711.085; 2952677462; 51.03494360; 13.73972190; 5.16; 197.70; -64; 26.687; 
1543241711.145; 1717974463; 51.03472570; 13.73943660; 0.00; 198.00; 0; 13.897; 
1543241711.185; 2952677462; 51.03493920; 13.73971970; 5.10; 197.70; -58; 26.207; 
1543241711.203; 0; 51.03470850; 13.73962810; 0.00; 0.23; 0; 0.000; 
1543241711.245; 3405770240; 51.03472570; 13.73943660; 0.00; 198.00; -66; 13.880; 
1543241711.285; 2952677462; 51.03493450; 13.73971670; 5.32; 198.60; -59; 25.704; 
1543241711.367; 0; 51.03470850; 13.73962810; 0.01; 0.23; 0; 0.000; 
1543241711.406; 2952677462; 51.03493000; 13.73971420; 5.34; 198.60; -61; 25.175; 
1543241711.445; 3405770240; 51.03472570; 13.73943660; 0.00; 198.00; -67; 13.880; 
1543241711.496; 2952677462; 51.03492540; 13.73971230; 5.20; 198.00; -57; 24.671; 
1543241711.565; 0; 51.03470850; 13.73962810; 0.00; 0.23; 0; 0.000; 
1543241711.585; 2952677462; 51.03492100; 13.73971000; 5.16; 198.00; -59; 24.158; 
1543241711.655; 3405770240; 51.03472570; 13.73943660; 0.00; 198.00; -66; 13.880; 
1543241711.684; 2952677462; 51.03491640; 13.73970770; 5.20; 197.70; -58; 23.666; 
1543241711.766; 0; 51.03470850; 13.73962810; 0.00; 0.23; 0; 0.000; 
1543241711.785; 2952677462; 51.03491200; 13.73970550; 5.20; 197.70; -60; 23.152; 
1543241711.845; 3405770240; 51.03472570; 13.73943660; 0.00; 198.00; -66; 13.880; 
1543241711.895; 2952677462; 51.03490750; 13.73970320; 5.18; 197.70; -57; 22.660; 
1543241711.967; 0; 51.03470850; 13.73962810; 0.01; 0.23; 0; 0.000; 
1543241711.985; 2952677462; 51.03490290; 13.73970180; 5.22; 196.60; -63; 22.156; 
1543241712.055; 1717974464; 51.03472580; 13.73943670; 0.00; 198.00; 0; -1.000; 
1543241712.085; 2952677462; 51.03489840; 13.73969990; 5.14; 196.10; -57; 21.645; 
1543241712.185; 2952677462; 51.03489400; 13.73969790; 5.12; 196.10; -57; 21.144; 
1543241712.213; 0; 51.03470860; 13.73962810; 0.01; 0.23; 0; 0.000; 
1543241712.245; 3405770240; 51.03472580; 13.73943670; 0.00; 198.00; -65; 13.876; 
1543241712.285; 2952677462; 51.03488940; 13.73969590; 5.18; 196.00; -55; 20.642; 
1543241712.365; 0; 51.03470860; 13.73962810; 0.01; 0.23; 0; 0.000; 
1543241712.395; 2952677462; 51.03488490; 13.73969390; 5.18; 196.00; -60; 20.129; 
1543241712.445; 3405770240; 51.03472580; 13.73943670; 0.00; 198.00; -66; 13.873; 
1543241712.485; 2952677462; 51.03488000; 13.73969190; 5.28; 195.70; -58; 19.626; 
1543241712.553; 0; 51.03470860; 13.73962800; 0.00; 0.23; 0; 0.000; 
1543241712.585; 2952677462; 51.03487540; 13.73968990; 5.32; 195.70; -60; 19.081; 
1543241712.655; 3405770240; 51.03472580; 13.73943670; 0.00; 198.00; -67; 13.866; 
1543241712.685; 2952677462; 51.03487130; 13.73968840; 5.06; 195.40; -55; 18.568; 
1543241712.765; 0; 51.03470870; 13.73962800; 0.01; 0.23; 0; 0.000; 
1543241712.785; 2952677462; 51.03486700; 13.73968650; 5.02; 195.40; -53; 18.100; 
1543241712.845; 3405770240; 51.03472580; 13.73943670; 0.00; 198.00; -67; 13.862; 
1543241712.895; 2952677462; 51.03486160; 13.73968390; 5.32; 195.30; -57; 17.621; 
1543241712.963; 0; 51.03470870; 13.73962800; 0.00; 0.23; 0; 0.000; 
1543241712.985; 2952677462; 51.03485700; 13.73968190; 5.36; 195.30; -58; 17.018; 
1543241713.055; 3405770240; 51.03472580; 13.73943680; 0.00; 198.00; -67; 13.862; 
1543241713.085; 2952677462; 51.03485250; 13.73968100; 5.20; 193.40; -56; 16.505; 
1543241713.145; 1717974464; 51.03472580; 13.73943680; 0.00; 198.00; 0; 13.862; 
1543241713.185; 2952677462; 51.03484790; 13.73967920; 5.18; 193.40; -58; 16.006; 
1543241713.195; 0; 51.03470870; 13.73962800; 0.01; 0.23; 0; 0.000; 
1543241713.245; 3405770240; 51.03472580; 13.73943680; 0.00; 198.00; -66; 13.855; 
1543241713.285; 2952677462; 51.03484310; 13.73967860; 5.18; 191.40; -63; 15.494; 
1543241713.374; 0; 51.03470870; 13.73962800; 0.01; 0.23; 0; 0.000; 
1543241713.406; 2952677462; 51.03483850; 13.73967710; 5.16; 191.40; -59; 14.963; 
1543241713.445; 3405770240; 51.03472580; 13.73943680; 0.00; 198.00; -66; 13.855; 
1543241713.495; 2952677462; 51.03483390; 13.73967770; 5.10; 188.40; -58; 14.452; 
1543241713.562; 0; 51.03470880; 13.73962800; 0.01; 0.23; 0; 0.000; 
1543241713.585; 2952677462; 51.03482940; 13.73967670; 5.08; 188.40; -59; 13.938; 
1543241713.655; 3405770240; 51.03472580; 13.73943680; 0.00; 198.00; -66; 13.852; 
1543241713.684; 2952677462; 51.03482510; 13.73967730; 4.98; 185.90; -57; 13.441; 
1543241713.762; 0; 51.03470880; 13.73962800; 0.01; 0.23; 0; 0.000; 
1543241713.785; 2952677462; 51.03482060; 13.73967650; 4.94; 185.90; -57; 12.973; 
1543241713.845; 3405770240; 51.03472580; 13.73943680; 0.00; 198.00; -66; 13.852; 
1543241713.895; 2952677462; 51.03481620; 13.73967580; 4.88; 185.90; -64; 12.478; 
1543241713.957; 0; 51.03470880; 13.73962800; 0.00; 0.23; 0; 0.000; 
1543241713.985; 2952677462; 51.03481060; 13.73967650; 5.38; 183.30; -60; 11.994; 
1543241714.045; 3405770240; 51.03472590; 13.73943690; 0.00; 198.00; -65; 13.852; 
1543241714.085; 2952677462; 51.03480660; 13.73967720; 4.90; 180.70; -55; 11.392; 
1543241714.145; 1717974464; 51.03472590; 13.73943690; 0.00; 198.00; 0; 13.852; 
1543241714.192; 0; 51.03470890; 13.73962810; 0.00; 0.23; 0; 0.000; 
1543241714.195; 2952677462; 51.03480220; 13.73967710; 4.80; 180.70; -56; 10.955; 
1543241714.255; 3405770240; 51.03472590; 13.73943690; 0.00; 198.00; -66; 13.852; 
1543241714.285; 2952677462; 51.03479720; 13.73967750; 5.00; 179.00; -56; 10.481; 
1543241714.367; 0; 51.03470890; 13.73962810; 0.00; 0.23; 0; 0.000; 
1543241714.406; 2952677462; 51.03479270; 13.73967770; 5.00; 179.00; -56; 9.952; 
1543241714.445; 3405770240; 51.03472590; 13.73943690; 0.00; 198.00; -66; 13.852; 
1543241714.496; 2952677462; 51.03478850; 13.73967920; 4.92; 176.30; -54; 9.478; 
1543241714.563; 0; 51.03470890; 13.73962810; 0.01; 0.23; 0; 0.000; 
1543241714.595; 2952677462; 51.03478410; 13.73967970; 4.88; 176.30; -52; 9.058; 
1543241714.655; 3405770240; 51.03472590; 13.73943690; 0.00; 198.00; -66; 13.852; 
1543241714.684; 2952677462; 51.03478010; 13.73968090; 4.70; 174.50; -47; 8.609; 
1543241714.763; 0; 51.03470900; 13.73962810; 0.01; 0.23; 0; 0.000; 
1543241714.795; 2952677462; 51.03477590; 13.73968150; 4.62; 174.50; -50; 8.211; 
1543241714.845; 3405770240; 51.03472590; 13.73943690; 0.00; 198.00; -66; 13.848; 
1543241714.895; 2952677462; 51.03477160; 13.73968320; 4.74; 172.90; -58; 7.800; 
1543241714.961; 0; 51.03470900; 13.73962810; 0.01; 0.23; 0; 0.000; 
1543241714.985; 2952677462; 51.03476740; 13.73968410; 4.72; 172.90; -52; 7.415; 
1543241715.045; 3405770240; 51.03472600; 13.73943710; 0.00; 198.00; -67; 13.848; 
1543241715.085; 2952677462; 51.03476390; 13.73968520; 4.40; 171.90; -51; 7.035; 
1543241715.145; 1717974464; 51.03472600; 13.73943710; 0.00; 198.00; 0; 13.848; 
1543241715.185; 2952677462; 51.03476000; 13.73968600; 4.30; 171.90; -50; 6.739; 
1543241715.190; 0; 51.03470900; 13.73962810; 0.01; 0.23; 0; 0.000; 
1543241715.245; 3405770240; 51.03472600; 13.73943710; 0.00; 198.00; -66; 13.838; 
1543241715.285; 2952677462; 51.03475620; 13.73968730; 4.34; 171.10; -51; 6.412; 
1543241715.364; 0; 51.03470900; 13.73962810; 0.01; 0.23; 0; 0.000; 
1543241715.395; 2952677462; 51.03475230; 13.73968820; 4.28; 171.10; -52; 6.127; 
1543241715.445; 3405770240; 51.03472600; 13.73943710; 0.00; 198.00; -66; 13.838; 
1543241715.485; 2952677462; 51.03474840; 13.73968880; 4.30; 172.00; -53; 5.840; 
1543241715.565; 0; 51.03470900; 13.73962820; 0.01; 0.23; 0; 0.000; 
1543241715.585; 2952677462; 51.03474460; 13.73968960; 4.26; 172.00; -51; 5.558; 
1543241715.655; 3405770240; 51.03472600; 13.73943710; 0.00; 198.00; -69; 13.845; 
1543241715.685; 2952677462; 51.03474160; 13.73968910; 3.88; 174.30; -52; 5.321; 
1543241715.764; 0; 51.03470910; 13.73962820; 0.01; 0.23; 0; 0.000; 
1543241715.785; 2952677462; 51.03473820; 13.73968960; 3.74; 174.30; -53; 5.090; 
1543241715.845; 3405770240; 51.03472600; 13.73943710; 0.00; 198.00; -68; 13.841; 
1543241715.895; 2952677462; 51.03473490; 13.73969020; 3.60; 174.30; -59; 4.908; 
1543241715.965; 0; 51.03470910; 13.73962820; 0.01; 0.23; 0; 0.000; 
1543241715.985; 2952677462; 51.03473110; 13.73968890; 3.74; 177.20; -48; 4.762; 
1543241716.055; 3405770240; 51.03472610; 13.73943710; 0.00; 198.00; -68; 13.841; 
1543241716.085; 2952677462; 51.03472830; 13.73968740; 3.50; 180.70; -47; 4.510; 
1543241716.145; 1717974464; 51.03472610; 13.73943710; 0.00; 198.00; 0; 13.841; 
1543241716.185; 2952677462; 51.03472520; 13.73968730; 3.38; 180.70; -50; 4.308; 
1543241716.194; 0; 51.03470910; 13.73962820; 0.01; 0.23; 0; 0.000; 
1543241716.245; 3405770240; 51.03472610; 13.73943710; 0.00; 198.00; -67; 13.845; 
1543241716.285; 2952677462; 51.03472190; 13.73968540; 3.48; 185.20; -52; 4.199; 
1543241716.362; 0; 51.03470910; 13.73962820; 0.01; 0.23; 0; 0.000; 
1543241716.395; 2952677462; 51.03471880; 13.73968490; 3.42; 185.20; -50; 3.996; 
1543241716.445; 3405770240; 51.03472610; 13.73943710; 0.00; 198.00; -66; 13.845; 
1543241716.485; 2952677462; 51.03471650; 13.73968330; 3.18; 189.00; -47; 3.915; 
1543241716.558; 0; 51.03470910; 13.73962820; 0.05; 0.23; 0; 0.000; 
1543241716.585; 2952677462; 51.03471370; 13.73968260; 3.06; 189.00; -48; 3.790; 
1543241716.655; 3405770240; 51.03472610; 13.73943710; 0.00; 198.00; -69; 13.845; 
1543241716.684; 2952677462; 51.03471110; 13.73968190; 2.94; 189.00; -48; 3.744; 
1543241716.762; 0; 51.03470910; 13.73962820; 0.04; 0.23; 0; 0.000; 
1543241716.785; 2952677462; 51.03470850; 13.73967980; 2.94; 191.80; -53; 3.720; 
1543241716.845; 3405770240; 51.03472610; 13.73943710; 0.00; 198.00; -66; 13.845; 
1543241716.895; 2952677462; 51.03470660; 13.73967860; 2.70; 193.80; -48; 3.621; 
1543241716.962; 0; 51.03470910; 13.73962820; 0.04; 0.23; 0; 0.000; 
1543241716.985; 2952677462; 51.03470430; 13.73967770; 2.56; 193.80; -43; 3.587; 
1543241717.045; 3405770240; 51.03472620; 13.73943720; 0.00; 198.00; -61; 13.845; 
1543241717.085; 2952677462; 51.03470210; 13.73967590; 2.68; 195.70; -47; 3.601; 
1543241717.145; 1717974464; 51.03472620; 13.73943720; 0.00; 198.00; 0; 13.845; 
1543241717.195; 2952677462; 51.03469980; 13.73967490; 2.60; 195.70; -42; 3.567; 
1543241717.199; 0; 51.03470900; 13.73962830; 0.08; 0.23; 0; 0.000; 
1543241717.245; 3405770240; 51.03472620; 13.73943720; 0.00; 198.00; -67; 13.852; 
1543241717.285; 2952677462; 51.03469820; 13.73967410; 2.28; 196.30; -41; 3.598; 
1543241717.362; 0; 51.03470900; 13.73962820; 0.06; 0.23; 0; 0.000; 
1543241717.395; 2952677462; 51.03469630; 13.73967320; 2.12; 196.30; -44; 3.637; 
1543241717.445; 3405770240; 51.03472620; 13.73943720; 0.00; 198.00; -69; 13.845; 
1543241717.484; 2952677462; 51.03469440; 13.73967150; 2.26; 197.90; -44; 3.691; 
1543241717.559; 0; 51.03470900; 13.73962810; 0.05; 0.23; 0; 0.000; 
1543241717.585; 2952677462; 51.03469250; 13.73967050; 2.18; 197.90; -46; 3.711; 
1543241717.655; 3405770240; 51.03472620; 13.73943720; 0.00; 198.00; -64; 13.838; 
1543241717.684; 2952677462; 51.03469090; 13.73966940; 2.00; 198.10; -40; 3.782; 
1543241717.763; 0; 51.03470900; 13.73962820; 0.04; 0.23; 0; 0.000; 
1543241717.785; 2952677462; 51.03468920; 13.73966860; 1.88; 198.10; -45; 3.828; 
1543241717.845; 3405770240; 51.03472620; 13.73943720; 0.00; 198.00; -69; 13.845; 
1543241717.895; 2952677462; 51.03468760; 13.73966780; 1.76; 198.10; -45; 3.914; 
1543241717.957; 0; 51.03470900; 13.73962830; 0.01; 0.23; 0; 0.000; 
1543241717.985; 2952677462; 51.03468600; 13.73966650; 1.82; 198.70; -44; 3.992; 
1543241718.045; 3405770240; 51.03472620; 13.73943740; 0.00; 198.00; -67; 13.852; 
1543241718.085; 2952677462; 51.03468480; 13.73966600; 1.56; 197.50; -41; 4.056; 
1543241718.145; 1717974464; 51.03472620; 13.73943740; 0.00; 198.00; 0; 13.852; 
1543241718.185; 2952677462; 51.03468350; 13.73966530; 1.40; 197.50; -42; 4.134; 
1543241718.192; 0; 51.03470890; 13.73962830; 0.03; 0.23; 0; 0.000; 
1543241718.246; 3405770240; 51.03472620; 13.73943740; 0.00; 198.00; -67; 13.842; 
1543241718.285; 2952677462; 51.03468300; 13.73966460; 1.14; 196.50; -48; 4.204; 
1543241718.363; 0; 51.03470890; 13.73962840; 0.04; 0.23; 0; 0.000; 
1543241718.395; 2952677462; 51.03468210; 13.73966420; 0.94; 196.50; -51; 4.208; 
1543241718.445; 3405770240; 51.03472620; 13.73943740; 0.00; 198.00; -66; 13.849; 
1543241718.485; 2952677462; 51.03468120; 13.73966360; 1.04; 195.90; -47; 4.271; 
1543241718.567; 0; 51.03470890; 13.73962840; 0.01; 0.23; 0; 0.000; 
1543241718.585; 2952677462; 51.03468040; 13.73966320; 0.90; 195.90; -51; 4.325; 
1543241718.655; 3405770240; 51.03472620; 13.73943740; 0.00; 198.00; -66; 13.849; 
1543241718.685; 2952677462; 51.03467970; 13.73966270; 0.84; 195.90; -44; 4.381; 
1543241718.764; 0; 51.03470880; 13.73962830; 0.02; 0.23; 0; 0.000; 
1543241718.785; 2952677462; 51.03467900; 13.73966240; 0.72; 195.90; -50; 4.418; 
1543241718.845; 3405770240; 51.03472620; 13.73943740; 0.00; 198.00; -66; 13.845; 
1543241718.895; 2952677462; 51.03467890; 13.73966230; 0.50; 196.00; -50; 4.471; 
1543241718.963; 0; 51.03470880; 13.73962840; 0.03; 0.23; 0; 0.000; 
1543241718.985; 2952677462; 51.03467860; 13.73966210; 0.34; 196.00; -44; 4.472; 
1543241719.055; 3405770240; 51.03472610; 13.73943750; 0.00; 198.00; -66; 13.852; 
1543241719.085; 2952677462; 51.03467820; 13.73966200; 0.46; 194.90; -44; 4.491; 
1543241719.145; 1717974464; 51.03472610; 13.73943750; 0.00; 198.00; 0; 13.852; 
1543241719.185; 2952677462; 51.03467790; 13.73966180; 0.38; 194.90; -51; 4.526; 
1543241719.197; 0; 51.03470880; 13.73962830; 0.02; 0.23; 0; 0.000; 
1543241719.245; 3405770240; 51.03472610; 13.73943750; 0.00; 198.00; -66; 13.835; 
1543241719.285; 2952677462; 51.03467730; 13.73966200; 0.42; 194.90; -51; 4.550; 
1543241719.354; 0; 51.03470880; 13.73962830; 0.01; 0.23; 0; 0.000; 
1543241719.395; 2952677462; 51.03467700; 13.73966190; 0.36; 194.90; -46; 4.618; 
1543241719.445; 3405770240; 51.03472610; 13.73943750; 0.00; 198.00; -66; 13.835; 
1543241719.485; 2952677462; 51.03467710; 13.73966200; 0.22; 194.90; -46; 4.643; 
1543241719.565; 0; 51.03470870; 13.73962830; 0.01; 0.23; 0; 0.000; 
1543241719.585; 2952677462; 51.03467690; 13.73966190; 0.14; 194.90; -46; 4.628; 
1543241719.655; 1717974464; 51.03472610; 13.73943750; 0.00; 198.00; 0; 13.838; 
1543241719.665; 3405770240; 51.03472610; 13.73943750; 0.00; 198.00; -66; 13.838; 
1543241719.685; 2952677462; 51.03467670; 13.73966200; 0.18; 194.90; -47; 4.643; 
1543241719.762; 0; 51.03470870; 13.73962830; 0.00; 0.23; 0; 0.000; 
1543241719.785; 2952677462; 51.03467650; 13.73966200; 0.12; 194.90; -48; 4.667; 
1543241719.845; 3405770240; 51.03472610; 13.73943750; 0.00; 198.00; -66; 13.838; 
1543241719.895; 2952677462; 51.03467640; 13.73966190; 0.08; 194.90; -48; 4.687; 
1543241719.962; 0; 51.03470870; 13.73962830; 0.01; 0.23; 0; 0.000; 
1543241719.985; 2952677462; 51.03467630; 13.73966200; 0.12; 194.90; -48; 4.692; 
1543241720.045; 3405770240; 51.03472620; 13.73943760; 0.00; 198.00; -66; 13.838; 
1543241720.085; 2952677462; 51.03467610; 13.73966210; 0.14; 194.90; -48; 4.706; 
1543241720.145; 1717974464; 51.03472620; 13.73943760; 0.00; 198.00; 0; 13.838; 
1543241720.185; 2952677462; 51.03467600; 13.73966200; 0.12; 194.90; -48; 4.731; 
1543241720.192; 0; 51.03470870; 13.73962840; 0.01; 0.23; 0; 0.000; 
1543241720.255; 3405770240; 51.03472620; 13.73943760; 0.00; 198.00; -66; 13.842; 
1543241720.285; 2952677462; 51.03467640; 13.73966220; 0.00; 194.90; -48; 4.731; 
1543241720.362; 0; 51.03470870; 13.73962840; 0.01; 0.23; 0; 0.000; 
1543241720.395; 2952677462; 51.03467660; 13.73966230; 0.00; 194.90; -48; 4.701; 
1543241720.445; 3405770240; 51.03472620; 13.73943760; 0.00; 198.00; -67; 13.842; 
1543241720.485; 2952677462; 51.03467630; 13.73966210; 0.04; 194.90; -47; 4.686; 
1543241720.560; 0; 51.03470870; 13.73962840; 0.01; 0.23; 0; 0.000; 
1543241720.585; 2952677462; 51.03467620; 13.73966210; 0.04; 194.90; -48; 4.706; 
1543241720.655; 3405770240; 51.03472620; 13.73943760; 0.00; 198.00; -67; 13.842; 
1543241720.694; 2952677462; 51.03467610; 13.73966220; 0.00; 194.90; -48; 4.716; 
1543241720.753; 0; 51.03470870; 13.73962840; 0.01; 0.23; 0; 0.000; 
1543241720.785; 2952677462; 51.03467610; 13.73966220; 0.00; 194.90; -47; 4.731; 
1543241720.845; 3405770240; 51.03472620; 13.73943760; 0.00; 198.00; -67; 13.842; 
1543241720.895; 2952677462; 51.03467600; 13.73966200; 0.00; 194.90; -48; 4.731; 
1543241720.962; 0; 51.03470870; 13.73962840; 0.01; 0.23; 0; 0.000; 
1543241720.985; 2952677462; 51.03467600; 13.73966200; 0.00; 194.90; -48; 4.731; 
1543241721.045; 3405770240; 51.03472620; 13.73943780; 0.00; 198.00; -67; 13.842; 
1543241721.085; 2952677462; 51.03467580; 13.73966200; 0.00; 194.90; -47; 4.731; 
1543241721.145; 1717974464; 51.03472620; 13.73943780; 0.00; 198.00; 0; 13.842; 
1543241721.185; 2952677462; 51.03467580; 13.73966200; 0.00; 194.90; -48; 4.751; 
1543241721.197; 0; 51.03470870; 13.73962840; 0.01; 0.23; 0; 0.000; 
1543241721.245; 3405770240; 51.03472620; 13.73943780; 0.00; 198.00; -67; 13.828; 
1543241721.285; 2952677462; 51.03467580; 13.73966180; 0.02; 194.90; -47; 4.751; 
1543241721.364; 0; 51.03470870; 13.73962840; 0.00; 0.23; 0; 0.000; 
1543241721.406; 2952677462; 51.03467580; 13.73966180; 0.04; 194.90; -48; 4.742; 
1543241721.445; 3405770240; 51.03472620; 13.73943780; 0.00; 198.00; -66; 13.828; 
1543241721.485; 2952677462; 51.03467580; 13.73966170; 0.00; 194.90; -48; 4.742; 
1543241721.563; 0; 51.03470870; 13.73962840; 0.01; 0.23; 0; 0.000; 
1543241721.585; 2952677462; 51.03467580; 13.73966170; 0.00; 194.90; -48; 4.738; 
1543241721.655; 3405770240; 51.03472620; 13.73943780; 0.00; 198.00; -66; 13.828; 
1543241721.685; 2952677462; 51.03467570; 13.73966130; 0.00; 194.90; -48; 4.738; 
1543241721.762; 0; 51.03470870; 13.73962840; 0.01; 0.23; 0; 0.000; 
1543241721.784; 2952677462; 51.03467560; 13.73966130; 0.00; 194.90; -48; 4.730; 
