timestamp; stationID; lat; lon; speed; heading; rxPower; distanceToEgo
1537781608.875; 2952680210; 51.03471430; 13.73966820; 0.00; 286.50; -32; -1.000; 
1537781608.986; 0; 51.03469670; 13.73961490; 0.01; 111.90; 0; 0.000; 
1537781609.075; 2952680210; 51.03471430; 13.73966820; 0.00; 286.50; -32; 10.531; 
1537781609.188; 0; 51.03469670; 13.73961490; 0.01; 111.90; 0; 0.000; 
1537781609.275; 2952680210; 51.03471430; 13.73966820; 0.00; 286.50; -32; 10.531; 
1537781609.420; 0; 51.03469660; 13.73961470; 0.02; 111.90; 0; 0.000; 
1537781609.476; 2952680210; 51.03471450; 13.73966730; 0.00; 286.50; -32; 10.573; 
1537781609.583; 0; 51.03469660; 13.73961460; 0.01; 111.90; 0; 0.000; 
1537781609.675; 2952680210; 51.03471450; 13.73966730; 0.00; 286.50; -32; 10.448; 
1537781609.783; 0; 51.03469660; 13.73961460; 0.01; 111.90; 0; 0.000; 
1537781609.875; 2952680210; 51.03471450; 13.73966730; 0.00; 286.50; -32; 10.448; 
1537781609.988; 0; 51.03469660; 13.73961440; 0.01; 111.90; 0; 0.000; 
1537781610.075; 2952680210; 51.03471450; 13.73966730; 0.00; 286.50; -32; 10.483; 
1537781610.186; 0; 51.03469650; 13.73961430; 0.01; 111.90; 0; 0.000; 
1537781610.276; 2952680210; 51.03471450; 13.73966730; 0.00; 286.50; -32; 10.508; 
1537781610.417; 0; 51.03469650; 13.73961420; 0.02; 111.90; 0; 0.000; 
1537781610.475; 2952680210; 51.03471430; 13.73966670; 0.00; 286.50; -33; 10.525; 
1537781610.594; 0; 51.03469650; 13.73961410; 0.01; 111.90; 0; 0.000; 
1537781610.676; 2952680210; 51.03471430; 13.73966670; 0.00; 286.50; -32; 10.424; 
1537781610.774; 0; 51.03469650; 13.73961400; 0.01; 111.90; 0; 0.000; 
1537781610.876; 2952680210; 51.03471430; 13.73966670; 0.00; 286.50; -32; 10.441; 
1537781610.977; 0; 51.03469650; 13.73961390; 0.02; 111.90; 0; 0.000; 
1537781611.076; 2952680210; 51.03471430; 13.73966670; 0.00; 286.50; -32; 10.458; 
1537781611.164; 0; 51.03469650; 13.73961390; 0.01; 111.90; 0; 0.000; 
1537781611.275; 2952680210; 51.03471430; 13.73966670; 0.00; 286.50; -32; 10.458; 
1537781611.409; 0; 51.03469640; 13.73961380; 0.01; 111.90; 0; 0.000; 
1537781611.515; 2952680210; 51.03471420; 13.73966580; 0.00; 286.50; -32; 10.483; 
1537781611.586; 0; 51.03469640; 13.73961370; 0.01; 111.90; 0; 0.000; 
1537781611.675; 2952680210; 51.03471420; 13.73966580; 0.00; 286.50; -32; 10.337; 
1537781611.788; 0; 51.03469640; 13.73961360; 0.00; 111.90; 0; 0.000; 
1537781611.876; 2952680210; 51.03471420; 13.73966580; 0.00; 286.50; -32; 10.354; 
1537781611.978; 0; 51.03469640; 13.73961360; 0.01; 111.90; 0; 0.000; 
1537781612.076; 2952680210; 51.03471420; 13.73966580; 0.00; 286.50; -32; 10.354; 
1537781612.175; 0; 51.03469640; 13.73961350; 0.01; 111.90; 0; 0.000; 
1537781612.276; 2952680210; 51.03471420; 13.73966580; 0.00; 286.50; -32; 10.372; 
1537781612.409; 0; 51.03469630; 13.73961340; 0.01; 111.90; 0; 0.000; 
1537781612.475; 2952680210; 51.03471420; 13.73966550; 0.00; 286.50; -34; 10.396; 
1537781612.564; 0; 51.03469630; 13.73961330; 0.01; 111.90; 0; 0.000; 
1537781612.676; 2952680210; 51.03471420; 13.73966550; 0.00; 286.50; -32; 10.362; 
1537781612.779; 0; 51.03469630; 13.73961330; 0.01; 111.90; 0; 0.000; 
1537781612.875; 2952680210; 51.03471420; 13.73966550; 0.00; 286.50; -32; 10.362; 
1537781612.976; 0; 51.03469630; 13.73961320; 0.01; 111.90; 0; 0.000; 
1537781613.075; 2952680210; 51.03471420; 13.73966550; 0.00; 286.50; -32; 10.379; 
1537781613.175; 0; 51.03469630; 13.73961320; 0.01; 111.90; 0; 0.000; 
1537781613.275; 2952680210; 51.03471420; 13.73966550; 0.00; 286.50; -31; 10.379; 
1537781613.408; 0; 51.03469630; 13.73961310; 0.01; 111.90; 0; 0.000; 
1537781613.475; 2952680210; 51.03471420; 13.73966500; 0.00; 286.50; -32; 10.396; 
1537781613.572; 0; 51.03469620; 13.73961300; 0.01; 111.90; 0; 0.000; 
1537781613.676; 2952680210; 51.03471420; 13.73966500; 0.00; 286.50; -32; 10.334; 
1537781613.773; 0; 51.03469630; 13.73961300; 0.01; 111.90; 0; 0.000; 
1537781613.875; 2952680210; 51.03471420; 13.73966500; 0.00; 286.50; -33; 10.327; 
1537781613.972; 0; 51.03469630; 13.73961290; 0.01; 111.90; 0; 0.000; 
1537781614.076; 2952680210; 51.03471420; 13.73966500; 0.00; 286.50; -32; 10.344; 
1537781614.176; 0; 51.03469630; 13.73961290; 0.00; 111.90; 0; 0.000; 
1537781614.276; 2952680210; 51.03471420; 13.73966500; 0.00; 286.50; -32; 10.344; 
1537781614.409; 0; 51.03469620; 13.73961290; 0.01; 111.90; 0; 0.000; 
1537781614.514; 2952680210; 51.03471420; 13.73966420; 0.00; 286.50; -32; 10.352; 
1537781614.581; 0; 51.03469620; 13.73961280; 0.00; 111.90; 0; 0.000; 
1537781614.676; 2952680210; 51.03471420; 13.73966420; 0.00; 286.50; -32; 10.230; 
1537781614.777; 0; 51.03469620; 13.73961280; 0.01; 111.90; 0; 0.000; 
1537781614.875; 2952680210; 51.03471420; 13.73966420; 0.00; 286.50; -32; 10.230; 
1537781614.976; 0; 51.03469620; 13.73961270; 0.01; 111.90; 0; 0.000; 
1537781615.076; 2952680210; 51.03471420; 13.73966420; 0.00; 286.50; -32; 10.247; 
1537781615.164; 0; 51.03469620; 13.73961270; 0.01; 111.90; 0; 0.000; 
1537781615.276; 2952680210; 51.03471420; 13.73966420; 0.00; 286.50; -31; 10.247; 
1537781615.407; 0; 51.03469620; 13.73961270; 0.01; 111.90; 0; 0.000; 
1537781615.475; 2952680210; 51.03471400; 13.73966350; 0.00; 286.50; -32; 10.247; 
1537781615.582; 0; 51.03469610; 13.73961270; 0.02; 111.90; 0; 0.000; 
1537781615.676; 2952680210; 51.03471400; 13.73966350; 0.00; 286.50; -32; 10.119; 
1537781615.790; 0; 51.03469610; 13.73961280; 0.01; 111.90; 0; 0.000; 
1537781615.875; 2952680210; 51.03471400; 13.73966350; 0.00; 286.50; -32; 10.101; 
1537781615.976; 0; 51.03469600; 13.73961280; 0.01; 111.90; 0; 0.000; 
1537781616.076; 2952680210; 51.03471400; 13.73966350; 0.00; 286.50; -32; 10.109; 
1537781616.175; 0; 51.03469600; 13.73961290; 0.02; 111.90; 0; 0.000; 
1537781616.276; 2952680210; 51.03471400; 13.73966350; 0.00; 286.50; -32; 10.091; 
1537781616.407; 0; 51.03469600; 13.73961300; 0.01; 111.90; 0; 0.000; 
1537781616.475; 2952680210; 51.03471370; 13.73966300; 0.00; 286.50; -32; 10.074; 
1537781616.576; 0; 51.03469600; 13.73961300; 0.01; 111.90; 0; 0.000; 
1537781616.675; 2952680210; 51.03471370; 13.73966300; 0.00; 286.50; -31; 9.965; 
1537781616.788; 0; 51.03469610; 13.73961310; 0.01; 111.90; 0; 0.000; 
1537781616.876; 2952680210; 51.03471370; 13.73966300; 0.00; 286.50; -32; 9.941; 
1537781616.988; 0; 51.03469610; 13.73961310; 0.00; 111.90; 0; 0.000; 
1537781617.076; 2952680210; 51.03471370; 13.73966300; 0.00; 286.50; -32; 9.941; 
1537781617.180; 0; 51.03469610; 13.73961320; 0.01; 111.90; 0; 0.000; 
1537781617.276; 2952680210; 51.03471370; 13.73966300; 0.00; 286.50; -32; 9.923; 
1537781617.413; 0; 51.03469620; 13.73961330; 0.01; 111.90; 0; 0.000; 
1537781617.514; 2952680210; 51.03471320; 13.73966270; 0.00; 286.50; -32; 9.899; 
1537781617.581; 0; 51.03469630; 13.73961340; 0.02; 111.90; 0; 0.000; 
1537781617.676; 2952680210; 51.03471320; 13.73966270; 0.00; 286.50; -31; 9.786; 
1537781617.790; 0; 51.03469640; 13.73961350; 0.01; 111.90; 0; 0.000; 
1537781617.875; 2952680210; 51.03471320; 13.73966270; 0.00; 286.50; -31; 9.761; 
1537781617.967; 0; 51.03469660; 13.73961360; 0.03; 111.90; 0; 0.000; 
1537781618.076; 2952680210; 51.03471320; 13.73966270; 0.00; 286.50; -31; 9.729; 
1537781618.181; 0; 51.03469660; 13.73961370; 0.02; 111.90; 0; 0.000; 
1537781618.275; 2952680210; 51.03471320; 13.73966270; 0.00; 286.50; -32; 9.712; 
1537781618.416; 0; 51.03469680; 13.73961390; 0.01; 111.90; 0; 0.000; 
1537781618.476; 2952680210; 51.03471270; 13.73966780; 0.70; 286.50; -32; 9.662; 
1537781618.581; 0; 51.03469690; 13.73961410; 0.01; 111.90; 0; 0.000; 
1537781618.676; 2952680210; 51.03471270; 13.73966780; 0.70; 286.50; -32; 10.472; 
1537781618.789; 0; 51.03469700; 13.73961430; 0.01; 111.90; 0; 0.000; 
1537781618.875; 2952680210; 51.03471270; 13.73966780; 0.70; 286.50; -33; 10.430; 
1537781618.981; 0; 51.03469700; 13.73961450; 0.02; 111.90; 0; 0.000; 
1537781619.075; 2952680210; 51.03471270; 13.73966780; 0.70; 286.50; -36; 10.395; 
1537781619.178; 0; 51.03469720; 13.73961460; 0.02; 111.90; 0; 0.000; 
1537781619.276; 2952680210; 51.03471270; 13.73966780; 0.70; 286.50; -38; 10.364; 
1537781619.397; 0; 51.03469730; 13.73961480; 0.01; 111.90; 0; 0.000; 
1537781619.476; 2952680210; 51.03471120; 13.73968580; 1.62; 96.20; -40; 10.322; 
1537781619.577; 0; 51.03469740; 13.73961500; 0.01; 111.90; 0; 0.000; 
1537781619.676; 2952680210; 51.03471120; 13.73968580; 1.62; 96.20; -38; 13.331; 
1537781619.791; 0; 51.03469750; 13.73961520; 0.01; 111.90; 0; 0.000; 
1537781619.876; 2952680210; 51.03471120; 13.73968580; 1.62; 96.20; -38; 13.290; 
1537781619.981; 0; 51.03469750; 13.73961540; 0.01; 111.90; 0; 0.000; 
1537781620.076; 2952680210; 51.03471120; 13.73968580; 1.62; 96.20; -41; 13.254; 
1537781620.177; 0; 51.03469770; 13.73961560; 0.01; 111.90; 0; 0.000; 
1537781620.276; 2952680210; 51.03471120; 13.73968580; 1.62; 96.20; -42; 13.206; 
1537781620.409; 0; 51.03469780; 13.73961570; 0.01; 111.90; 0; 0.000; 
1537781620.515; 2952680210; 51.03470980; 13.73971100; 1.78; 91.90; -42; 13.182; 
1537781620.576; 0; 51.03469790; 13.73961590; 0.01; 111.90; 0; 0.000; 
1537781620.676; 2952680210; 51.03470980; 13.73971100; 1.78; 91.90; -44; 17.490; 
1537781620.776; 0; 51.03469800; 13.73961600; 0.00; 111.90; 0; 0.000; 
1537781620.876; 2952680210; 51.03470980; 13.73971100; 1.78; 91.90; -43; 17.466; 
1537781620.988; 0; 51.03469810; 13.73961620; 0.01; 111.90; 0; 0.000; 
1537781621.076; 2952680210; 51.03470980; 13.73971100; 1.78; 91.90; -46; 17.425; 
1537781621.187; 0; 51.03469810; 13.73961640; 0.00; 111.90; 0; 0.000; 
1537781621.276; 2952680210; 51.03470980; 13.73971100; 1.78; 91.90; -45; 17.390; 
1537781621.416; 0; 51.03469820; 13.73961660; 0.00; 111.90; 0; 0.000; 
1537781621.476; 2952680210; 51.03471070; 13.73973720; 1.92; 86.20; -44; 17.348; 
1537781621.579; 0; 51.03469830; 13.73961690; 0.00; 111.90; 0; 0.000; 
1537781621.676; 2952680210; 51.03471070; 13.73973720; 1.92; 86.20; -44; 21.965; 
1537781621.795; 0; 51.03469840; 13.73961710; 0.02; 111.90; 0; 0.000; 
1537781621.876; 2952680210; 51.03471070; 13.73973720; 1.92; 86.20; -41; 21.924; 
1537781621.985; 0; 51.03469840; 13.73961730; 0.01; 111.90; 0; 0.000; 
1537781622.076; 2952680210; 51.03471070; 13.73973720; 1.92; 86.20; -44; 21.889; 
1537781622.164; 0; 51.03469860; 13.73961740; 0.01; 111.90; 0; 0.000; 
1537781622.276; 2952680210; 51.03471070; 13.73973720; 1.92; 86.20; -44; 21.859; 
1537781622.414; 0; 51.03469870; 13.73961760; 0.00; 111.90; 0; 0.000; 
1537781622.476; 2952680210; 51.03471320; 13.73976430; 1.94; 79.10; -43; 21.818; 
1537781622.580; 0; 51.03469880; 13.73961780; 0.01; 111.90; 0; 0.000; 
1537781622.676; 2952680210; 51.03471320; 13.73976430; 1.94; 79.10; -45; 26.708; 
1537781622.788; 0; 51.03469880; 13.73961800; 0.01; 111.90; 0; 0.000; 
1537781622.876; 2952680210; 51.03471320; 13.73976430; 1.94; 79.10; -44; 26.672; 
1537781622.994; 0; 51.03469890; 13.73961820; 0.01; 111.90; 0; 0.000; 
1537781623.076; 2952680210; 51.03471320; 13.73976430; 1.94; 79.10; -44; 26.631; 
1537781623.187; 0; 51.03469900; 13.73961840; 0.01; 111.90; 0; 0.000; 
1537781623.276; 2952680210; 51.03471320; 13.73976430; 1.94; 79.10; -44; 26.590; 
1537781623.414; 0; 51.03469900; 13.73961870; 0.01; 111.90; 0; 0.000; 
1537781623.514; 2952680210; 51.03471770; 13.73979130; 2.04; 73.40; -45; 26.537; 
1537781623.566; 0; 51.03469910; 13.73961880; 0.00; 111.90; 0; 0.000; 
1537781623.676; 2952680210; 51.03471770; 13.73979130; 2.04; 73.40; -48; 31.545; 
1537781623.786; 0; 51.03469920; 13.73961900; 0.01; 111.90; 0; 0.000; 
1537781623.876; 2952680210; 51.03471770; 13.73979130; 2.04; 73.40; -46; 31.504; 
1537781623.985; 0; 51.03469920; 13.73961910; 0.01; 111.90; 0; 0.000; 
1537781624.076; 2952680210; 51.03471770; 13.73979130; 2.04; 73.40; -44; 31.486; 
1537781624.178; 0; 51.03469920; 13.73961920; 0.01; 111.90; 0; 0.000; 
1537781624.276; 2952680210; 51.03471770; 13.73979130; 2.04; 73.40; -49; 31.468; 
1537781624.413; 0; 51.03469930; 13.73961930; 0.01; 111.90; 0; 0.000; 
1537781624.477; 2952680210; 51.03472420; 13.73982020; 2.20; 68.00; -50; 31.445; 
1537781624.579; 0; 51.03469930; 13.73961940; 0.02; 111.90; 0; 0.000; 
1537781624.676; 2952680210; 51.03472420; 13.73982020; 2.20; 68.00; -51; 36.915; 
1537781624.779; 0; 51.03469940; 13.73961950; 0.02; 111.90; 0; 0.000; 
1537781624.877; 2952680210; 51.03472420; 13.73982020; 2.20; 68.00; -49; 36.892; 
1537781624.978; 0; 51.03469940; 13.73961960; 0.02; 111.90; 0; 0.000; 
1537781625.076; 2952680210; 51.03472420; 13.73982020; 2.20; 68.00; -46; 36.874; 
1537781625.177; 0; 51.03469940; 13.73961970; 0.02; 111.90; 0; 0.000; 
1537781625.276; 2952680210; 51.03472420; 13.73982020; 2.20; 68.00; -46; 36.856; 
1537781625.410; 0; 51.03469940; 13.73961980; 0.01; 111.90; 0; 0.000; 
1537781625.476; 2952680210; 51.03473200; 13.73984850; 2.14; 65.20; -48; 36.839; 
1537781625.575; 0; 51.03469940; 13.73961990; 0.03; 111.90; 0; 0.000; 
1537781625.677; 2952680210; 51.03473200; 13.73984850; 2.14; 65.20; -46; 42.287; 
1537781625.788; 0; 51.03469950; 13.73962000; 0.02; 111.90; 0; 0.000; 
1537781625.876; 2952680210; 51.03473200; 13.73984850; 2.14; 65.20; -47; 42.263; 
1537781625.981; 0; 51.03469960; 13.73962000; 0.01; 111.90; 0; 0.000; 
1537781626.077; 2952680210; 51.03473200; 13.73984850; 2.14; 65.20; -49; 42.257; 
1537781626.177; 0; 51.03469960; 13.73962010; 0.02; 111.90; 0; 0.000; 
1537781626.276; 2952680210; 51.03473200; 13.73984850; 2.14; 65.20; -47; 42.239; 
1537781626.406; 0; 51.03469970; 13.73962010; 0.01; 111.90; 0; 0.000; 
1537781626.476; 2952680210; 51.03474050; 13.73987670; 2.20; 63.40; -46; 42.233; 
1537781626.580; 0; 51.03469980; 13.73962020; 0.01; 111.90; 0; 0.000; 
1537781626.686; 2952680210; 51.03474050; 13.73987670; 2.20; 63.40; -47; 47.704; 
1537781626.784; 0; 51.03469980; 13.73962030; 0.03; 111.90; 0; 0.000; 
1537781626.877; 2952680210; 51.03474050; 13.73987670; 2.20; 63.40; -49; 47.686; 
1537781626.982; 0; 51.03469980; 13.73962030; 0.01; 111.90; 0; 0.000; 
1537781627.076; 2952680210; 51.03474050; 13.73987670; 2.20; 63.40; -49; 47.686; 
1537781627.189; 0; 51.03469990; 13.73962040; 0.01; 111.90; 0; 0.000; 
1537781627.276; 2952680210; 51.03474050; 13.73987670; 2.20; 63.40; -50; 47.663; 
1537781627.410; 0; 51.03469990; 13.73962040; 0.01; 111.90; 0; 0.000; 
1537781627.477; 2952680210; 51.03475020; 13.73990630; 2.38; 61.50; -51; 47.663; 
1537781627.567; 0; 51.03470000; 13.73962040; 0.01; 111.90; 0; 0.000; 
1537781627.687; 2952680210; 51.03475020; 13.73990630; 2.38; 61.50; -52; 53.478; 
1537781627.781; 0; 51.03470010; 13.73962050; 0.02; 111.90; 0; 0.000; 
1537781627.877; 2952680210; 51.03475020; 13.73990630; 2.38; 61.50; -51; 53.454; 
1537781627.977; 0; 51.03470020; 13.73962060; 0.02; 111.90; 0; 0.000; 
1537781628.077; 2952680210; 51.03475020; 13.73990630; 2.38; 61.50; -48; 53.430; 
1537781628.178; 0; 51.03470030; 13.73962060; 0.01; 111.90; 0; 0.000; 
1537781628.277; 2952680210; 51.03475020; 13.73990630; 2.38; 61.50; -47; 53.423; 
1537781628.409; 0; 51.03470040; 13.73962060; 0.02; 111.90; 0; 0.000; 
1537781628.477; 2952680210; 51.03476070; 13.73993730; 2.52; 60.60; -49; 53.417; 
1537781628.577; 0; 51.03470050; 13.73962060; 0.02; 111.90; 0; 0.000; 
1537781628.686; 2952680210; 51.03476070; 13.73993730; 2.52; 60.60; -49; 59.534; 
1537781628.776; 0; 51.03470060; 13.73962060; 0.02; 111.90; 0; 0.000; 
1537781628.876; 2952680210; 51.03476070; 13.73993730; 2.52; 60.60; -50; 59.527; 
1537781628.969; 0; 51.03470070; 13.73962060; 0.01; 111.90; 0; 0.000; 
1537781629.077; 2952680210; 51.03476070; 13.73993730; 2.52; 60.60; -50; 59.521; 
1537781629.179; 0; 51.03470080; 13.73962070; 0.01; 111.90; 0; 0.000; 
1537781629.277; 2952680210; 51.03476070; 13.73993730; 2.52; 60.60; -49; 59.497; 
1537781629.409; 0; 51.03470090; 13.73962070; 0.01; 111.90; 0; 0.000; 
1537781629.515; 2952680210; 51.03477170; 13.73996880; 2.58; 58.90; -52; 59.490; 
1537781629.579; 0; 51.03470100; 13.73962070; 0.01; 111.90; 0; 0.000; 
1537781629.687; 2952680210; 51.03477170; 13.73996880; 2.58; 58.90; -56; 65.731; 
1537781629.785; 0; 51.03470100; 13.73962080; 0.01; 111.90; 0; 0.000; 
1537781629.876; 2952680210; 51.03477170; 13.73996880; 2.58; 58.90; -55; 65.713; 
1537781629.980; 0; 51.03470110; 13.73962080; 0.02; 111.90; 0; 0.000; 
1537781630.076; 2952680210; 51.03477170; 13.73996880; 2.58; 58.90; -56; 65.706; 
1537781630.179; 0; 51.03470120; 13.73962080; 0.01; 111.90; 0; 0.000; 
1537781630.277; 2952680210; 51.03477170; 13.73996880; 2.58; 58.90; -54; 65.700; 
1537781630.399; 0; 51.03470130; 13.73962090; 0.01; 111.90; 0; 0.000; 
1537781630.476; 2952680210; 51.03478420; 13.74000120; 2.72; 57.80; -52; 65.676; 
1537781630.575; 0; 51.03470130; 13.73962080; 0.01; 111.90; 0; 0.000; 
1537781630.676; 2952680210; 51.03478420; 13.74000120; 2.72; 57.80; -53; 72.201; 
1537781630.778; 0; 51.03470140; 13.73962090; 0.01; 111.90; 0; 0.000; 
1537781630.876; 2952680210; 51.03478420; 13.74000120; 2.72; 57.80; -55; 72.176; 
1537781630.987; 0; 51.03470140; 13.73962080; 0.01; 111.90; 0; 0.000; 
1537781631.077; 2952680210; 51.03478420; 13.74000120; 2.72; 57.80; -57; 72.194; 
1537781631.179; 0; 51.03470140; 13.73962090; 0.01; 111.90; 0; 0.000; 
1537781631.277; 2952680210; 51.03478420; 13.74000120; 2.72; 57.80; -54; 72.176; 
1537781631.425; 0; 51.03470150; 13.73962090; 0.01; 111.90; 0; 0.000; 
1537781631.477; 2952680210; 51.03479830; 13.74003500; 2.90; 55.80; -56; 72.170; 
1537781631.578; 0; 51.03470160; 13.73962090; 0.01; 111.90; 0; 0.000; 
1537781631.687; 2952680210; 51.03479830; 13.74003500; 2.90; 55.80; -53; 79.027; 
1537781631.768; 0; 51.03470160; 13.73962090; 0.01; 111.90; 0; 0.000; 
1537781631.877; 2952680210; 51.03479830; 13.74003500; 2.90; 55.80; -56; 79.027; 
1537781631.981; 0; 51.03470170; 13.73962090; 0.01; 111.90; 0; 0.000; 
1537781632.076; 2952680210; 51.03479830; 13.74003500; 2.90; 55.80; -53; 79.020; 
1537781632.178; 0; 51.03470170; 13.73962090; 0.01; 111.90; 0; 0.000; 
1537781632.277; 2952680210; 51.03479830; 13.74003500; 2.90; 55.80; -55; 79.020; 
1537781632.419; 0; 51.03470180; 13.73962090; 0.00; 111.90; 0; 0.000; 
1537781632.515; 2952680210; 51.03481400; 13.74007050; 3.10; 54.50; -57; 79.014; 
1537781632.575; 0; 51.03470190; 13.73962090; 0.01; 111.90; 0; 0.000; 
1537781632.687; 2952680210; 51.03481400; 13.74007050; 3.10; 54.50; -55; 86.282; 
1537781632.781; 0; 51.03470190; 13.73962090; 0.00; 111.90; 0; 0.000; 
1537781632.876; 2952680210; 51.03481400; 13.74007050; 3.10; 54.50; -54; 86.282; 
1537781632.979; 0; 51.03470200; 13.73962090; 0.03; 111.90; 0; 0.000; 
1537781633.076; 2952680210; 51.03481400; 13.74007050; 3.10; 54.50; -56; 86.275; 
1537781633.159; 0; 51.03470210; 13.73962090; 0.01; 111.90; 0; 0.000; 
1537781633.277; 2952680210; 51.03481400; 13.74007050; 3.10; 54.50; -56; 86.268; 
1537781633.417; 0; 51.03470220; 13.73962100; 0.00; 111.90; 0; 0.000; 
1537781633.476; 2952680210; 51.03483100; 13.74010800; 3.32; 53.40; -57; 86.244; 
1537781633.575; 0; 51.03470220; 13.73962100; 0.01; 111.90; 0; 0.000; 
1537781633.686; 2952680210; 51.03483100; 13.74010800; 3.32; 53.40; -57; 93.964; 
1537781633.782; 0; 51.03470230; 13.73962110; 0.01; 111.90; 0; 0.000; 
1537781633.876; 2952680210; 51.03483100; 13.74010800; 3.32; 53.40; -60; 93.939; 
1537781633.970; 0; 51.03470240; 13.73962110; 0.00; 111.90; 0; 0.000; 
1537781634.076; 2952680210; 51.03483100; 13.74010800; 3.32; 53.40; -58; 93.932; 
1537781634.167; 0; 51.03470250; 13.73962120; 0.01; 111.90; 0; 0.000; 
1537781634.276; 2952680210; 51.03483100; 13.74010800; 3.32; 53.40; -62; 93.908; 
1537781634.401; 0; 51.03470250; 13.73962130; 0.00; 111.90; 0; 0.000; 
1537781634.476; 2952680210; 51.03484870; 13.74014780; 3.50; 52.40; -58; 93.890; 
1537781634.551; 0; 51.03470250; 13.73962140; 0.01; 111.90; 0; 0.000; 
1537781634.686; 2952680210; 51.03484870; 13.74014780; 3.50; 52.40; -61; 102.048; 
1537781634.773; 0; 51.03470260; 13.73962140; 0.01; 111.90; 0; 0.000; 
1537781634.877; 2952680210; 51.03484870; 13.74014780; 3.50; 52.40; -54; 102.041; 
1537781634.976; 0; 51.03470260; 13.73962150; 0.01; 111.90; 0; 0.000; 
1537781635.076; 2952680210; 51.03484870; 13.74014780; 3.50; 52.40; -59; 102.024; 
1537781635.175; 0; 51.03470260; 13.73962150; 0.01; 111.90; 0; 0.000; 
1537781635.276; 2952680210; 51.03484870; 13.74014780; 3.50; 52.40; -53; 102.024; 
1537781635.401; 0; 51.03470250; 13.73962160; 0.01; 111.90; 0; 0.000; 
1537781635.515; 2952680210; 51.03486770; 13.74018880; 3.60; 52.20; -57; 102.013; 
1537781635.578; 0; 51.03470250; 13.73962170; 0.01; 111.90; 0; 0.000; 
1537781635.687; 2952680210; 51.03486770; 13.74018880; 3.60; 52.20; -55; 110.476; 
1537781635.780; 0; 51.03470250; 13.73962180; 0.01; 111.90; 0; 0.000; 
1537781635.877; 2952680210; 51.03486770; 13.74018880; 3.60; 52.20; -58; 110.458; 
1537781635.961; 0; 51.03470260; 13.73962190; 0.02; 111.90; 0; 0.000; 
1537781636.077; 2952680210; 51.03486770; 13.74018880; 3.60; 52.20; -56; 110.434; 
1537781636.172; 0; 51.03470260; 13.73962190; 0.02; 111.90; 0; 0.000; 
1537781636.276; 2952680210; 51.03486770; 13.74018880; 3.60; 52.20; -54; 110.434; 
1537781636.404; 0; 51.03470250; 13.73962200; 0.01; 111.90; 0; 0.000; 
1537781636.477; 2952680210; 51.03488750; 13.74023050; 3.70; 51.70; -57; 110.423; 
1537781636.577; 0; 51.03470240; 13.73962200; 0.01; 111.90; 0; 0.000; 
1537781636.687; 2952680210; 51.03488750; 13.74023050; 3.70; 51.70; -53; 119.094; 
1537781636.774; 0; 51.03470230; 13.73962220; 0.03; 111.90; 0; 0.000; 
1537781636.877; 2952680210; 51.03488750; 13.74023050; 3.70; 51.70; -53; 119.066; 
1537781636.977; 0; 51.03470230; 13.73962220; 0.01; 111.90; 0; 0.000; 
1537781637.077; 2952680210; 51.03488750; 13.74023050; 3.70; 51.70; -58; 119.066; 
1537781637.172; 0; 51.03470210; 13.73962220; 0.03; 111.90; 0; 0.000; 
1537781637.277; 2952680210; 51.03488750; 13.74023050; 3.70; 51.70; -54; 119.080; 
1537781637.391; 0; 51.03470200; 13.73962210; 0.02; 111.90; 0; 0.000; 
1537781637.477; 2952680210; 51.03490800; 13.74027300; 3.82; 51.20; -57; 119.104; 
1537781637.576; 0; 51.03470190; 13.73962210; 0.02; 111.90; 0; 0.000; 
1537781637.687; 2952680210; 51.03490800; 13.74027300; 3.82; 51.20; -60; 127.969; 
1537781637.780; 0; 51.03470180; 13.73962220; 0.03; 111.90; 0; 0.000; 
1537781637.877; 2952680210; 51.03490800; 13.74027300; 3.82; 51.20; -55; 127.958; 
1537781637.974; 0; 51.03470180; 13.73962220; 0.01; 111.90; 0; 0.000; 
1537781638.077; 2952680210; 51.03490800; 13.74027300; 3.82; 51.20; -58; 127.958; 
1537781638.171; 0; 51.03470180; 13.73962220; 0.01; 111.90; 0; 0.000; 
1537781638.277; 2952680210; 51.03490800; 13.74027300; 3.82; 51.20; -63; 127.958; 
1537781638.405; 0; 51.03470180; 13.73962210; 0.03; 111.90; 0; 0.000; 
1537781638.516; 2952680210; 51.03492920; 13.74031600; 3.86; 51.20; -58; 127.976; 
1537781638.570; 0; 51.03470180; 13.73962210; 0.01; 111.90; 0; 0.000; 
1537781638.687; 2952680210; 51.03492920; 13.74031600; 3.86; 51.20; -60; 136.974; 
1537781638.764; 0; 51.03470190; 13.73962220; 0.01; 111.90; 0; 0.000; 
1537781638.877; 2952680210; 51.03492920; 13.74031600; 3.86; 51.20; -63; 136.950; 
1537781638.978; 0; 51.03470190; 13.73962220; 0.01; 111.90; 0; 0.000; 
1537781639.077; 2952680210; 51.03492920; 13.74031600; 3.86; 51.20; -63; 136.950; 
1537781639.172; 0; 51.03470200; 13.73962220; 0.01; 111.90; 0; 0.000; 
1537781639.277; 2952680210; 51.03492920; 13.74031600; 3.86; 51.20; -67; 136.942; 
1537781639.407; 0; 51.03470210; 13.73962210; 0.01; 111.90; 0; 0.000; 
1537781639.477; 2952680210; 51.03495080; 13.74035920; 3.88; 50.80; -59; 136.953; 
1537781639.570; 0; 51.03470210; 13.73962210; 0.02; 111.90; 0; 0.000; 
1537781639.677; 2952680210; 51.03495080; 13.74035920; 3.88; 50.80; -64; 146.018; 
1537781639.794; 0; 51.03470220; 13.73962220; 0.01; 111.90; 0; 0.000; 
1537781639.876; 2952680210; 51.03495080; 13.74035920; 3.88; 50.80; -60; 145.994; 
1537781639.987; 0; 51.03470220; 13.73962220; 0.01; 111.90; 0; 0.000; 
1537781640.077; 2952680210; 51.03495080; 13.74035920; 3.88; 50.80; -60; 145.994; 
1537781640.165; 0; 51.03470230; 13.73962220; 0.01; 111.90; 0; 0.000; 
1537781640.277; 2952680210; 51.03495080; 13.74035920; 3.88; 50.80; -64; 145.986; 
1537781640.407; 0; 51.03470240; 13.73962220; 0.01; 111.90; 0; 0.000; 
1537781640.477; 2952680210; 51.03497220; 13.74040070; 3.62; 50.50; -62; 145.979; 
1537781640.572; 0; 51.03470250; 13.73962210; 0.02; 111.90; 0; 0.000; 
1537781640.677; 2952680210; 51.03497220; 13.74040070; 3.62; 50.50; -63; 154.749; 
1537781640.789; 0; 51.03470260; 13.73962220; 0.01; 111.90; 0; 0.000; 
1537781640.877; 2952680210; 51.03497220; 13.74040070; 3.62; 50.50; -65; 154.724; 
1537781640.976; 0; 51.03470260; 13.73962220; 0.01; 111.90; 0; 0.000; 
1537781641.077; 2952680210; 51.03497220; 13.74040070; 3.62; 50.50; -61; 154.724; 
1537781641.172; 0; 51.03470270; 13.73962230; 0.01; 111.90; 0; 0.000; 
1537781641.277; 2952680210; 51.03497220; 13.74040070; 3.62; 50.50; -63; 154.699; 
1537781641.399; 0; 51.03470280; 13.73962230; 0.00; 111.90; 0; 0.000; 
1537781641.507; 2952680210; 51.03499180; 13.74043880; 3.22; 50.10; -58; 154.692; 
1537781641.566; 0; 51.03470280; 13.73962240; 0.01; 111.90; 0; 0.000; 
1537781641.687; 2952680210; 51.03499180; 13.74043880; 3.22; 50.10; -58; 162.716; 
1537781641.791; 0; 51.03470290; 13.73962230; 0.03; 111.90; 0; 0.000; 
1537781641.877; 2952680210; 51.03499180; 13.74043880; 3.22; 50.10; -63; 162.726; 
1537781641.974; 0; 51.03470300; 13.73962240; 0.01; 111.90; 0; 0.000; 
1537781642.077; 2952680210; 51.03499180; 13.74043880; 3.22; 50.10; -60; 162.701; 
1537781642.174; 0; 51.03470300; 13.73962250; 0.00; 111.90; 0; 0.000; 
1537781642.277; 2952680210; 51.03499180; 13.74043880; 3.22; 50.10; -65; 162.684; 
1537781642.406; 0; 51.03470310; 13.73962250; 0.02; 111.90; 0; 0.000; 
1537781642.477; 2952680210; 51.03500870; 13.74046420; 2.10; 38.80; -68; 162.676; 
1537781642.570; 0; 51.03470310; 13.73962250; 0.01; 111.90; 0; 0.000; 
1537781642.687; 2952680210; 51.03500870; 13.74046420; 2.10; 38.80; -66; 168.321; 
1537781642.762; 0; 51.03470320; 13.73962240; 0.03; 111.90; 0; 0.000; 
1537781642.877; 2952680210; 51.03500870; 13.74046420; 2.10; 38.80; -73; 168.330; 
1537781642.972; 0; 51.03470320; 13.73962240; 0.02; 111.90; 0; 0.000; 
1537781643.077; 2952680210; 51.03500870; 13.74046420; 2.10; 38.80; -62; 168.330; 
1537781643.174; 0; 51.03470330; 13.73962240; 0.01; 111.90; 0; 0.000; 
1537781643.277; 2952680210; 51.03500870; 13.74046420; 2.10; 38.80; -62; 168.323; 
1537781643.403; 0; 51.03470340; 13.73962240; 0.01; 111.90; 0; 0.000; 
1537781643.478; 2952680210; 51.03502480; 13.74047180; 1.86; 9.30; -58; 168.316; 
1537781643.564; 0; 51.03470340; 13.73962240; 0.01; 111.90; 0; 0.000; 
1537781643.688; 2952680210; 51.03502480; 13.74047180; 1.86; 9.30; -63; 170.825; 
1537781643.774; 0; 51.03470350; 13.73962250; 0.01; 111.90; 0; 0.000; 
1537781643.878; 2952680210; 51.03502480; 13.74047180; 1.86; 9.30; -61; 170.800; 
1537781643.974; 0; 51.03470350; 13.73962250; 0.01; 111.90; 0; 0.000; 
1537781644.077; 2952680210; 51.03502480; 13.74047180; 1.86; 9.30; -63; 170.800; 
1537781644.158; 0; 51.03470350; 13.73962250; 0.01; 111.90; 0; 0.000; 
1537781644.278; 2952680210; 51.03502480; 13.74047180; 1.86; 9.30; -63; 170.800; 
1537781644.401; 0; 51.03470360; 13.73962260; 0.01; 111.90; 0; 0.000; 
1537781644.516; 2952680210; 51.03504130; 13.74046380; 2.06; 336.10; -67; 170.775; 
1537781644.567; 0; 51.03470370; 13.73962260; 0.01; 111.90; 0; 0.000; 
1537781644.687; 2952680210; 51.03504130; 13.74046380; 2.06; 336.10; -63; 170.625; 
1537781644.768; 0; 51.03470370; 13.73962270; 0.00; 111.90; 0; 0.000; 
1537781644.878; 2952680210; 51.03504130; 13.74046380; 2.06; 336.10; -64; 170.608; 
1537781644.975; 0; 51.03470380; 13.73962270; 0.02; 111.90; 0; 0.000; 
1537781645.078; 2952680210; 51.03504130; 13.74046380; 2.06; 336.10; -63; 170.600; 
1537781645.177; 0; 51.03470380; 13.73962270; 0.00; 111.90; 0; 0.000; 
1537781645.278; 2952680210; 51.03504130; 13.74046380; 2.06; 336.10; -65; 170.600; 
1537781645.407; 0; 51.03470390; 13.73962270; 0.02; 111.90; 0; 0.000; 
1537781645.478; 2952680210; 51.03505200; 13.74044070; 2.08; 299.40; -66; 170.593; 
1537781645.557; 0; 51.03470390; 13.73962280; 0.01; 111.90; 0; 0.000; 
1537781645.688; 2952680210; 51.03505200; 13.74044070; 2.08; 299.40; -67; 167.411; 
1537781645.790; 0; 51.03470390; 13.73962280; 0.02; 111.90; 0; 0.000; 
1537781645.878; 2952680210; 51.03505200; 13.74044070; 2.08; 299.40; -68; 167.411; 
1537781645.983; 0; 51.03470400; 13.73962270; 0.01; 111.90; 0; 0.000; 
1537781646.077; 2952680210; 51.03505200; 13.74044070; 2.08; 299.40; -70; 167.420; 
1537781646.174; 0; 51.03470400; 13.73962270; 0.00; 111.90; 0; 0.000; 
1537781646.277; 2952680210; 51.03505200; 13.74044070; 2.08; 299.40; -62; 167.420; 
1537781646.410; 0; 51.03470410; 13.73962270; 0.02; 111.90; 0; 0.000; 
1537781646.516; 2952680210; 51.03505150; 13.74041100; 2.26; 260.60; -61; 167.413; 
1537781646.575; 0; 51.03470420; 13.73962260; 0.01; 111.90; 0; 0.000; 
1537781646.687; 2952680210; 51.03505150; 13.74041100; 2.26; 260.60; -60; 162.278; 
1537781646.775; 0; 51.03470420; 13.73962260; 0.01; 111.90; 0; 0.000; 
1537781646.877; 2952680210; 51.03505150; 13.74041100; 2.26; 260.60; -63; 162.278; 
1537781646.958; 0; 51.03470420; 13.73962260; 0.01; 111.90; 0; 0.000; 
1537781647.078; 2952680210; 51.03505150; 13.74041100; 2.26; 260.60; -65; 162.278; 
1537781647.173; 0; 51.03470420; 13.73962260; 0.01; 111.90; 0; 0.000; 
1537781647.278; 2952680210; 51.03505150; 13.74041100; 2.26; 260.60; -66; 162.278; 
1537781647.404; 0; 51.03470420; 13.73962260; 0.02; 111.90; 0; 0.000; 
1537781647.508; 2952680210; 51.03503930; 13.74037920; 2.84; 236.10; -63; 162.278; 
1537781647.571; 0; 51.03470420; 13.73962250; 0.01; 111.90; 0; 0.000; 
1537781647.688; 2952680210; 51.03503930; 13.74037920; 2.84; 236.10; -62; 155.890; 
1537781647.781; 0; 51.03470420; 13.73962250; 0.01; 111.90; 0; 0.000; 
1537781647.878; 2952680210; 51.03503930; 13.74037920; 2.84; 236.10; -59; 155.890; 
1537781647.974; 0; 51.03470420; 13.73962250; 0.01; 111.90; 0; 0.000; 
1537781648.077; 2952680210; 51.03503930; 13.74037920; 2.84; 236.10; -64; 155.890; 
1537781648.180; 0; 51.03470420; 13.73962250; 0.01; 111.90; 0; 0.000; 
1537781648.277; 2952680210; 51.03503930; 13.74037920; 2.84; 236.10; -65; 155.890; 
1537781648.390; 0; 51.03470410; 13.73962250; 0.00; 111.90; 0; 0.000; 
1537781648.477; 2952680210; 51.03502150; 13.74034680; 3.10; 229.40; -65; 155.898; 
1537781648.571; 0; 51.03470420; 13.73962240; 0.01; 111.90; 0; 0.000; 
1537781648.687; 2952680210; 51.03502150; 13.74034680; 3.10; 229.40; -67; 148.965; 
1537781648.775; 0; 51.03470420; 13.73962240; 0.00; 111.90; 0; 0.000; 
1537781648.877; 2952680210; 51.03502150; 13.74034680; 3.10; 229.40; -66; 148.965; 
1537781648.977; 0; 51.03470420; 13.73962240; 0.01; 111.90; 0; 0.000; 
1537781649.078; 2952680210; 51.03502150; 13.74034680; 3.10; 229.40; -62; 148.965; 
1537781649.178; 0; 51.03470430; 13.73962250; 0.01; 111.90; 0; 0.000; 
1537781649.278; 2952680210; 51.03502150; 13.74034680; 3.10; 229.40; -65; 148.940; 
1537781649.403; 0; 51.03470430; 13.73962250; 0.02; 111.90; 0; 0.000; 
1537781649.478; 2952680210; 51.03500300; 13.74031180; 3.30; 230.80; -65; 148.940; 
1537781649.571; 0; 51.03470430; 13.73962250; 0.02; 111.90; 0; 0.000; 
1537781649.687; 2952680210; 51.03500300; 13.74031180; 3.30; 230.80; -60; 141.498; 
1537781649.761; 0; 51.03470440; 13.73962250; 0.01; 111.90; 0; 0.000; 
1537781649.878; 2952680210; 51.03500300; 13.74031180; 3.30; 230.80; -60; 141.491; 
1537781649.973; 0; 51.03470450; 13.73962250; 0.01; 111.90; 0; 0.000; 
1537781650.088; 2952680210; 51.03500300; 13.74031180; 3.30; 230.80; -61; 141.483; 
1537781650.177; 0; 51.03470450; 13.73962260; 0.03; 111.90; 0; 0.000; 
1537781650.277; 2952680210; 51.03500300; 13.74031180; 3.30; 230.80; -61; 141.466; 
1537781650.400; 0; 51.03470450; 13.73962250; 0.01; 111.90; 0; 0.000; 
1537781650.509; 2952680210; 51.03498370; 13.74027430; 3.44; 231.60; -60; 141.483; 
1537781650.571; 0; 51.03470460; 13.73962250; 0.00; 111.90; 0; 0.000; 
1537781650.688; 2952680210; 51.03498370; 13.74027430; 3.44; 231.60; -62; 133.543; 
1537781650.777; 0; 51.03470470; 13.73962250; 0.00; 111.90; 0; 0.000; 
1537781650.877; 2952680210; 51.03498370; 13.74027430; 3.44; 231.60; -63; 133.535; 
1537781650.977; 0; 51.03470480; 13.73962250; 0.00; 111.90; 0; 0.000; 
1537781651.078; 2952680210; 51.03498370; 13.74027430; 3.44; 231.60; -61; 133.527; 
1537781651.160; 0; 51.03470480; 13.73962260; 0.01; 111.90; 0; 0.000; 
1537781651.278; 2952680210; 51.03498370; 13.74027430; 3.44; 231.60; -63; 133.510; 
1537781651.406; 0; 51.03470490; 13.73962270; 0.01; 111.90; 0; 0.000; 
1537781651.480; 2952680210; 51.03496450; 13.74023570; 3.48; 232.60; -64; 133.485; 
1537781651.571; 0; 51.03470490; 13.73962260; 0.02; 111.90; 0; 0.000; 
1537781651.688; 2952680210; 51.03496450; 13.74023570; 3.48; 232.60; -64; 125.389; 
1537781651.786; 0; 51.03470500; 13.73962270; 0.01; 111.90; 0; 0.000; 
1537781651.878; 2952680210; 51.03496450; 13.74023570; 3.48; 232.60; -64; 125.364; 
1537781651.976; 0; 51.03470500; 13.73962270; 0.01; 111.90; 0; 0.000; 
1537781652.078; 2952680210; 51.03496450; 13.74023570; 3.48; 232.60; -64; 125.364; 
1537781652.175; 0; 51.03470510; 13.73962280; 0.01; 111.90; 0; 0.000; 
1537781652.278; 2952680210; 51.03496450; 13.74023570; 3.48; 232.60; -64; 125.339; 
1537781652.412; 0; 51.03470510; 13.73962280; 0.01; 111.90; 0; 0.000; 
1537781652.477; 2952680210; 51.03494550; 13.74019650; 3.50; 233.60; -64; 125.339; 
1537781652.564; 0; 51.03470520; 13.73962290; 0.01; 111.90; 0; 0.000; 
1537781652.688; 2952680210; 51.03494550; 13.74019650; 3.50; 233.60; -64; 117.113; 
1537781652.780; 0; 51.03470520; 13.73962300; 0.01; 111.90; 0; 0.000; 
1537781652.877; 2952680210; 51.03494550; 13.74019650; 3.50; 233.60; -66; 117.096; 
1537781652.973; 0; 51.03470530; 13.73962310; 0.01; 111.90; 0; 0.000; 
1537781653.088; 2952680210; 51.03494550; 13.74019650; 3.50; 233.60; -66; 117.071; 
1537781653.173; 0; 51.03470530; 13.73962320; 0.01; 111.90; 0; 0.000; 
1537781653.278; 2952680210; 51.03494550; 13.74019650; 3.50; 233.60; -62; 117.054; 
1537781653.413; 0; 51.03470530; 13.73962330; 0.01; 111.90; 0; 0.000; 
1537781653.509; 2952680210; 51.03492650; 13.74015650; 3.58; 233.60; -61; 117.037; 
1537781653.571; 0; 51.03470530; 13.73962330; 0.01; 111.90; 0; 0.000; 
1537781653.688; 2952680210; 51.03492650; 13.74015650; 3.58; 233.60; -64; 108.699; 
1537781653.780; 0; 51.03470530; 13.73962340; 0.01; 111.90; 0; 0.000; 
1537781653.878; 2952680210; 51.03492650; 13.74015650; 3.58; 233.60; -64; 108.682; 
1537781653.969; 0; 51.03470530; 13.73962350; 0.00; 111.90; 0; 0.000; 
1537781654.078; 2952680210; 51.03492650; 13.74015650; 3.58; 233.60; -64; 108.664; 
1537781654.176; 0; 51.03470530; 13.73962350; 0.00; 111.90; 0; 0.000; 
1537781654.279; 2952680210; 51.03492650; 13.74015650; 3.58; 233.60; -61; 108.664; 
1537781654.411; 0; 51.03470530; 13.73962360; 0.01; 111.90; 0; 0.000; 
1537781654.478; 2952680210; 51.03490720; 13.74011530; 3.62; 234.40; -63; 108.647; 
1537781654.575; 0; 51.03470530; 13.73962370; 0.01; 111.90; 0; 0.000; 
1537781654.688; 2952680210; 51.03490720; 13.74011530; 3.62; 234.40; -64; 100.063; 
1537781654.784; 0; 51.03470530; 13.73962370; 0.01; 111.90; 0; 0.000; 
1537781654.887; 2952680210; 51.03490720; 13.74011530; 3.62; 234.40; -65; 100.063; 
1537781654.979; 0; 51.03470530; 13.73962380; 0.00; 111.90; 0; 0.000; 
1537781655.078; 2952680210; 51.03490720; 13.74011530; 3.62; 234.40; -61; 100.045; 
1537781655.169; 0; 51.03470530; 13.73962390; 0.00; 111.90; 0; 0.000; 
1537781655.278; 2952680210; 51.03490720; 13.74011530; 3.62; 234.40; -62; 100.028; 
1537781655.403; 0; 51.03470530; 13.73962400; 0.00; 111.90; 0; 0.000; 
1537781655.478; 2952680210; 51.03488750; 13.74007320; 3.74; 234.40; -59; 100.011; 
1537781655.576; 0; 51.03470530; 13.73962400; 0.00; 111.90; 0; 0.000; 
1537781655.688; 2952680210; 51.03488750; 13.74007320; 3.74; 234.40; -58; 91.259; 
1537781655.782; 0; 51.03470530; 13.73962400; 0.01; 111.90; 0; 0.000; 
1537781655.878; 2952680210; 51.03488750; 13.74007320; 3.74; 234.40; -61; 91.259; 
1537781655.974; 0; 51.03470520; 13.73962400; 0.01; 111.90; 0; 0.000; 
1537781656.078; 2952680210; 51.03488750; 13.74007320; 3.74; 234.40; -58; 91.266; 
1537781656.172; 0; 51.03470520; 13.73962410; 0.01; 111.90; 0; 0.000; 
1537781656.278; 2952680210; 51.03488750; 13.74007320; 3.74; 234.40; -57; 91.249; 
1537781656.403; 0; 51.03470520; 13.73962410; 0.01; 111.90; 0; 0.000; 
1537781656.478; 2952680210; 51.03486770; 13.74003000; 3.82; 235.10; -60; 91.249; 
1537781656.567; 0; 51.03470510; 13.73962410; 0.01; 111.90; 0; 0.000; 
1537781656.688; 2952680210; 51.03486770; 13.74003000; 3.82; 235.10; -58; 82.308; 
1537781656.770; 0; 51.03470510; 13.73962410; 0.00; 111.90; 0; 0.000; 
1537781656.878; 2952680210; 51.03486770; 13.74003000; 3.82; 235.10; -59; 82.308; 
1537781656.973; 0; 51.03470510; 13.73962420; 0.01; 111.90; 0; 0.000; 
1537781657.078; 2952680210; 51.03486770; 13.74003000; 3.82; 235.10; -60; 82.291; 
1537781657.170; 0; 51.03470510; 13.73962420; 0.01; 111.90; 0; 0.000; 
1537781657.289; 2952680210; 51.03486770; 13.74003000; 3.82; 235.10; -60; 82.291; 
1537781657.400; 0; 51.03470510; 13.73962420; 0.01; 111.90; 0; 0.000; 
1537781657.478; 2952680210; 51.03484880; 13.73998430; 3.84; 236.80; -57; 82.291; 
1537781657.575; 0; 51.03470510; 13.73962420; 0.01; 111.90; 0; 0.000; 
1537781657.688; 2952680210; 51.03484880; 13.73998430; 3.84; 236.80; -56; 72.979; 
1537781657.782; 0; 51.03470510; 13.73962420; 0.00; 111.90; 0; 0.000; 
1537781657.888; 2952680210; 51.03484880; 13.73998430; 3.84; 236.80; -55; 72.979; 
1537781657.958; 0; 51.03470510; 13.73962420; 0.00; 111.90; 0; 0.000; 
1537781658.078; 2952680210; 51.03484880; 13.73998430; 3.84; 236.80; -56; 72.979; 
1537781658.168; 0; 51.03470510; 13.73962430; 0.00; 111.90; 0; 0.000; 
1537781658.278; 2952680210; 51.03484880; 13.73998430; 3.84; 236.80; -57; 72.961; 
1537781658.402; 0; 51.03470510; 13.73962430; 0.01; 111.90; 0; 0.000; 
1537781658.478; 2952680210; 51.03483050; 13.73993730; 3.92; 238.60; -58; 72.961; 
1537781658.572; 0; 51.03470510; 13.73962430; 0.01; 111.90; 0; 0.000; 
1537781658.688; 2952680210; 51.03483050; 13.73993730; 3.92; 238.60; -55; 63.471; 
1537781658.767; 0; 51.03470520; 13.73962430; 0.01; 111.90; 0; 0.000; 
1537781658.878; 2952680210; 51.03483050; 13.73993730; 3.92; 238.60; -58; 63.463; 
1537781658.968; 0; 51.03470520; 13.73962430; 0.00; 111.90; 0; 0.000; 
1537781659.078; 2952680210; 51.03483050; 13.73993730; 3.92; 238.60; -56; 63.463; 
1537781659.168; 0; 51.03470520; 13.73962430; 0.01; 111.90; 0; 0.000; 
1537781659.278; 2952680210; 51.03483050; 13.73993730; 3.92; 238.60; -58; 63.463; 
1537781659.390; 0; 51.03470510; 13.73962430; 0.00; 111.90; 0; 0.000; 
1537781659.478; 2952680210; 51.03481280; 13.73988920; 3.92; 240.30; -56; 63.471; 
1537781659.566; 0; 51.03470510; 13.73962430; 0.01; 111.90; 0; 0.000; 
1537781659.688; 2952680210; 51.03481280; 13.73988920; 3.92; 240.30; -56; 53.836; 
1537781659.776; 0; 51.03470510; 13.73962430; 0.01; 111.90; 0; 0.000; 
1537781659.878; 2952680210; 51.03481280; 13.73988920; 3.92; 240.30; -58; 53.836; 
1537781659.969; 0; 51.03470510; 13.73962430; 0.01; 111.90; 0; 0.000; 
1537781660.078; 2952680210; 51.03481280; 13.73988920; 3.92; 240.30; -58; 53.836; 
1537781660.169; 0; 51.03470510; 13.73962430; 0.01; 111.90; 0; 0.000; 
1537781660.279; 2952680210; 51.03481280; 13.73988920; 3.92; 240.30; -57; 53.836; 
1537781660.403; 0; 51.03470510; 13.73962440; 0.01; 111.90; 0; 0.000; 
1537781660.479; 2952680210; 51.03479620; 13.73984150; 3.70; 241.30; -58; 53.819; 
1537781660.570; 0; 51.03470510; 13.73962440; 0.01; 111.90; 0; 0.000; 
1537781660.688; 2952680210; 51.03479620; 13.73984150; 3.70; 241.30; -54; 44.337; 
1537781660.761; 0; 51.03470510; 13.73962440; 0.01; 111.90; 0; 0.000; 
1537781660.889; 2952680210; 51.03479620; 13.73984150; 3.70; 241.30; -58; 44.337; 
1537781660.975; 0; 51.03470500; 13.73962450; 0.02; 111.90; 0; 0.000; 
1537781661.078; 2952680210; 51.03479620; 13.73984150; 3.70; 241.30; -55; 44.328; 
1537781661.168; 0; 51.03470500; 13.73962450; 0.01; 111.90; 0; 0.000; 
1537781661.278; 2952680210; 51.03479620; 13.73984150; 3.70; 241.30; -53; 44.328; 
1537781661.403; 0; 51.03470500; 13.73962450; 0.01; 111.90; 0; 0.000; 
1537781661.479; 2952680210; 51.03478120; 13.73979620; 3.52; 242.30; -55; 44.328; 
1537781661.566; 0; 51.03470500; 13.73962450; 0.00; 111.90; 0; 0.000; 
1537781661.688; 2952680210; 51.03478120; 13.73979620; 3.52; 242.30; -54; 35.385; 
1537781661.783; 0; 51.03470500; 13.73962450; 0.01; 111.90; 0; 0.000; 
1537781661.878; 2952680210; 51.03478120; 13.73979620; 3.52; 242.30; -50; 35.385; 
1537781661.970; 0; 51.03470500; 13.73962450; 0.01; 111.90; 0; 0.000; 
1537781662.089; 2952680210; 51.03478120; 13.73979620; 3.52; 242.30; -50; 35.385; 
1537781662.153; 0; 51.03470500; 13.73962440; 0.01; 111.90; 0; 0.000; 
1537781662.278; 2952680210; 51.03478120; 13.73979620; 3.52; 242.30; -47; 35.402; 
1537781662.401; 0; 51.03470500; 13.73962440; 0.00; 111.90; 0; 0.000; 
1537781662.479; 2952680210; 51.03476520; 13.73974530; 3.12; 243.70; -50; 35.402; 
1537781662.565; 0; 51.03470500; 13.73962440; 0.01; 111.90; 0; 0.000; 
1537781662.689; 2952680210; 51.03476520; 13.73974530; 3.12; 243.70; -49; 25.431; 
1537781662.782; 0; 51.03470500; 13.73962440; 0.01; 111.90; 0; 0.000; 
1537781662.878; 2952680210; 51.03476520; 13.73974530; 3.12; 243.70; -49; 25.431; 
1537781662.969; 0; 51.03470500; 13.73962440; 0.01; 111.90; 0; 0.000; 
1537781663.079; 2952680210; 51.03476520; 13.73974530; 3.12; 243.70; -51; 25.431; 
1537781663.168; 0; 51.03470500; 13.73962430; 0.01; 111.90; 0; 0.000; 
1537781663.279; 2952680210; 51.03476520; 13.73974530; 3.12; 243.70; -46; 25.448; 
1537781663.403; 0; 51.03470490; 13.73962430; 0.01; 111.90; 0; 0.000; 
1537781663.478; 2952680210; 51.03475480; 13.73971620; 2.80; 240.10; -44; 25.456; 
1537781663.555; 0; 51.03470490; 13.73962430; 0.01; 111.90; 0; 0.000; 
1537781663.688; 2952680210; 51.03475480; 13.73971620; 2.80; 240.10; -43; 19.665; 
1537781663.784; 0; 51.03470490; 13.73962420; 0.01; 111.90; 0; 0.000; 
1537781663.889; 2952680210; 51.03475480; 13.73971620; 2.80; 240.10; -41; 19.682; 
1537781663.977; 0; 51.03470490; 13.73962410; 0.02; 111.90; 0; 0.000; 
1537781664.079; 2952680210; 51.03475480; 13.73971620; 2.80; 240.10; -39; 19.699; 
1537781664.170; 0; 51.03470500; 13.73962410; 0.01; 111.90; 0; 0.000; 
1537781664.278; 2952680210; 51.03475480; 13.73971620; 2.80; 240.10; -39; 19.691; 
1537781664.404; 0; 51.03470500; 13.73962400; 0.01; 111.90; 0; 0.000; 
1537781664.478; 2952680210; 51.03474120; 13.73968800; 2.30; 230.90; -37; 19.708; 
1537781664.571; 0; 51.03470500; 13.73962390; 0.02; 111.90; 0; 0.000; 
1537781664.688; 2952680210; 51.03474120; 13.73968800; 2.30; 230.90; -32; 13.831; 
1537781664.776; 0; 51.03470490; 13.73962390; 0.01; 111.90; 0; 0.000; 
1537781664.878; 2952680210; 51.03474120; 13.73968800; 2.30; 230.90; -31; 13.839; 
1537781664.968; 0; 51.03470500; 13.73962380; 0.02; 111.90; 0; 0.000; 
1537781665.089; 2952680210; 51.03474120; 13.73968800; 2.30; 230.90; -28; 13.848; 
1537781665.175; 0; 51.03470490; 13.73962380; 0.02; 111.90; 0; 0.000; 
1537781665.279; 2952680210; 51.03474120; 13.73968800; 2.30; 230.90; -26; 13.856; 
1537781665.410; 0; 51.03470490; 13.73962370; 0.02; 111.90; 0; 0.000; 
1537781665.517; 2952680210; 51.03472770; 13.73966950; 1.78; 217.90; -32; 13.873; 
1537781665.573; 0; 51.03470500; 13.73962360; 0.02; 111.90; 0; 0.000; 
1537781665.689; 2952680210; 51.03472770; 13.73966950; 1.78; 217.90; -31; 9.643; 
1537781665.781; 0; 51.03470490; 13.73962350; 0.02; 111.90; 0; 0.000; 
1537781665.879; 2952680210; 51.03472770; 13.73966950; 1.78; 217.90; -29; 9.668; 
1537781665.983; 0; 51.03470500; 13.73962340; 0.01; 111.90; 0; 0.000; 
1537781666.079; 2952680210; 51.03472770; 13.73966950; 1.78; 217.90; -28; 9.677; 
1537781666.174; 0; 51.03470500; 13.73962330; 0.02; 111.90; 0; 0.000; 
1537781666.279; 2952680210; 51.03472770; 13.73966950; 1.78; 217.90; -25; 9.694; 
1537781666.398; 0; 51.03470500; 13.73962320; 0.02; 111.90; 0; 0.000; 
1537781666.478; 2952680210; 51.03471400; 13.73966370; 1.66; 186.90; -31; 9.711; 
1537781666.577; 0; 51.03470500; 13.73962310; 0.01; 111.90; 0; 0.000; 
1537781666.689; 2952680210; 51.03471400; 13.73966370; 1.66; 186.90; -37; 7.716; 
1537781666.779; 0; 51.03470500; 13.73962300; 0.01; 111.90; 0; 0.000; 
1537781666.878; 2952680210; 51.03471400; 13.73966370; 1.66; 186.90; -38; 7.734; 
1537781666.990; 0; 51.03470500; 13.73962300; 0.01; 111.90; 0; 0.000; 
1537781667.079; 2952680210; 51.03471400; 13.73966370; 1.66; 186.90; -37; 7.734; 
1537781667.175; 0; 51.03470500; 13.73962290; 0.01; 111.90; 0; 0.000; 
1537781667.279; 2952680210; 51.03471400; 13.73966370; 1.66; 186.90; -38; 7.751; 
1537781667.403; 0; 51.03470510; 13.73962280; 0.01; 111.90; 0; 0.000; 
1537781667.479; 2952680210; 51.03469920; 13.73967000; 1.80; 161.20; -38; 7.762; 
1537781667.567; 0; 51.03470510; 13.73962280; 0.01; 111.90; 0; 0.000; 
1537781667.689; 2952680210; 51.03469920; 13.73967000; 1.80; 161.20; -40; 8.063; 
1537781667.770; 0; 51.03470510; 13.73962270; 0.01; 111.90; 0; 0.000; 
1537781667.878; 2952680210; 51.03469920; 13.73967000; 1.80; 161.20; -41; 8.081; 
1537781667.974; 0; 51.03470510; 13.73962260; 0.01; 111.90; 0; 0.000; 
1537781668.079; 2952680210; 51.03469920; 13.73967000; 1.80; 161.20; -44; 8.099; 
1537781668.169; 0; 51.03470510; 13.73962260; 0.01; 111.90; 0; 0.000; 
1537781668.279; 2952680210; 51.03469920; 13.73967000; 1.80; 161.20; -45; 8.099; 
1537781668.402; 0; 51.03470510; 13.73962260; 0.01; 111.90; 0; 0.000; 
1537781668.518; 2952680210; 51.03468870; 13.73968970; 1.82; 125.80; -44; 8.099; 
1537781668.567; 0; 51.03470510; 13.73962250; 0.01; 111.90; 0; 0.000; 
1537781668.689; 2952680210; 51.03468870; 13.73968970; 1.82; 125.80; -43; 11.173; 
1537781668.775; 0; 51.03470520; 13.73962250; 0.01; 111.90; 0; 0.000; 
1537781668.878; 2952680210; 51.03468870; 13.73968970; 1.82; 125.80; -50; 11.169; 
1537781668.961; 0; 51.03470520; 13.73962240; 0.01; 111.90; 0; 0.000; 
1537781669.078; 2952680210; 51.03468870; 13.73968970; 1.82; 125.80; -45; 11.187; 
1537781669.172; 0; 51.03470520; 13.73962240; 0.00; 111.90; 0; 0.000; 
1537781669.290; 2952680210; 51.03468870; 13.73968970; 1.82; 125.80; -45; 11.187; 
1537781669.402; 0; 51.03470520; 13.73962230; 0.01; 111.90; 0; 0.000; 
1537781669.479; 2952680210; 51.03468650; 13.73971550; 1.94; 89.40; -43; 11.204; 
1537781669.562; 0; 51.03470520; 13.73962230; 0.01; 111.90; 0; 0.000; 
1537781669.689; 2952680210; 51.03468650; 13.73971550; 1.94; 89.40; -45; 15.638; 
1537781669.777; 0; 51.03470520; 13.73962230; 0.01; 111.90; 0; 0.000; 
1537781669.889; 2952680210; 51.03468650; 13.73971550; 1.94; 89.40; -46; 15.638; 
1537781669.969; 0; 51.03470530; 13.73962220; 0.01; 111.90; 0; 0.000; 
1537781670.079; 2952680210; 51.03468650; 13.73971550; 1.94; 89.40; -47; 15.652; 
1537781670.169; 0; 51.03470530; 13.73962220; 0.00; 111.90; 0; 0.000; 
1537781670.279; 2952680210; 51.03468650; 13.73971550; 1.94; 89.40; -48; 15.652; 
1537781670.391; 0; 51.03470520; 13.73962220; 0.03; 111.90; 0; 0.000; 
1537781670.479; 2952680210; 51.03469370; 13.73975150; 3.00; 69.00; -54; 15.656; 
1537781670.565; 0; 51.03470520; 13.73962220; 0.01; 111.90; 0; 0.000; 
1537781670.689; 2952680210; 51.03469370; 13.73975150; 3.00; 69.00; -51; 22.297; 
1537781670.769; 0; 51.03470520; 13.73962220; 0.01; 111.90; 0; 0.000; 
1537781670.879; 2952680210; 51.03469370; 13.73975150; 3.00; 69.00; -49; 22.297; 
1537781670.976; 0; 51.03470520; 13.73962220; 0.01; 111.90; 0; 0.000; 
1537781671.089; 2952680210; 51.03469370; 13.73975150; 3.00; 69.00; -51; 22.297; 
1537781671.171; 0; 51.03470530; 13.73962210; 0.01; 111.90; 0; 0.000; 
1537781671.279; 2952680210; 51.03469370; 13.73975150; 3.00; 69.00; -49; 22.310; 
1537781671.402; 0; 51.03470530; 13.73962210; 0.01; 111.90; 0; 0.000; 
1537781671.479; 2952680210; 51.03470650; 13.73979170; 3.22; 61.80; -46; 22.310; 
1537781671.571; 0; 51.03470530; 13.73962200; 0.01; 111.90; 0; 0.000; 
1537781671.688; 2952680210; 51.03470650; 13.73979170; 3.22; 61.80; -46; 30.070; 
1537781671.766; 0; 51.03470540; 13.73962200; 0.01; 111.90; 0; 0.000; 
1537781671.879; 2952680210; 51.03470650; 13.73979170; 3.22; 61.80; -48; 30.065; 
1537781671.974; 0; 51.03470540; 13.73962200; 0.01; 111.90; 0; 0.000; 
1537781672.079; 2952680210; 51.03470650; 13.73979170; 3.22; 61.80; -50; 30.065; 
1537781672.179; 0; 51.03470540; 13.73962190; 0.02; 111.90; 0; 0.000; 
1537781672.289; 2952680210; 51.03470650; 13.73979170; 3.22; 61.80; -48; 30.082; 
1537781672.408; 0; 51.03470550; 13.73962190; 0.00; 111.90; 0; 0.000; 
1537781672.478; 2952680210; 51.03472120; 13.73983100; 3.24; 58.30; -49; 30.077; 
1537781672.572; 0; 51.03470550; 13.73962190; 0.01; 111.90; 0; 0.000; 
1537781672.679; 2952680210; 51.03472120; 13.73983100; 3.24; 58.30; -49; 37.837; 
1537781672.771; 0; 51.03470550; 13.73962190; 0.03; 111.90; 0; 0.000; 
1537781672.890; 2952680210; 51.03472120; 13.73983100; 3.24; 58.30; -46; 37.837; 
1537781672.973; 0; 51.03470550; 13.73962190; 0.01; 111.90; 0; 0.000; 
1537781673.079; 2952680210; 51.03472120; 13.73983100; 3.24; 58.30; -48; 37.837; 
1537781673.160; 0; 51.03470560; 13.73962180; 0.01; 111.90; 0; 0.000; 
1537781673.279; 2952680210; 51.03472120; 13.73983100; 3.24; 58.30; -48; 37.849; 
1537781673.414; 0; 51.03470560; 13.73962190; 0.02; 111.90; 0; 0.000; 
1537781673.479; 2952680210; 51.03473730; 13.73986980; 3.32; 56.40; -51; 37.831; 
1537781673.572; 0; 51.03470560; 13.73962180; 0.01; 111.90; 0; 0.000; 
1537781673.689; 2952680210; 51.03473730; 13.73986980; 3.32; 56.40; -46; 45.650; 
1537781673.792; 0; 51.03470570; 13.73962180; 0.01; 111.90; 0; 0.000; 
1537781673.879; 2952680210; 51.03473730; 13.73986980; 3.32; 56.40; -47; 45.644; 
1537781673.973; 0; 51.03470570; 13.73962180; 0.01; 111.90; 0; 0.000; 
1537781674.089; 2952680210; 51.03473730; 13.73986980; 3.32; 56.40; -47; 45.644; 
1537781674.170; 0; 51.03470560; 13.73962180; 0.00; 111.90; 0; 0.000; 
1537781674.279; 2952680210; 51.03473730; 13.73986980; 3.32; 56.40; -48; 45.650; 
1537781674.414; 0; 51.03470560; 13.73962180; 0.01; 111.90; 0; 0.000; 
1537781674.517; 2952680210; 51.03475400; 13.73990820; 3.30; 55.20; -54; 45.650; 
1537781674.553; 0; 51.03470550; 13.73962180; 0.01; 111.90; 0; 0.000; 
1537781674.689; 2952680210; 51.03475400; 13.73990820; 3.30; 55.20; -52; 53.458; 
1537781674.771; 0; 51.03470540; 13.73962180; 0.02; 111.90; 0; 0.000; 
1537781674.879; 2952680210; 51.03475400; 13.73990820; 3.30; 55.20; -49; 53.464; 
1537781674.973; 0; 51.03470530; 13.73962180; 0.01; 111.90; 0; 0.000; 
1537781675.079; 2952680210; 51.03475400; 13.73990820; 3.30; 55.20; -52; 53.470; 
1537781675.170; 0; 51.03470520; 13.73962180; 0.01; 111.90; 0; 0.000; 
1537781675.290; 2952680210; 51.03475400; 13.73990820; 3.30; 55.20; -51; 53.477; 
1537781675.410; 0; 51.03470510; 13.73962180; 0.01; 111.90; 0; 0.000; 
1537781675.479; 2952680210; 51.03477330; 13.73995020; 3.84; 54.50; -51; 53.483; 
1537781675.572; 0; 51.03470500; 13.73962190; 0.01; 111.90; 0; 0.000; 
1537781675.689; 2952680210; 51.03477330; 13.73995020; 3.84; 54.50; -51; 62.098; 
1537781675.782; 0; 51.03470500; 13.73962190; 0.01; 111.90; 0; 0.000; 
1537781675.889; 2952680210; 51.03477330; 13.73995020; 3.84; 54.50; -58; 62.098; 
1537781675.955; 0; 51.03470500; 13.73962190; 0.01; 111.90; 0; 0.000; 
1537781676.079; 2952680210; 51.03477330; 13.73995020; 3.84; 54.50; -57; 62.098; 
1537781676.170; 0; 51.03470500; 13.73962180; 0.01; 111.90; 0; 0.000; 
1537781676.280; 2952680210; 51.03477330; 13.73995020; 3.84; 54.50; -54; 62.116; 
1537781676.403; 0; 51.03470500; 13.73962180; 0.01; 111.90; 0; 0.000; 
1537781676.479; 2952680210; 51.03479500; 13.73999620; 4.08; 53.20; -55; 62.116; 
1537781676.568; 0; 51.03470510; 13.73962180; 0.01; 111.90; 0; 0.000; 
1537781676.689; 2952680210; 51.03479500; 13.73999620; 4.08; 53.20; -55; 71.617; 
1537781676.771; 0; 51.03470510; 13.73962180; 0.01; 111.90; 0; 0.000; 
1537781676.879; 2952680210; 51.03479500; 13.73999620; 4.08; 53.20; -59; 71.617; 
1537781676.970; 0; 51.03470510; 13.73962180; 0.00; 111.90; 0; 0.000; 
1537781677.089; 2952680210; 51.03479500; 13.73999620; 4.08; 53.20; -58; 71.617; 
1537781677.167; 0; 51.03470510; 13.73962170; 0.01; 111.90; 0; 0.000; 
1537781677.280; 2952680210; 51.03479500; 13.73999620; 4.08; 53.20; -59; 71.634; 
1537781677.388; 0; 51.03470510; 13.73962180; 0.01; 111.90; 0; 0.000; 
1537781677.480; 2952680210; 51.03481820; 13.74004450; 4.26; 53.30; -58; 71.617; 
1537781677.574; 0; 51.03470510; 13.73962170; 0.02; 111.90; 0; 0.000; 
1537781677.689; 2952680210; 51.03481820; 13.74004450; 4.26; 53.30; -56; 81.665; 
1537781677.775; 0; 51.03470510; 13.73962170; 0.00; 111.90; 0; 0.000; 
1537781677.879; 2952680210; 51.03481820; 13.74004450; 4.26; 53.30; -53; 81.665; 
1537781677.972; 0; 51.03470510; 13.73962170; 0.01; 111.90; 0; 0.000; 
1537781678.080; 2952680210; 51.03481820; 13.74004450; 4.26; 53.30; -52; 81.665; 
1537781678.165; 0; 51.03470510; 13.73962170; 0.01; 111.90; 0; 0.000; 
1537781678.290; 2952680210; 51.03481820; 13.74004450; 4.26; 53.30; -53; 81.665; 
1537781678.395; 0; 51.03470510; 13.73962180; 0.02; 111.90; 0; 0.000; 
1537781678.479; 2952680210; 51.03484170; 13.74009470; 4.42; 53.70; -56; 81.647; 
1537781678.569; 0; 51.03470500; 13.73962180; 0.00; 111.90; 0; 0.000; 
1537781678.689; 2952680210; 51.03484170; 13.74009470; 4.42; 53.70; -58; 92.050; 
1537781678.753; 0; 51.03470490; 13.73962190; 0.01; 111.90; 0; 0.000; 
1537781678.890; 2952680210; 51.03484170; 13.74009470; 4.42; 53.70; -58; 92.040; 
1537781678.970; 0; 51.03470490; 13.73962190; 0.00; 111.90; 0; 0.000; 
1537781679.080; 2952680210; 51.03484170; 13.74009470; 4.42; 53.70; -54; 92.040; 
1537781679.165; 0; 51.03470480; 13.73962200; 0.00; 111.90; 0; 0.000; 
1537781679.280; 2952680210; 51.03484170; 13.74009470; 4.42; 53.70; -55; 92.029; 
1537781679.398; 0; 51.03470460; 13.73962200; 0.01; 111.90; 0; 0.000; 
1537781679.479; 2952680210; 51.03486500; 13.74014650; 4.54; 53.90; -58; 92.043; 
1537781679.561; 0; 51.03470460; 13.73962210; 0.00; 111.90; 0; 0.000; 
1537781679.679; 2952680210; 51.03486500; 13.74014650; 4.54; 53.90; -56; 102.696; 
1537781679.770; 0; 51.03470440; 13.73962210; 0.01; 111.90; 0; 0.000; 
1537781679.879; 2952680210; 51.03486500; 13.74014650; 4.54; 53.90; -54; 102.710; 
1537781679.962; 0; 51.03470440; 13.73962210; 0.01; 111.90; 0; 0.000; 
1537781680.101; 2952680210; 51.03486500; 13.74014650; 4.54; 53.90; -56; 102.710; 
1537781680.156; 0; 51.03470430; 13.73962220; 0.00; 111.90; 0; 0.000; 
1537781680.280; 2952680210; 51.03486500; 13.74014650; 4.54; 53.90; -54; 102.700; 
1537781680.404; 0; 51.03470420; 13.73962220; 0.01; 111.90; 0; 0.000; 
1537781680.479; 2952680210; 51.03488830; 13.74019930; 4.58; 54.60; -51; 102.707; 
1537781680.569; 0; 51.03470420; 13.73962230; 0.01; 111.90; 0; 0.000; 
1537781680.690; 2952680210; 51.03488830; 13.74019930; 4.58; 54.60; -55; 113.540; 
1537781680.772; 0; 51.03470420; 13.73962230; 0.00; 111.90; 0; 0.000; 
1537781680.879; 2952680210; 51.03488830; 13.74019930; 4.58; 54.60; -53; 113.540; 
1537781680.972; 0; 51.03470410; 13.73962230; 0.02; 111.90; 0; 0.000; 
1537781681.079; 2952680210; 51.03488830; 13.74019930; 4.58; 54.60; -54; 113.547; 
1537781681.169; 0; 51.03470410; 13.73962230; 0.00; 111.90; 0; 0.000; 
1537781681.291; 2952680210; 51.03488830; 13.74019930; 4.58; 54.60; -58; 113.547; 
1537781681.393; 0; 51.03470410; 13.73962230; 0.01; 111.90; 0; 0.000; 
1537781681.480; 2952680210; 51.03491130; 13.74025320; 4.56; 55.30; -57; 113.547; 
1537781681.553; 0; 51.03470410; 13.73962230; 0.01; 111.90; 0; 0.000; 
1537781681.689; 2952680210; 51.03491130; 13.74025320; 4.56; 55.30; -56; 124.570; 
1537781681.785; 0; 51.03470410; 13.73962240; 0.00; 111.90; 0; 0.000; 
1537781681.889; 2952680210; 51.03491130; 13.74025320; 4.56; 55.30; -59; 124.553; 
1537781681.972; 0; 51.03470410; 13.73962230; 0.01; 111.90; 0; 0.000; 
1537781682.080; 2952680210; 51.03491130; 13.74025320; 4.56; 55.30; -62; 124.570; 
1537781682.171; 0; 51.03470410; 13.73962230; 0.01; 111.90; 0; 0.000; 
1537781682.279; 2952680210; 51.03491130; 13.74025320; 4.56; 55.30; -63; 124.570; 
1537781682.403; 0; 51.03470410; 13.73962230; 0.00; 111.90; 0; 0.000; 
1537781682.519; 2952680210; 51.03493400; 13.74030720; 4.56; 55.50; -63; 124.570; 
1537781682.569; 0; 51.03470410; 13.73962240; 0.01; 111.90; 0; 0.000; 
1537781682.690; 2952680210; 51.03493400; 13.74030720; 4.56; 55.50; -62; 135.574; 
1537781682.772; 0; 51.03470410; 13.73962240; 0.01; 111.90; 0; 0.000; 
1537781682.879; 2952680210; 51.03493400; 13.74030720; 4.56; 55.50; -62; 135.574; 
1537781682.966; 0; 51.03470410; 13.73962240; 0.01; 111.90; 0; 0.000; 
1537781683.090; 2952680210; 51.03493400; 13.74030720; 4.56; 55.50; -58; 135.574; 
1537781683.166; 0; 51.03470410; 13.73962240; 0.01; 111.90; 0; 0.000; 
1537781683.280; 2952680210; 51.03493400; 13.74030720; 4.56; 55.50; -63; 135.574; 
1537781683.402; 0; 51.03470410; 13.73962240; 0.01; 111.90; 0; 0.000; 
1537781683.479; 2952680210; 51.03495650; 13.74036130; 4.54; 55.50; -61; 135.574; 
1537781683.566; 0; 51.03470410; 13.73962250; 0.01; 111.90; 0; 0.000; 
1537781683.690; 2952680210; 51.03495650; 13.74036130; 4.54; 55.50; -59; 146.582; 
1537781683.777; 0; 51.03470410; 13.73962250; 0.01; 111.90; 0; 0.000; 
1537781683.879; 2952680210; 51.03495650; 13.74036130; 4.54; 55.50; -61; 146.582; 
1537781683.962; 0; 51.03470400; 13.73962250; 0.01; 111.90; 0; 0.000; 
1537781684.079; 2952680210; 51.03495650; 13.74036130; 4.54; 55.50; -63; 146.589; 
1537781684.153; 0; 51.03470400; 13.73962250; 0.02; 111.90; 0; 0.000; 
1537781684.291; 2952680210; 51.03495650; 13.74036130; 4.54; 55.50; -61; 146.589; 
1537781684.393; 0; 51.03470400; 13.73962250; 0.00; 111.90; 0; 0.000; 
1537781684.480; 2952680210; 51.03497850; 13.74041380; 4.26; 56.00; -62; 146.589; 
1537781684.561; 0; 51.03470400; 13.73962250; 0.01; 111.90; 0; 0.000; 
1537781684.680; 2952680210; 51.03497850; 13.74041380; 4.26; 56.00; -61; 157.302; 
1537781684.761; 0; 51.03470410; 13.73962250; 0.02; 111.90; 0; 0.000; 
1537781684.889; 2952680210; 51.03497850; 13.74041380; 4.26; 56.00; -62; 157.295; 
1537781684.963; 0; 51.03470410; 13.73962250; 0.00; 111.90; 0; 0.000; 
1537781685.080; 2952680210; 51.03497850; 13.74041380; 4.26; 56.00; -61; 157.295; 
1537781685.162; 0; 51.03470410; 13.73962250; 0.00; 111.90; 0; 0.000; 
1537781685.280; 2952680210; 51.03497850; 13.74041380; 4.26; 56.00; -62; 157.295; 
1537781685.395; 0; 51.03470410; 13.73962260; 0.01; 111.90; 0; 0.000; 
1537781685.480; 2952680210; 51.03499820; 13.74046000; 3.60; 55.50; -65; 157.277; 
1537781685.551; 0; 51.03470410; 13.73962260; 0.01; 111.90; 0; 0.000; 
1537781685.690; 2952680210; 51.03499820; 13.74046000; 3.60; 55.50; -59; 166.730; 
1537781685.766; 0; 51.03470410; 13.73962260; 0.01; 111.90; 0; 0.000; 
1537781685.880; 2952680210; 51.03499820; 13.74046000; 3.60; 55.50; -59; 166.730; 
1537781685.962; 0; 51.03470420; 13.73962270; 0.02; 111.90; 0; 0.000; 
1537781686.090; 2952680210; 51.03499820; 13.74046000; 3.60; 55.50; -60; 166.705; 
1537781686.161; 0; 51.03470420; 13.73962280; 0.01; 111.90; 0; 0.000; 
1537781686.280; 2952680210; 51.03499820; 13.74046000; 3.60; 55.50; -64; 166.688; 
1537781686.396; 0; 51.03470420; 13.73962290; 0.01; 111.90; 0; 0.000; 
1537781686.480; 2952680210; 51.03501780; 13.74049220; 2.80; 40.60; -72; 166.671; 
1537781686.560; 0; 51.03470420; 13.73962290; 0.01; 111.90; 0; 0.000; 
1537781686.690; 2952680210; 51.03501780; 13.74049220; 2.80; 40.60; -65; 173.691; 
1537781686.762; 0; 51.03470430; 13.73962290; 0.01; 111.90; 0; 0.000; 
1537781686.880; 2952680210; 51.03501780; 13.74049220; 2.80; 40.60; -65; 173.684; 
1537781686.953; 0; 51.03470430; 13.73962290; 0.01; 111.90; 0; 0.000; 
1537781687.080; 2952680210; 51.03501780; 13.74049220; 2.80; 40.60; -64; 173.684; 
1537781687.164; 0; 51.03470430; 13.73962290; 0.01; 111.90; 0; 0.000; 
1537781687.291; 2952680210; 51.03501780; 13.74049220; 2.80; 40.60; -67; 173.684; 
1537781687.395; 0; 51.03470440; 13.73962290; 0.01; 111.90; 0; 0.000; 
1537781687.480; 2952680210; 51.03503870; 13.74050070; 2.28; 6.50; -62; 173.676; 
1537781687.560; 0; 51.03470440; 13.73962290; 0.01; 111.90; 0; 0.000; 
1537781687.690; 2952680210; 51.03503870; 13.74050070; 2.28; 6.50; -62; 176.697; 
1537781687.774; 0; 51.03470440; 13.73962300; 0.01; 111.90; 0; 0.000; 
1537781687.890; 2952680210; 51.03503870; 13.74050070; 2.28; 6.50; -64; 176.680; 
1537781687.976; 0; 51.03470440; 13.73962300; 0.00; 111.90; 0; 0.000; 
1537781688.079; 2952680210; 51.03503870; 13.74050070; 2.28; 6.50; -64; 176.680; 
1537781688.160; 0; 51.03470450; 13.73962300; 0.01; 111.90; 0; 0.000; 
1537781688.280; 2952680210; 51.03503870; 13.74050070; 2.28; 6.50; -62; 176.672; 
1537781688.383; 0; 51.03470450; 13.73962300; 0.01; 111.90; 0; 0.000; 
1537781688.518; 2952680210; 51.03505880; 13.74048470; 2.76; 325.00; -64; 176.672; 
1537781688.561; 0; 51.03470460; 13.73962300; 0.01; 111.90; 0; 0.000; 
1537781688.680; 2952680210; 51.03505880; 13.74048470; 2.76; 325.00; -68; 175.418; 
1537781688.761; 0; 51.03470460; 13.73962310; 0.00; 111.90; 0; 0.000; 
1537781688.880; 2952680210; 51.03505880; 13.74048470; 2.76; 325.00; -67; 175.401; 
1537781688.970; 0; 51.03470470; 13.73962310; 0.01; 111.90; 0; 0.000; 
1537781689.089; 2952680210; 51.03505880; 13.74048470; 2.76; 325.00; -67; 175.393; 
1537781689.161; 0; 51.03470470; 13.73962320; 0.00; 111.90; 0; 0.000; 
1537781689.281; 2952680210; 51.03505880; 13.74048470; 2.76; 325.00; -63; 175.376; 
1537781689.394; 0; 51.03470490; 13.73962320; 0.00; 111.90; 0; 0.000; 
1537781689.480; 2952680210; 51.03506550; 13.74044380; 3.30; 273.90; -66; 175.361; 
1537781689.565; 0; 51.03470490; 13.73962320; 0.00; 111.90; 0; 0.000; 
1537781689.690; 2952680210; 51.03506550; 13.74044380; 3.30; 273.90; -66; 168.838; 
1537781689.754; 0; 51.03470500; 13.73962330; 0.01; 111.90; 0; 0.000; 
1537781689.880; 2952680210; 51.03506550; 13.74044380; 3.30; 273.90; -60; 168.813; 
1537781689.970; 0; 51.03470510; 13.73962330; 0.01; 111.90; 0; 0.000; 
1537781690.080; 2952680210; 51.03506550; 13.74044380; 3.30; 273.90; -66; 168.805; 
1537781690.165; 0; 51.03470520; 13.73962330; 0.01; 111.90; 0; 0.000; 
1537781690.290; 2952680210; 51.03506550; 13.74044380; 3.30; 273.90; -65; 168.797; 
1537781690.394; 0; 51.03470540; 13.73962330; 0.00; 111.90; 0; 0.000; 
1537781690.480; 2952680210; 51.03505220; 13.74039580; 3.94; 241.80; -60; 168.782; 
1537781690.560; 0; 51.03470550; 13.73962340; 0.00; 111.90; 0; 0.000; 
1537781690.690; 2952680210; 51.03505220; 13.74039580; 3.94; 241.80; -59; 159.485; 
1537781690.762; 0; 51.03470560; 13.73962340; 0.01; 111.90; 0; 0.000; 
1537781690.890; 2952680210; 51.03505220; 13.74039580; 3.94; 241.80; -61; 159.477; 
1537781690.968; 0; 51.03470570; 13.73962340; 0.01; 111.90; 0; 0.000; 
1537781691.080; 2952680210; 51.03505220; 13.74039580; 3.94; 241.80; -64; 159.470; 
1537781691.155; 0; 51.03470580; 13.73962340; 0.01; 111.90; 0; 0.000; 
1537781691.280; 2952680210; 51.03505220; 13.74039580; 3.94; 241.80; -62; 159.462; 
1537781691.398; 0; 51.03470590; 13.73962340; 0.01; 111.90; 0; 0.000; 
1537781691.519; 2952680210; 51.03502870; 13.74034820; 4.44; 230.80; -73; 159.454; 
1537781691.561; 0; 51.03470590; 13.73962330; 0.01; 111.90; 0; 0.000; 
1537781691.690; 2952680210; 51.03502870; 13.74034820; 4.44; 230.80; -69; 149.477; 
1537781691.770; 0; 51.03470600; 13.73962330; 0.00; 111.90; 0; 0.000; 
1537781691.880; 2952680210; 51.03502870; 13.74034820; 4.44; 230.80; -66; 149.469; 
1537781691.966; 0; 51.03470600; 13.73962330; 0.01; 111.90; 0; 0.000; 
1537781692.090; 2952680210; 51.03502870; 13.74034820; 4.44; 230.80; -62; 149.469; 
1537781692.169; 0; 51.03470600; 13.73962330; 0.01; 111.90; 0; 0.000; 
1537781692.279; 2952680210; 51.03502870; 13.74034820; 4.44; 230.80; -63; 149.469; 
1537781692.397; 0; 51.03470590; 13.73962330; 0.00; 111.90; 0; 0.000; 
1537781692.479; 2952680210; 51.03499580; 13.74028730; 6.90; 229.80; -59; 149.477; 
1537781692.548; 0; 51.03470590; 13.73962340; 0.01; 111.90; 0; 0.000; 
1537781692.690; 2952680210; 51.03499580; 13.74028730; 6.90; 229.80; -64; 136.454; 
1537781692.765; 0; 51.03470580; 13.73962340; 0.01; 111.90; 0; 0.000; 
1537781692.880; 2952680210; 51.03499580; 13.74028730; 6.90; 229.80; -64; 136.462; 
1537781692.967; 0; 51.03470570; 13.73962350; 0.01; 111.90; 0; 0.000; 
1537781693.080; 2952680210; 51.03499580; 13.74028730; 6.90; 229.80; -63; 136.453; 
1537781693.173; 0; 51.03470560; 13.73962350; 0.01; 111.90; 0; 0.000; 
1537781693.293; 2952680210; 51.03499580; 13.74028730; 6.90; 229.80; -64; 136.460; 
1537781693.397; 0; 51.03470560; 13.73962350; 0.01; 111.90; 0; 0.000; 
1537781693.480; 2952680210; 51.03494220; 13.74018550; 10.88; 230.70; -63; 136.460; 
1537781693.561; 0; 51.03470550; 13.73962350; 0.01; 111.90; 0; 0.000; 
1537781693.691; 2952680210; 51.03494220; 13.74018550; 10.88; 230.70; -64; 114.841; 
1537781693.771; 0; 51.03470540; 13.73962350; 0.03; 111.90; 0; 0.000; 
1537781693.890; 2952680210; 51.03494220; 13.74018550; 10.88; 230.70; -62; 114.849; 
1537781693.951; 0; 51.03470540; 13.73962350; 0.02; 111.90; 0; 0.000; 
1537781694.080; 2952680210; 51.03494220; 13.74018550; 10.88; 230.70; -62; 114.849; 
1537781694.167; 0; 51.03470530; 13.73962350; 0.01; 111.90; 0; 0.000; 
1537781694.281; 2952680210; 51.03494220; 13.74018550; 10.88; 230.70; -60; 114.857; 
1537781694.398; 0; 51.03470520; 13.73962360; 0.01; 111.90; 0; 0.000; 
1537781694.519; 2952680210; 51.03487580; 13.74004720; 12.36; 234.30; -60; 114.847; 
1537781694.562; 0; 51.03470520; 13.73962360; 0.01; 111.90; 0; 0.000; 
1537781694.680; 2952680210; 51.03487580; 13.74004720; 12.36; 234.30; -58; 85.966; 
1537781694.764; 0; 51.03470500; 13.73962360; 0.01; 111.90; 0; 0.000; 
1537781694.880; 2952680210; 51.03487580; 13.74004720; 12.36; 234.30; -56; 85.981; 
1537781694.967; 0; 51.03470490; 13.73962360; 0.01; 111.90; 0; 0.000; 
1537781695.091; 2952680210; 51.03487580; 13.74004720; 12.36; 234.30; -56; 85.988; 
1537781695.157; 0; 51.03470480; 13.73962360; 0.01; 111.90; 0; 0.000; 
1537781695.281; 2952680210; 51.03487580; 13.74004720; 12.36; 234.30; -58; 85.996; 
1537781695.389; 0; 51.03470490; 13.73962360; 0.01; 111.90; 0; 0.000; 
1537781695.480; 2952680210; 51.03482150; 13.73991080; 10.46; 239.30; -53; 85.988; 
1537781695.559; 0; 51.03470490; 13.73962350; 0.01; 111.90; 0; 0.000; 
1537781695.690; 2952680210; 51.03482150; 13.73991080; 10.46; 239.30; -58; 58.372; 
1537781695.765; 0; 51.03470480; 13.73962350; 0.01; 111.90; 0; 0.000; 
1537781695.880; 2952680210; 51.03482150; 13.73991080; 10.46; 239.30; -58; 58.380; 
1537781695.967; 0; 51.03470470; 13.73962350; 0.01; 111.90; 0; 0.000; 
1537781696.080; 2952680210; 51.03482150; 13.73991080; 10.46; 239.30; -54; 58.388; 
1537781696.162; 0; 51.03470460; 13.73962350; 0.00; 111.90; 0; 0.000; 
1537781696.290; 2952680210; 51.03482150; 13.73991080; 10.46; 239.30; -54; 58.395; 
1537781697.220; 0; 51.03470460; 13.73962360; 0.02; 111.90; 0; 0.000; 
1537781697.221; 0; 51.03470450; 13.73962370; 0.01; 111.90; 0; 0.000; 
1537781697.222; 2952680210; 51.03478280; 13.73979900; 7.92; 242.30; -48; 58.368; 
1537781697.223; 0; 51.03470430; 13.73962370; 0.01; 111.90; 0; 0.000; 
1537781697.223; 2952680210; 51.03478280; 13.73979900; 7.92; 242.30; -49; 36.181; 
1537781697.225; 0; 51.03470420; 13.73962370; 0.01; 111.90; 0; 0.000; 
1537781697.226; 2952680210; 51.03478280; 13.73979900; 7.92; 242.30; -45; 36.189; 
1537781697.226; 0; 51.03470410; 13.73962380; 0.01; 111.90; 0; 0.000; 
1537781697.280; 2952680210; 51.03478280; 13.73979900; 7.92; 242.30; -44; 36.180; 
1537781697.397; 0; 51.03470390; 13.73962390; 0.03; 111.90; 0; 0.000; 
1537781697.519; 2952680210; 51.03475430; 13.73971970; 5.60; 238.70; -41; 36.178; 
1537781697.559; 0; 51.03470380; 13.73962390; 0.01; 111.90; 0; 0.000; 
1537781698.460; 2952680210; 51.03475430; 13.73971970; 5.60; 238.70; -38; 20.376; 
1537781698.461; 0; 51.03470370; 13.73962390; 0.01; 111.90; 0; 0.000; 
1537781698.462; 2952680210; 51.03475430; 13.73971970; 5.60; 238.70; -34; 20.384; 
1537781698.462; 0; 51.03470360; 13.73962390; 0.01; 111.90; 0; 0.000; 
1537781698.464; 2952680210; 51.03475430; 13.73971970; 5.60; 238.70; -30; 20.392; 
1537781698.465; 0; 51.03470340; 13.73962400; 0.01; 111.90; 0; 0.000; 
1537781698.465; 2952680210; 51.03475430; 13.73971970; 5.60; 238.70; -28; 20.392; 
1537781698.467; 0; 51.03470330; 13.73962400; 0.03; 111.90; 0; 0.000; 
1537781698.481; 2952680210; 51.03472830; 13.73967750; 3.22; 220.50; -28; 20.400; 
1537781699.245; 0; 51.03470320; 13.73962410; 0.01; 111.90; 0; 0.000; 
1537781699.246; 2952680210; 51.03472830; 13.73967750; 3.22; 220.50; -27; 11.114; 
1537781699.246; 0; 51.03470310; 13.73962410; 0.01; 111.90; 0; 0.000; 
1537781699.247; 0; 51.03470290; 13.73962420; 0.02; 111.90; 0; 0.000; 
1537781699.249; 2952680210; 51.03472830; 13.73967750; 3.22; 220.50; -39; 11.121; 
1537781699.249; 0; 51.03470280; 13.73962420; 0.01; 111.90; 0; 0.000; 
1537781699.291; 2952680210; 51.03472830; 13.73967750; 3.22; 220.50; -36; 11.129; 
1537781699.950; 2952680210; 51.03471530; 13.73966720; 0.78; 204.40; -32; 11.129; 
1537781699.951; 0; 51.03470270; 13.73962430; 0.03; 111.90; 0; 0.000; 
1537781699.951; 0; 51.03470250; 13.73962440; 0.03; 111.90; 0; 0.000; 
1537781699.952; 2952680210; 51.03471530; 13.73966720; 0.78; 204.40; -29; 8.361; 
1537781699.953; 0; 51.03470240; 13.73962440; 0.00; 111.90; 0; 0.000; 
1537781699.953; 2952680210; 51.03471530; 13.73966720; 0.78; 204.40; -27; 8.368; 
1537781699.979; 0; 51.03470230; 13.73962450; 0.01; 111.90; 0; 0.000; 
1537781700.079; 2952680210; 51.03471530; 13.73966720; 0.78; 204.40; -27; 8.358; 
1537781700.166; 0; 51.03470210; 13.73962450; 0.01; 111.90; 0; 0.000; 
1537781700.280; 2952680210; 51.03471530; 13.73966720; 0.78; 204.40; -27; 8.372; 
1537781700.399; 0; 51.03470200; 13.73962460; 0.01; 111.90; 0; 0.000; 
1537781700.519; 2952680210; 51.03471350; 13.73966530; 0.02; 204.40; -27; 8.362; 
1537781700.573; 0; 51.03470190; 13.73962470; 0.01; 111.90; 0; 0.000; 
1537781700.681; 2952680210; 51.03471350; 13.73966530; 0.02; 204.40; -27; 7.893; 
1537781700.751; 0; 51.03470180; 13.73962470; 0.01; 111.90; 0; 0.000; 
1537781701.497; 0; 51.03470170; 13.73962480; 0.00; 111.90; 0; 0.000; 
1537781701.499; 2952680210; 51.03471350; 13.73966530; 0.02; 204.40; -27; 7.890; 
1537781701.499; 0; 51.03470160; 13.73962480; 0.01; 111.90; 0; 0.000; 
1537781701.500; 2952680210; 51.03471350; 13.73966530; 0.02; 204.40; -28; 7.897; 
1537781701.501; 0; 51.03470160; 13.73962480; 0.02; 111.90; 0; 0.000; 
1537781701.501; 2952680210; 51.03471320; 13.73966470; 0.00; 204.40; -27; 7.897; 
1537781701.568; 0; 51.03470150; 13.73962490; 0.01; 111.90; 0; 0.000; 
1537781701.690; 2952680210; 51.03471320; 13.73966470; 0.00; 204.40; -27; 7.761; 
1537781701.771; 0; 51.03470140; 13.73962490; 0.01; 111.90; 0; 0.000; 
1537781701.880; 2952680210; 51.03471320; 13.73966470; 0.00; 204.40; -27; 7.768; 
1537781701.969; 0; 51.03470120; 13.73962490; 0.01; 111.90; 0; 0.000; 
1537781702.081; 2952680210; 51.03471320; 13.73966470; 0.00; 204.40; -28; 7.782; 
1537781702.151; 0; 51.03470110; 13.73962500; 0.01; 111.90; 0; 0.000; 
1537781702.292; 2952680210; 51.03471320; 13.73966470; 0.00; 204.40; -28; 7.772; 
1537781702.399; 0; 51.03470100; 13.73962500; 0.03; 111.90; 0; 0.000; 
1537781702.481; 2952680210; 51.03471300; 13.73966380; 0.02; 204.40; -27; 7.779; 
1537781702.562; 0; 51.03470100; 13.73962500; 0.02; 111.90; 0; 0.000; 
1537781702.691; 2952680210; 51.03471300; 13.73966380; 0.02; 204.40; -27; 7.608; 
1537781702.763; 0; 51.03470090; 13.73962500; 0.00; 111.90; 0; 0.000; 
1537781702.881; 2952680210; 51.03471300; 13.73966380; 0.02; 204.40; -27; 7.615; 
1537781702.963; 0; 51.03470080; 13.73962500; 0.03; 111.90; 0; 0.000; 
1537781703.081; 2952680210; 51.03471300; 13.73966380; 0.02; 204.40; -27; 7.622; 
1537781703.163; 0; 51.03470070; 13.73962500; 0.02; 111.90; 0; 0.000; 
1537781703.281; 2952680210; 51.03471300; 13.73966380; 0.02; 204.40; -28; 7.629; 
1537781703.396; 0; 51.03470070; 13.73962500; 0.01; 111.90; 0; 0.000; 
1537781703.520; 2952680210; 51.03471300; 13.73966350; 0.02; 204.40; -28; 7.629; 
1537781703.548; 0; 51.03470070; 13.73962500; 0.01; 111.90; 0; 0.000; 
1537781703.691; 2952680210; 51.03471300; 13.73966350; 0.02; 204.40; -27; 7.577; 
1537781703.772; 0; 51.03470060; 13.73962500; 0.02; 111.90; 0; 0.000; 
1537781703.881; 2952680210; 51.03471300; 13.73966350; 0.02; 204.40; -27; 7.584; 
1537781703.967; 0; 51.03470070; 13.73962490; 0.02; 111.90; 0; 0.000; 
1537781704.091; 2952680210; 51.03471300; 13.73966350; 0.02; 204.40; -28; 7.594; 
1537781704.165; 0; 51.03470070; 13.73962480; 0.01; 111.90; 0; 0.000; 
1537781704.281; 2952680210; 51.03471300; 13.73966350; 0.02; 204.40; -28; 7.612; 
1537781704.399; 0; 51.03470070; 13.73962480; 0.01; 111.90; 0; 0.000; 
1537781704.481; 2952680210; 51.03471320; 13.73966280; 0.02; 204.40; -28; 7.612; 
1537781704.563; 0; 51.03470070; 13.73962470; 0.01; 111.90; 0; 0.000; 
1537781704.691; 2952680210; 51.03471320; 13.73966280; 0.02; 204.40; -27; 7.522; 
1537781704.771; 0; 51.03470050; 13.73962470; 0.03; 111.90; 0; 0.000; 
1537781704.880; 2952680210; 51.03471320; 13.73966280; 0.02; 204.40; -27; 7.536; 
1537781704.953; 0; 51.03470050; 13.73962460; 0.01; 111.90; 0; 0.000; 
1537781705.080; 2952680210; 51.03471320; 13.73966280; 0.02; 204.40; -28; 7.554; 
1537781705.164; 0; 51.03470050; 13.73962450; 0.01; 111.90; 0; 0.000; 
1537781705.292; 2952680210; 51.03471320; 13.73966280; 0.02; 204.40; -27; 7.571; 
1537781705.395; 0; 51.03470050; 13.73962440; 0.01; 111.90; 0; 0.000; 
1537781705.481; 2952680210; 51.03471320; 13.73966220; 0.00; 204.40; -27; 7.588; 
1537781705.561; 0; 51.03470050; 13.73962430; 0.01; 111.90; 0; 0.000; 
1537781705.691; 2952680210; 51.03471320; 13.73966220; 0.00; 204.40; -28; 7.502; 
1537781705.793; 0; 51.03470050; 13.73962420; 0.00; 111.90; 0; 0.000; 
1537781705.891; 2952680210; 51.03471320; 13.73966220; 0.00; 204.40; -27; 7.519; 
1537781705.964; 0; 51.03470050; 13.73962410; 0.02; 111.90; 0; 0.000; 
1537781706.081; 2952680210; 51.03471320; 13.73966220; 0.00; 204.40; -27; 7.536; 
1537781706.163; 0; 51.03470060; 13.73962400; 0.00; 111.90; 0; 0.000; 
1537781706.281; 2952680210; 51.03471320; 13.73966220; 0.00; 204.40; -27; 7.546; 
1537781706.382; 0; 51.03470070; 13.73962380; 0.02; 111.90; 0; 0.000; 
1537781706.481; 2952680210; 51.03471330; 13.73966120; 0.00; 204.40; -28; 7.574; 
1537781706.561; 0; 51.03470080; 13.73962370; 0.01; 111.90; 0; 0.000; 
1537781706.691; 2952680210; 51.03471330; 13.73966120; 0.00; 204.40; -28; 7.418; 
1537781706.767; 0; 51.03470080; 13.73962360; 0.01; 111.90; 0; 0.000; 
1537781706.880; 2952680210; 51.03471330; 13.73966120; 0.00; 204.40; -27; 7.435; 
1537781706.967; 0; 51.03470090; 13.73962340; 0.01; 111.90; 0; 0.000; 
1537781707.091; 2952680210; 51.03471330; 13.73966120; 0.00; 204.40; -27; 7.462; 
1537781707.165; 0; 51.03470100; 13.73962330; 0.01; 111.90; 0; 0.000; 
1537781707.281; 2952680210; 51.03471330; 13.73966120; 0.00; 204.40; -28; 7.473; 
1537781707.398; 0; 51.03470100; 13.73962320; 0.01; 111.90; 0; 0.000; 
1537781707.480; 2952680210; 51.03471350; 13.73966020; 0.00; 204.40; -27; 7.490; 
1537781707.562; 0; 51.03470110; 13.73962300; 0.01; 111.90; 0; 0.000; 
1537781707.691; 2952680210; 51.03471350; 13.73966020; 0.00; 204.40; -28; 7.358; 
1537781707.758; 0; 51.03470120; 13.73962290; 0.01; 111.90; 0; 0.000; 
1537781707.881; 2952680210; 51.03471350; 13.73966020; 0.00; 204.40; -27; 7.368; 
1537781707.972; 0; 51.03470130; 13.73962280; 0.02; 111.90; 0; 0.000; 
1537781708.081; 2952680210; 51.03471350; 13.73966020; 0.00; 204.40; -28; 7.379; 
1537781708.166; 0; 51.03470140; 13.73962260; 0.02; 111.90; 0; 0.000; 
1537781708.292; 2952680210; 51.03471350; 13.73966020; 0.00; 204.40; -28; 7.406; 
1537781708.399; 0; 51.03470140; 13.73962250; 0.02; 111.90; 0; 0.000; 
1537781708.481; 2952680210; 51.03471370; 13.73965930; 0.00; 204.40; -27; 7.424; 
1537781708.565; 0; 51.03470150; 13.73962240; 0.02; 111.90; 0; 0.000; 
1537781708.681; 2952680210; 51.03471370; 13.73965930; 0.00; 204.40; -27; 7.292; 
1537781708.766; 0; 51.03470160; 13.73962230; 0.01; 111.90; 0; 0.000; 
1537781708.881; 2952680210; 51.03471370; 13.73965930; 0.00; 204.40; -28; 7.302; 
1537781708.970; 0; 51.03470170; 13.73962210; 0.02; 111.90; 0; 0.000; 
1537781709.081; 2952680210; 51.03471370; 13.73965930; 0.00; 204.40; -28; 7.329; 
1537781709.154; 0; 51.03470170; 13.73962200; 0.00; 111.90; 0; 0.000; 
1537781709.281; 2952680210; 51.03471370; 13.73965930; 0.00; 204.40; -27; 7.347; 
1537781709.394; 0; 51.03470180; 13.73962190; 0.01; 111.90; 0; 0.000; 
1537781709.481; 2952680210; 51.03471370; 13.73965830; 0.00; 204.40; -28; 7.357; 
1537781709.556; 0; 51.03470190; 13.73962180; 0.02; 111.90; 0; 0.000; 
1537781709.692; 2952680210; 51.03471370; 13.73965830; 0.00; 204.40; -27; 7.193; 
1537781709.769; 0; 51.03470190; 13.73962160; 0.02; 111.90; 0; 0.000; 
1537781709.881; 2952680210; 51.03471370; 13.73965830; 0.00; 204.40; -27; 7.228; 
1537781709.976; 0; 51.03470200; 13.73962150; 0.01; 111.90; 0; 0.000; 
1537781710.091; 2952680210; 51.03471370; 13.73965830; 0.00; 204.40; -27; 7.238; 
1537781710.165; 0; 51.03470200; 13.73962140; 0.01; 111.90; 0; 0.000; 
1537781710.282; 2952680210; 51.03471370; 13.73965830; 0.00; 204.40; -27; 7.256; 
1537781710.394; 0; 51.03470210; 13.73962130; 0.00; 111.90; 0; 0.000; 
1537781710.481; 2952680210; 51.03471380; 13.73965750; 0.00; 204.40; -27; 7.266; 
1537781710.560; 0; 51.03470220; 13.73962120; 0.01; 111.90; 0; 0.000; 
1537781710.691; 2952680210; 51.03471380; 13.73965750; 0.00; 204.40; -27; 7.144; 
1537781710.771; 0; 51.03470220; 13.73962110; 0.01; 111.90; 0; 0.000; 
1537781710.881; 2952680210; 51.03471380; 13.73965750; 0.00; 204.40; -27; 7.162; 
1537781710.966; 0; 51.03470230; 13.73962110; 0.00; 111.90; 0; 0.000; 
1537781711.081; 2952680210; 51.03471380; 13.73965750; 0.00; 204.40; -27; 7.154; 
1537781711.164; 0; 51.03470240; 13.73962100; 0.01; 111.90; 0; 0.000; 
1537781711.281; 2952680210; 51.03471380; 13.73965750; 0.00; 204.40; -28; 7.165; 
1537781711.395; 0; 51.03470250; 13.73962090; 0.00; 111.90; 0; 0.000; 
1537781711.481; 2952680210; 51.03471400; 13.73965670; 0.02; 204.40; -27; 7.175; 
1537781711.561; 0; 51.03470260; 13.73962080; 0.01; 111.90; 0; 0.000; 
1537781711.692; 2952680210; 51.03471400; 13.73965670; 0.02; 204.40; -28; 7.060; 
1537781711.768; 0; 51.03470270; 13.73962070; 0.00; 111.90; 0; 0.000; 
1537781711.891; 2952680210; 51.03471400; 13.73965670; 0.02; 204.40; -27; 7.071; 
1537781711.963; 0; 51.03470280; 13.73962060; 0.01; 111.90; 0; 0.000; 
1537781712.081; 2952680210; 51.03471400; 13.73965670; 0.02; 204.40; -27; 7.081; 
1537781712.166; 0; 51.03470280; 13.73962060; 0.01; 111.90; 0; 0.000; 
1537781712.281; 2952680210; 51.03471400; 13.73965670; 0.02; 204.40; -27; 7.081; 
1537781712.394; 0; 51.03470290; 13.73962060; 0.00; 111.90; 0; 0.000; 
1537781712.481; 2952680210; 51.03471420; 13.73965600; 0.00; 204.40; -27; 7.074; 
1537781712.561; 0; 51.03470300; 13.73962060; 0.01; 111.90; 0; 0.000; 
1537781712.682; 2952680210; 51.03471420; 13.73965600; 0.00; 204.40; -27; 6.959; 
1537781712.762; 0; 51.03470310; 13.73962060; 0.01; 111.90; 0; 0.000; 
1537781712.881; 2952680210; 51.03471420; 13.73965600; 0.00; 204.40; -27; 6.952; 
1537781712.971; 0; 51.03470330; 13.73962050; 0.03; 111.90; 0; 0.000; 
1537781713.081; 2952680210; 51.03471420; 13.73965600; 0.00; 204.40; -27; 6.955; 
1537781713.162; 0; 51.03470340; 13.73962060; 0.00; 111.90; 0; 0.000; 
1537781713.282; 2952680210; 51.03471420; 13.73965600; 0.00; 204.40; -27; 6.931; 
1537781713.395; 0; 51.03470360; 13.73962050; 0.00; 111.90; 0; 0.000; 
1537781713.481; 2952680210; 51.03471450; 13.73965530; 0.00; 204.40; -27; 6.934; 
1537781713.560; 0; 51.03470370; 13.73962050; 0.01; 111.90; 0; 0.000; 
1537781713.691; 2952680210; 51.03471450; 13.73965530; 0.00; 204.40; -27; 6.826; 
1537781713.764; 0; 51.03470390; 13.73962050; 0.01; 111.90; 0; 0.000; 
1537781713.881; 2952680210; 51.03471450; 13.73965530; 0.00; 204.40; -27; 6.812; 
1537781713.963; 0; 51.03470410; 13.73962050; 0.01; 111.90; 0; 0.000; 
1537781714.081; 2952680210; 51.03471450; 13.73965530; 0.00; 204.40; -28; 6.798; 
1537781714.169; 0; 51.03470430; 13.73962050; 0.02; 111.90; 0; 0.000; 
1537781714.292; 2952680210; 51.03471450; 13.73965530; 0.00; 204.40; -27; 6.784; 
1537781714.395; 0; 51.03470450; 13.73962050; 0.02; 111.90; 0; 0.000; 
1537781714.482; 2952680210; 51.03471470; 13.73965470; 0.00; 204.40; -28; 6.770; 
1537781714.550; 0; 51.03470460; 13.73962050; 0.01; 111.90; 0; 0.000; 
1537781714.682; 2952680210; 51.03471470; 13.73965470; 0.00; 204.40; -27; 6.672; 
1537781714.763; 0; 51.03470480; 13.73962050; 0.01; 111.90; 0; 0.000; 
1537781714.892; 2952680210; 51.03471470; 13.73965470; 0.00; 204.40; -28; 6.658; 
1537781714.962; 0; 51.03470500; 13.73962050; 0.00; 111.90; 0; 0.000; 
1537781715.082; 2952680210; 51.03471470; 13.73965470; 0.00; 204.40; -27; 6.644; 
1537781715.162; 0; 51.03470510; 13.73962060; 0.01; 111.90; 0; 0.000; 
1537781715.282; 2952680210; 51.03471470; 13.73965470; 0.00; 204.40; -28; 6.620; 
1537781715.395; 0; 51.03470520; 13.73962060; 0.01; 111.90; 0; 0.000; 
1537781715.520; 2952680210; 51.03471470; 13.73965430; 0.00; 204.40; -28; 6.613; 
1537781715.560; 0; 51.03470530; 13.73962060; 0.02; 111.90; 0; 0.000; 
1537781715.691; 2952680210; 51.03471470; 13.73965430; 0.00; 204.40; -28; 6.536; 
1537781715.766; 0; 51.03470530; 13.73962060; 0.00; 111.90; 0; 0.000; 
1537781715.882; 2952680210; 51.03471470; 13.73965430; 0.00; 204.40; -28; 6.536; 
1537781715.952; 0; 51.03470540; 13.73962060; 0.02; 111.90; 0; 0.000; 
1537781716.092; 2952680210; 51.03471470; 13.73965430; 0.00; 204.40; -27; 6.529; 
1537781716.162; 0; 51.03470550; 13.73962050; 0.02; 111.90; 0; 0.000; 
1537781716.282; 2952680210; 51.03471470; 13.73965430; 0.00; 204.40; -27; 6.539; 
1537781716.406; 0; 51.03470560; 13.73962050; 0.01; 111.90; 0; 0.000; 
1537781716.481; 2952680210; 51.03471470; 13.73965370; 0.00; 204.40; -27; 6.533; 
1537781716.563; 0; 51.03470570; 13.73962050; 0.01; 111.90; 0; 0.000; 
1537781716.691; 2952680210; 51.03471470; 13.73965370; 0.00; 204.40; -27; 6.421; 
1537781716.763; 0; 51.03470570; 13.73962040; 0.00; 111.90; 0; 0.000; 
1537781716.891; 2952680210; 51.03471470; 13.73965370; 0.00; 204.40; -27; 6.438; 
1537781716.965; 0; 51.03470580; 13.73962040; 0.00; 111.90; 0; 0.000; 
1537781717.082; 2952680210; 51.03471470; 13.73965370; 0.00; 204.40; -27; 6.431; 
1537781717.164; 0; 51.03470590; 13.73962040; 0.01; 111.90; 0; 0.000; 
1537781717.293; 2952680210; 51.03471470; 13.73965370; 0.00; 204.40; -27; 6.425; 
1537781717.385; 0; 51.03470600; 13.73962040; 0.01; 111.90; 0; 0.000; 
1537781717.482; 2952680210; 51.03471450; 13.73965330; 0.00; 204.40; -27; 6.418; 
1537781717.561; 0; 51.03470600; 13.73962030; 0.00; 111.90; 0; 0.000; 
1537781717.692; 2952680210; 51.03471450; 13.73965330; 0.00; 204.40; -27; 6.352; 
1537781717.776; 0; 51.03470610; 13.73962040; 0.01; 111.90; 0; 0.000; 
1537781717.891; 2952680210; 51.03471450; 13.73965330; 0.00; 204.40; -27; 6.327; 
1537781717.966; 0; 51.03470610; 13.73962040; 0.01; 111.90; 0; 0.000; 
1537781718.081; 2952680210; 51.03471450; 13.73965330; 0.00; 204.40; -28; 6.327; 
1537781718.163; 0; 51.03470600; 13.73962030; 0.01; 111.90; 0; 0.000; 
1537781718.282; 2952680210; 51.03471450; 13.73965330; 0.00; 204.40; -27; 6.352; 
1537781718.406; 0; 51.03470590; 13.73962030; 0.01; 111.90; 0; 0.000; 
1537781718.521; 2952680210; 51.03471430; 13.73965320; 0.00; 204.40; -28; 6.358; 
1537781718.561; 0; 51.03470590; 13.73962030; 0.01; 111.90; 0; 0.000; 
1537781718.682; 2952680210; 51.03471430; 13.73965320; 0.00; 204.40; -27; 6.327; 
1537781718.751; 0; 51.03470580; 13.73962030; 0.01; 111.90; 0; 0.000; 
1537781718.882; 2952680210; 51.03471430; 13.73965320; 0.00; 204.40; -27; 6.334; 
1537781718.971; 0; 51.03470560; 13.73962030; 0.01; 111.90; 0; 0.000; 
1537781719.091; 2952680210; 51.03471430; 13.73965320; 0.00; 204.40; -28; 6.348; 
1537781719.164; 0; 51.03470550; 13.73962030; 0.00; 111.90; 0; 0.000; 
1537781719.282; 2952680210; 51.03471430; 13.73965320; 0.00; 204.40; -29; 6.355; 
1537781719.397; 0; 51.03470540; 13.73962030; 0.00; 111.90; 0; 0.000; 
1537781719.482; 2952680210; 51.03471400; 13.73965280; 0.00; 204.40; -27; 6.362; 
1537781719.563; 0; 51.03470530; 13.73962020; 0.01; 111.90; 0; 0.000; 
1537781719.692; 2952680210; 51.03471400; 13.73965280; 0.00; 204.40; -27; 6.295; 
1537781719.769; 0; 51.03470530; 13.73962010; 0.01; 111.90; 0; 0.000; 
1537781719.882; 2952680210; 51.03471400; 13.73965280; 0.00; 204.40; -28; 6.313; 
1537781719.964; 0; 51.03470530; 13.73962000; 0.01; 111.90; 0; 0.000; 
1537781720.082; 2952680210; 51.03471400; 13.73965280; 0.00; 204.40; -28; 6.330; 
1537781720.152; 0; 51.03470520; 13.73962000; 0.00; 111.90; 0; 0.000; 
1537781720.292; 2952680210; 51.03471400; 13.73965280; 0.00; 204.40; -28; 6.337; 
1537781720.396; 0; 51.03470520; 13.73961990; 0.01; 111.90; 0; 0.000; 
1537781720.481; 2952680210; 51.03471380; 13.73965270; 0.00; 204.40; -27; 6.355; 
1537781720.570; 0; 51.03470520; 13.73961990; 0.01; 111.90; 0; 0.000; 
1537781720.681; 2952680210; 51.03471380; 13.73965270; 0.00; 204.40; -28; 6.323; 
1537781720.765; 0; 51.03470510; 13.73961990; 0.01; 111.90; 0; 0.000; 
1537781720.881; 2952680210; 51.03471380; 13.73965270; 0.00; 204.40; -27; 6.330; 
1537781720.964; 0; 51.03470500; 13.73961990; 0.01; 111.90; 0; 0.000; 
1537781721.082; 2952680210; 51.03471380; 13.73965270; 0.00; 204.40; -27; 6.337; 
1537781721.163; 0; 51.03470500; 13.73962000; 0.01; 111.90; 0; 0.000; 
1537781721.282; 2952680210; 51.03471380; 13.73965270; 0.00; 204.40; -28; 6.320; 
1537781721.398; 0; 51.03470500; 13.73961990; 0.01; 111.90; 0; 0.000; 
1537781721.520; 2952680210; 51.03471350; 13.73965230; 0.00; 204.40; -27; 6.337; 
1537781721.561; 0; 51.03470490; 13.73961990; 0.01; 111.90; 0; 0.000; 
1537781721.692; 2952680210; 51.03471350; 13.73965230; 0.00; 204.40; -27; 6.253; 
1537781721.766; 0; 51.03470490; 13.73961980; 0.01; 111.90; 0; 0.000; 
1537781721.881; 2952680210; 51.03471350; 13.73965230; 0.00; 204.40; -27; 6.271; 
1537781721.963; 0; 51.03470490; 13.73961980; 0.01; 111.90; 0; 0.000; 
1537781722.092; 2952680210; 51.03471350; 13.73965230; 0.00; 204.40; -27; 6.271; 
1537781722.164; 0; 51.03470480; 13.73961960; 0.00; 111.90; 0; 0.000; 
1537781722.282; 2952680210; 51.03471350; 13.73965230; 0.00; 204.40; -28; 6.313; 
1537781722.396; 0; 51.03470470; 13.73961960; 0.01; 111.90; 0; 0.000; 
1537781722.483; 2952680210; 51.03471320; 13.73965230; 0.00; 204.40; -29; 6.320; 
1537781722.568; 0; 51.03470470; 13.73961950; 0.01; 111.90; 0; 0.000; 
1537781722.692; 2952680210; 51.03471320; 13.73965230; 0.00; 204.40; -27; 6.317; 
1537781722.764; 0; 51.03470450; 13.73961940; 0.01; 111.90; 0; 0.000; 
1537781722.882; 2952680210; 51.03471320; 13.73965230; 0.00; 204.40; -27; 6.348; 
1537781722.959; 0; 51.03470450; 13.73961930; 0.02; 111.90; 0; 0.000; 
1537781723.082; 2952680210; 51.03471320; 13.73965230; 0.00; 204.40; -27; 6.365; 
1537781723.163; 0; 51.03470440; 13.73961920; 0.01; 111.90; 0; 0.000; 
1537781723.282; 2952680210; 51.03471320; 13.73965230; 0.00; 204.40; -27; 6.390; 
1537781723.398; 0; 51.03470430; 13.73961910; 0.00; 111.90; 0; 0.000; 
1537781723.482; 2952680210; 51.03471250; 13.73965250; 0.00; 204.40; -28; 6.414; 
